Platform,Iterations,ModelName,Time
AnsiC,100000,outputParallelSource4,0.013028
AnsiC,135000,outputParallelSource4,0.015903
AnsiC,175000,outputParallelSource4,0.021524
AnsiC,235000,outputParallelSource4,0.028104
AnsiC,300000,outputParallelSource4,0.035506
AnsiC,420000,outputParallelSource4,0.049917
AnsiC,550000,outputParallelSource4,0.066007
AnsiC,750000,outputParallelSource4,0.088836
AnsiC,1000000,outputParallelSource4,0.119077
AnsiC,1350000,outputParallelSource4,0.161283
AnsiC,1750000,outputParallelSource4,0.206858
AnsiC,2350000,outputParallelSource4,0.283701
AnsiC,3000000,outputParallelSource4,0.359761
AnsiC,4200000,outputParallelSource4,0.495254
AnsiC,5500000,outputParallelSource4,0.660977
AnsiC,7500000,outputParallelSource4,0.902709
AnsiC,10000000,outputParallelSource4,1.180351
AnsiC,13500000,outputParallelSource4,1.610236
AnsiC,17500000,outputParallelSource4,2.090154
AnsiC,23500000,outputParallelSource4,2.804682
AnsiC,30000000,outputParallelSource4,3.564688
AnsiC,42000000,outputParallelSource4,4.987171
AnsiC,55000000,outputParallelSource4,6.730102
AnsiC,75000000,outputParallelSource4,8.956501
