Platform,Iterations,ModelName,Success,Time
GPU 0 OpenCL,5,outputParallelSource4,0,0.027931
GPU 0 OpenCL,50,outputParallelSource4,0,0.027103
GPU 0 OpenCL,500,outputParallelSource4,0,0.027361
GPU 0 OpenCL,5000,outputParallelSource4,0,0.028215
GPU 0 OpenCL,50000,outputParallelSource4,0,0.028388
GPU 0 OpenCL,500000,outputParallelSource4,0,0.042139
GPU 0 OpenCL,5000000,outputParallelSource4,0,0.179780
GPU 0 OpenCL,50000000,outputParallelSource4,0,0.679498