Platform,Iterations,ModelName,Success,Time
GPU 1 OpenCL,5,outputParallelSource4,0,0.034990
GPU 1 OpenCL,50,outputParallelSource4,0,0.037160
GPU 1 OpenCL,500,outputParallelSource4,0,0.033336
GPU 1 OpenCL,5000,outputParallelSource4,0,0.037476
GPU 1 OpenCL,50000,outputParallelSource4,0,0.042938
GPU 1 OpenCL,500000,outputParallelSource4,0,0.052191
GPU 1 OpenCL,5000000,outputParallelSource4,0,0.186232
GPU 1 OpenCL,50000000,outputParallelSource4,0,0.660670