Platform,Iterations,ModelName,Time
AnsiC,100000,outputParallelSource3,0.008453
AnsiC,135000,outputParallelSource3,0.012568
AnsiC,175000,outputParallelSource3,0.015024
AnsiC,235000,outputParallelSource3,0.021354
AnsiC,300000,outputParallelSource3,0.027101
AnsiC,420000,outputParallelSource3,0.037034
AnsiC,550000,outputParallelSource3,0.049673
AnsiC,750000,outputParallelSource3,0.063914
AnsiC,1000000,outputParallelSource3,0.087605
AnsiC,1350000,outputParallelSource3,0.117467
AnsiC,1750000,outputParallelSource3,0.153614
AnsiC,2350000,outputParallelSource3,0.196289
AnsiC,3000000,outputParallelSource3,0.252996
AnsiC,4200000,outputParallelSource3,0.353474
AnsiC,5500000,outputParallelSource3,0.461861
AnsiC,7500000,outputParallelSource3,0.632753
AnsiC,10000000,outputParallelSource3,0.838559
AnsiC,13500000,outputParallelSource3,1.183562
AnsiC,17500000,outputParallelSource3,1.485576
AnsiC,23500000,outputParallelSource3,1.976831
AnsiC,30000000,outputParallelSource3,2.523483
AnsiC,42000000,outputParallelSource3,3.526078
AnsiC,55000000,outputParallelSource3,4.598994
AnsiC,75000000,outputParallelSource3,6.285773
AnsiC,100000,outputParallelSource3,0.008453
AnsiC,135000,outputParallelSource3,0.012568
AnsiC,175000,outputParallelSource3,0.015024
AnsiC,235000,outputParallelSource3,0.021354
AnsiC,300000,outputParallelSource3,0.027101
AnsiC,420000,outputParallelSource3,0.037034
AnsiC,550000,outputParallelSource3,0.049673
AnsiC,750000,outputParallelSource3,0.063914
AnsiC,1000000,outputParallelSource3,0.087605
AnsiC,1350000,outputParallelSource3,0.117467
AnsiC,1750000,outputParallelSource3,0.153614
AnsiC,2350000,outputParallelSource3,0.196289
AnsiC,3000000,outputParallelSource3,0.252996
AnsiC,4200000,outputParallelSource3,0.353474
AnsiC,5500000,outputParallelSource3,0.461861
AnsiC,7500000,outputParallelSource3,0.632753
AnsiC,10000000,outputParallelSource3,0.838559
AnsiC,13500000,outputParallelSource3,1.183562
AnsiC,17500000,outputParallelSource3,1.485576
AnsiC,23500000,outputParallelSource3,1.976831
AnsiC,30000000,outputParallelSource3,2.523483
AnsiC,42000000,outputParallelSource3,3.526078
AnsiC,55000000,outputParallelSource3,4.598994
AnsiC,75000000,outputParallelSource3,6.285773
AnsiC,100000,outputParallelSource3,0.008453
AnsiC,135000,outputParallelSource3,0.012568
AnsiC,175000,outputParallelSource3,0.015024
AnsiC,235000,outputParallelSource3,0.021354
AnsiC,300000,outputParallelSource3,0.027101
AnsiC,420000,outputParallelSource3,0.037034
AnsiC,550000,outputParallelSource3,0.049673
AnsiC,750000,outputParallelSource3,0.063914
AnsiC,1000000,outputParallelSource3,0.087605
AnsiC,1350000,outputParallelSource3,0.117467
AnsiC,1750000,outputParallelSource3,0.153614
AnsiC,2350000,outputParallelSource3,0.196289
AnsiC,3000000,outputParallelSource3,0.252996
AnsiC,4200000,outputParallelSource3,0.353474
AnsiC,5500000,outputParallelSource3,0.461861
AnsiC,7500000,outputParallelSource3,0.632753
AnsiC,10000000,outputParallelSource3,0.838559
AnsiC,13500000,outputParallelSource3,1.183562
AnsiC,17500000,outputParallelSource3,1.485576
AnsiC,23500000,outputParallelSource3,1.976831
AnsiC,30000000,outputParallelSource3,2.523483
AnsiC,42000000,outputParallelSource3,3.526078
AnsiC,55000000,outputParallelSource3,4.598994
AnsiC,75000000,outputParallelSource3,6.285773
AnsiC,100000,outputParallelSource3,0.008453
AnsiC,135000,outputParallelSource3,0.012568
AnsiC,175000,outputParallelSource3,0.015024
AnsiC,235000,outputParallelSource3,0.021354
AnsiC,300000,outputParallelSource3,0.027101
AnsiC,420000,outputParallelSource3,0.037034
AnsiC,550000,outputParallelSource3,0.049673
AnsiC,750000,outputParallelSource3,0.063914
AnsiC,1000000,outputParallelSource3,0.087605
AnsiC,1350000,outputParallelSource3,0.117467
AnsiC,1750000,outputParallelSource3,0.153614
AnsiC,2350000,outputParallelSource3,0.196289
AnsiC,3000000,outputParallelSource3,0.252996
AnsiC,4200000,outputParallelSource3,0.353474
AnsiC,5500000,outputParallelSource3,0.461861
AnsiC,7500000,outputParallelSource3,0.632753
AnsiC,10000000,outputParallelSource3,0.838559
AnsiC,13500000,outputParallelSource3,1.183562
AnsiC,17500000,outputParallelSource3,1.485576
AnsiC,23500000,outputParallelSource3,1.976831
AnsiC,30000000,outputParallelSource3,2.523483
AnsiC,42000000,outputParallelSource3,3.526078
AnsiC,55000000,outputParallelSource3,4.598994
AnsiC,75000000,outputParallelSource3,6.285773
AnsiC,100000,outputParallelSource3,0.008453
AnsiC,135000,outputParallelSource3,0.012568
AnsiC,175000,outputParallelSource3,0.015024
AnsiC,235000,outputParallelSource3,0.021354
AnsiC,300000,outputParallelSource3,0.027101
AnsiC,420000,outputParallelSource3,0.037034
AnsiC,550000,outputParallelSource3,0.049673
AnsiC,750000,outputParallelSource3,0.063914
AnsiC,1000000,outputParallelSource3,0.087605
AnsiC,1350000,outputParallelSource3,0.117467
AnsiC,1750000,outputParallelSource3,0.153614
AnsiC,2350000,outputParallelSource3,0.196289
AnsiC,3000000,outputParallelSource3,0.252996
AnsiC,4200000,outputParallelSource3,0.353474
AnsiC,5500000,outputParallelSource3,0.461861
AnsiC,7500000,outputParallelSource3,0.632753
AnsiC,10000000,outputParallelSource3,0.838559
AnsiC,13500000,outputParallelSource3,1.183562
AnsiC,17500000,outputParallelSource3,1.485576
AnsiC,23500000,outputParallelSource3,1.976831
AnsiC,30000000,outputParallelSource3,2.523483
AnsiC,42000000,outputParallelSource3,3.526078
AnsiC,55000000,outputParallelSource3,4.598994
AnsiC,75000000,outputParallelSource3,6.285773
AnsiC,100000,outputParallelSource3,0.008453
AnsiC,135000,outputParallelSource3,0.012568
AnsiC,175000,outputParallelSource3,0.015024
AnsiC,235000,outputParallelSource3,0.021354
AnsiC,300000,outputParallelSource3,0.027101
AnsiC,420000,outputParallelSource3,0.037034
AnsiC,550000,outputParallelSource3,0.049673
AnsiC,750000,outputParallelSource3,0.063914
AnsiC,1000000,outputParallelSource3,0.087605
AnsiC,1350000,outputParallelSource3,0.117467
AnsiC,1750000,outputParallelSource3,0.153614
AnsiC,2350000,outputParallelSource3,0.196289
AnsiC,3000000,outputParallelSource3,0.252996
AnsiC,4200000,outputParallelSource3,0.353474
AnsiC,5500000,outputParallelSource3,0.461861
AnsiC,7500000,outputParallelSource3,0.632753
AnsiC,10000000,outputParallelSource3,0.838559
AnsiC,13500000,outputParallelSource3,1.183562
AnsiC,17500000,outputParallelSource3,1.485576
AnsiC,23500000,outputParallelSource3,1.976831
AnsiC,30000000,outputParallelSource3,2.523483
AnsiC,42000000,outputParallelSource3,3.526078
AnsiC,55000000,outputParallelSource3,4.598994
AnsiC,75000000,outputParallelSource3,6.285773
AnsiC,100000,outputParallelSource3,0.008453
AnsiC,135000,outputParallelSource3,0.012568
AnsiC,175000,outputParallelSource3,0.015024
AnsiC,235000,outputParallelSource3,0.021354
AnsiC,300000,outputParallelSource3,0.027101
AnsiC,420000,outputParallelSource3,0.037034
AnsiC,550000,outputParallelSource3,0.049673
AnsiC,750000,outputParallelSource3,0.063914
AnsiC,1000000,outputParallelSource3,0.087605
AnsiC,1350000,outputParallelSource3,0.117467
AnsiC,1750000,outputParallelSource3,0.153614
AnsiC,2350000,outputParallelSource3,0.196289
AnsiC,3000000,outputParallelSource3,0.252996
AnsiC,4200000,outputParallelSource3,0.353474
AnsiC,5500000,outputParallelSource3,0.461861
AnsiC,7500000,outputParallelSource3,0.632753
AnsiC,10000000,outputParallelSource3,0.838559
AnsiC,13500000,outputParallelSource3,1.183562
AnsiC,17500000,outputParallelSource3,1.485576
AnsiC,23500000,outputParallelSource3,1.976831
AnsiC,30000000,outputParallelSource3,2.523483
AnsiC,42000000,outputParallelSource3,3.526078
AnsiC,55000000,outputParallelSource3,4.598994
AnsiC,75000000,outputParallelSource3,6.285773
AnsiC,100000,outputParallelSource3,0.008453
AnsiC,135000,outputParallelSource3,0.012568
AnsiC,175000,outputParallelSource3,0.015024
AnsiC,235000,outputParallelSource3,0.021354
AnsiC,300000,outputParallelSource3,0.027101
AnsiC,420000,outputParallelSource3,0.037034
AnsiC,550000,outputParallelSource3,0.049673
AnsiC,750000,outputParallelSource3,0.063914
AnsiC,1000000,outputParallelSource3,0.087605
AnsiC,1350000,outputParallelSource3,0.117467
AnsiC,1750000,outputParallelSource3,0.153614
AnsiC,2350000,outputParallelSource3,0.196289
AnsiC,3000000,outputParallelSource3,0.252996
AnsiC,4200000,outputParallelSource3,0.353474
AnsiC,5500000,outputParallelSource3,0.461861
AnsiC,7500000,outputParallelSource3,0.632753
AnsiC,10000000,outputParallelSource3,0.838559
AnsiC,13500000,outputParallelSource3,1.183562
AnsiC,17500000,outputParallelSource3,1.485576
AnsiC,23500000,outputParallelSource3,1.976831
AnsiC,30000000,outputParallelSource3,2.523483
AnsiC,42000000,outputParallelSource3,3.526078
AnsiC,55000000,outputParallelSource3,4.598994
AnsiC,75000000,outputParallelSource3,6.285773
AnsiC,100000,outputParallelSource3,0.008453
AnsiC,135000,outputParallelSource3,0.012568
AnsiC,175000,outputParallelSource3,0.015024
AnsiC,235000,outputParallelSource3,0.021354
AnsiC,300000,outputParallelSource3,0.027101
AnsiC,420000,outputParallelSource3,0.037034
AnsiC,550000,outputParallelSource3,0.049673
AnsiC,750000,outputParallelSource3,0.063914
AnsiC,1000000,outputParallelSource3,0.087605
AnsiC,1350000,outputParallelSource3,0.117467
AnsiC,1750000,outputParallelSource3,0.153614
AnsiC,2350000,outputParallelSource3,0.196289
AnsiC,3000000,outputParallelSource3,0.252996
AnsiC,4200000,outputParallelSource3,0.353474
AnsiC,5500000,outputParallelSource3,0.461861
AnsiC,7500000,outputParallelSource3,0.632753
AnsiC,10000000,outputParallelSource3,0.838559
AnsiC,13500000,outputParallelSource3,1.183562
AnsiC,17500000,outputParallelSource3,1.485576
AnsiC,23500000,outputParallelSource3,1.976831
AnsiC,30000000,outputParallelSource3,2.523483
AnsiC,42000000,outputParallelSource3,3.526078
AnsiC,55000000,outputParallelSource3,4.598994
AnsiC,75000000,outputParallelSource3,6.285773
AnsiC,100000,outputParallelSource3,0.008453
AnsiC,135000,outputParallelSource3,0.012568
AnsiC,175000,outputParallelSource3,0.015024
AnsiC,235000,outputParallelSource3,0.021354
AnsiC,300000,outputParallelSource3,0.027101
AnsiC,420000,outputParallelSource3,0.037034
AnsiC,550000,outputParallelSource3,0.049673
AnsiC,750000,outputParallelSource3,0.063914
AnsiC,1000000,outputParallelSource3,0.087605
AnsiC,1350000,outputParallelSource3,0.117467
AnsiC,1750000,outputParallelSource3,0.153614
AnsiC,2350000,outputParallelSource3,0.196289
AnsiC,3000000,outputParallelSource3,0.252996
AnsiC,4200000,outputParallelSource3,0.353474
AnsiC,5500000,outputParallelSource3,0.461861
AnsiC,7500000,outputParallelSource3,0.632753
AnsiC,10000000,outputParallelSource3,0.838559
AnsiC,13500000,outputParallelSource3,1.183562
AnsiC,17500000,outputParallelSource3,1.485576
AnsiC,23500000,outputParallelSource3,1.976831
AnsiC,30000000,outputParallelSource3,2.523483
AnsiC,42000000,outputParallelSource3,3.526078
AnsiC,55000000,outputParallelSource3,4.598994
AnsiC,75000000,outputParallelSource3,6.285773
AnsiC,100000,outputParallelSource3,0.008453
AnsiC,135000,outputParallelSource3,0.012568
AnsiC,175000,outputParallelSource3,0.015024
AnsiC,235000,outputParallelSource3,0.021354
AnsiC,300000,outputParallelSource3,0.027101
AnsiC,420000,outputParallelSource3,0.037034
AnsiC,550000,outputParallelSource3,0.049673
AnsiC,750000,outputParallelSource3,0.063914
AnsiC,1000000,outputParallelSource3,0.087605
AnsiC,1350000,outputParallelSource3,0.117467
AnsiC,1750000,outputParallelSource3,0.153614
AnsiC,2350000,outputParallelSource3,0.196289
AnsiC,3000000,outputParallelSource3,0.252996
AnsiC,4200000,outputParallelSource3,0.353474
AnsiC,5500000,outputParallelSource3,0.461861
AnsiC,7500000,outputParallelSource3,0.632753
AnsiC,10000000,outputParallelSource3,0.838559
AnsiC,13500000,outputParallelSource3,1.183562
AnsiC,17500000,outputParallelSource3,1.485576
AnsiC,23500000,outputParallelSource3,1.976831
AnsiC,30000000,outputParallelSource3,2.523483
AnsiC,42000000,outputParallelSource3,3.526078
AnsiC,55000000,outputParallelSource3,4.598994
AnsiC,75000000,outputParallelSource3,6.285773
AnsiC,100000,outputParallelSource3,0.008453
AnsiC,135000,outputParallelSource3,0.012568
AnsiC,175000,outputParallelSource3,0.015024
AnsiC,235000,outputParallelSource3,0.021354
AnsiC,300000,outputParallelSource3,0.027101
AnsiC,420000,outputParallelSource3,0.037034
AnsiC,550000,outputParallelSource3,0.049673
AnsiC,750000,outputParallelSource3,0.063914
AnsiC,1000000,outputParallelSource3,0.087605
AnsiC,1350000,outputParallelSource3,0.117467
AnsiC,1750000,outputParallelSource3,0.153614
AnsiC,2350000,outputParallelSource3,0.196289
AnsiC,3000000,outputParallelSource3,0.252996
AnsiC,4200000,outputParallelSource3,0.353474
AnsiC,5500000,outputParallelSource3,0.461861
AnsiC,7500000,outputParallelSource3,0.632753
AnsiC,10000000,outputParallelSource3,0.838559
AnsiC,13500000,outputParallelSource3,1.183562
AnsiC,17500000,outputParallelSource3,1.485576
AnsiC,23500000,outputParallelSource3,1.976831
AnsiC,30000000,outputParallelSource3,2.523483
AnsiC,42000000,outputParallelSource3,3.526078
AnsiC,55000000,outputParallelSource3,4.598994
AnsiC,75000000,outputParallelSource3,6.285773
AnsiC,100000,outputParallelSource3,0.008453
AnsiC,135000,outputParallelSource3,0.012568
AnsiC,175000,outputParallelSource3,0.015024
AnsiC,235000,outputParallelSource3,0.021354
AnsiC,300000,outputParallelSource3,0.027101
AnsiC,420000,outputParallelSource3,0.037034
AnsiC,550000,outputParallelSource3,0.049673
AnsiC,750000,outputParallelSource3,0.063914
AnsiC,1000000,outputParallelSource3,0.087605
AnsiC,1350000,outputParallelSource3,0.117467
AnsiC,1750000,outputParallelSource3,0.153614
AnsiC,2350000,outputParallelSource3,0.196289
AnsiC,3000000,outputParallelSource3,0.252996
AnsiC,4200000,outputParallelSource3,0.353474
AnsiC,5500000,outputParallelSource3,0.461861
AnsiC,7500000,outputParallelSource3,0.632753
AnsiC,10000000,outputParallelSource3,0.838559
AnsiC,13500000,outputParallelSource3,1.183562
AnsiC,17500000,outputParallelSource3,1.485576
AnsiC,23500000,outputParallelSource3,1.976831
AnsiC,30000000,outputParallelSource3,2.523483
AnsiC,42000000,outputParallelSource3,3.526078
AnsiC,55000000,outputParallelSource3,4.598994
AnsiC,75000000,outputParallelSource3,6.285773
AnsiC,100000,outputParallelSource3,0.008453
AnsiC,135000,outputParallelSource3,0.012568
AnsiC,175000,outputParallelSource3,0.015024
AnsiC,235000,outputParallelSource3,0.021354
AnsiC,300000,outputParallelSource3,0.027101
AnsiC,420000,outputParallelSource3,0.037034
AnsiC,550000,outputParallelSource3,0.049673
AnsiC,750000,outputParallelSource3,0.063914
AnsiC,1000000,outputParallelSource3,0.087605
AnsiC,1350000,outputParallelSource3,0.117467
AnsiC,1750000,outputParallelSource3,0.153614
AnsiC,2350000,outputParallelSource3,0.196289
AnsiC,3000000,outputParallelSource3,0.252996
AnsiC,4200000,outputParallelSource3,0.353474
AnsiC,5500000,outputParallelSource3,0.461861
AnsiC,7500000,outputParallelSource3,0.632753
AnsiC,10000000,outputParallelSource3,0.838559
AnsiC,13500000,outputParallelSource3,1.183562
AnsiC,17500000,outputParallelSource3,1.485576
AnsiC,23500000,outputParallelSource3,1.976831
AnsiC,30000000,outputParallelSource3,2.523483
AnsiC,42000000,outputParallelSource3,3.526078
AnsiC,55000000,outputParallelSource3,4.598994
AnsiC,75000000,outputParallelSource3,6.285773
AnsiC,100000,outputParallelSource3,0.008453
AnsiC,135000,outputParallelSource3,0.012568
AnsiC,175000,outputParallelSource3,0.015024
AnsiC,235000,outputParallelSource3,0.021354
AnsiC,300000,outputParallelSource3,0.027101
AnsiC,420000,outputParallelSource3,0.037034
AnsiC,550000,outputParallelSource3,0.049673
AnsiC,750000,outputParallelSource3,0.063914
AnsiC,1000000,outputParallelSource3,0.087605
AnsiC,1350000,outputParallelSource3,0.117467
AnsiC,1750000,outputParallelSource3,0.153614
AnsiC,2350000,outputParallelSource3,0.196289
AnsiC,3000000,outputParallelSource3,0.252996
AnsiC,4200000,outputParallelSource3,0.353474
AnsiC,5500000,outputParallelSource3,0.461861
AnsiC,7500000,outputParallelSource3,0.632753
AnsiC,10000000,outputParallelSource3,0.838559
AnsiC,13500000,outputParallelSource3,1.183562
AnsiC,17500000,outputParallelSource3,1.485576
AnsiC,23500000,outputParallelSource3,1.976831
AnsiC,30000000,outputParallelSource3,2.523483
AnsiC,42000000,outputParallelSource3,3.526078
AnsiC,55000000,outputParallelSource3,4.598994
AnsiC,75000000,outputParallelSource3,6.285773
AnsiC,100000,outputParallelSource3,0.008453
AnsiC,135000,outputParallelSource3,0.012568
AnsiC,175000,outputParallelSource3,0.015024
AnsiC,235000,outputParallelSource3,0.021354
AnsiC,300000,outputParallelSource3,0.027101
AnsiC,420000,outputParallelSource3,0.037034
AnsiC,550000,outputParallelSource3,0.049673
AnsiC,750000,outputParallelSource3,0.063914
AnsiC,1000000,outputParallelSource3,0.087605
AnsiC,1350000,outputParallelSource3,0.117467
AnsiC,1750000,outputParallelSource3,0.153614
AnsiC,2350000,outputParallelSource3,0.196289
AnsiC,3000000,outputParallelSource3,0.252996
AnsiC,4200000,outputParallelSource3,0.353474
AnsiC,5500000,outputParallelSource3,0.461861
AnsiC,7500000,outputParallelSource3,0.632753
AnsiC,10000000,outputParallelSource3,0.838559
AnsiC,13500000,outputParallelSource3,1.183562
AnsiC,17500000,outputParallelSource3,1.485576
AnsiC,23500000,outputParallelSource3,1.976831
AnsiC,30000000,outputParallelSource3,2.523483
AnsiC,42000000,outputParallelSource3,3.526078
AnsiC,55000000,outputParallelSource3,4.598994
AnsiC,75000000,outputParallelSource3,6.285773
AnsiC,100000,outputParallelSource3,0.008453
AnsiC,135000,outputParallelSource3,0.012568
AnsiC,175000,outputParallelSource3,0.015024
AnsiC,235000,outputParallelSource3,0.021354
AnsiC,300000,outputParallelSource3,0.027101
AnsiC,420000,outputParallelSource3,0.037034
AnsiC,550000,outputParallelSource3,0.049673
AnsiC,750000,outputParallelSource3,0.063914
AnsiC,1000000,outputParallelSource3,0.087605
AnsiC,1350000,outputParallelSource3,0.117467
AnsiC,1750000,outputParallelSource3,0.153614
AnsiC,2350000,outputParallelSource3,0.196289
AnsiC,3000000,outputParallelSource3,0.252996
AnsiC,4200000,outputParallelSource3,0.353474
AnsiC,5500000,outputParallelSource3,0.461861
AnsiC,7500000,outputParallelSource3,0.632753
AnsiC,10000000,outputParallelSource3,0.838559
AnsiC,13500000,outputParallelSource3,1.183562
AnsiC,17500000,outputParallelSource3,1.485576
AnsiC,23500000,outputParallelSource3,1.976831
AnsiC,30000000,outputParallelSource3,2.523483
AnsiC,42000000,outputParallelSource3,3.526078
AnsiC,55000000,outputParallelSource3,4.598994
AnsiC,75000000,outputParallelSource3,6.285773
AnsiC,100000,outputParallelSource3,0.008453
AnsiC,135000,outputParallelSource3,0.012568
AnsiC,175000,outputParallelSource3,0.015024
AnsiC,235000,outputParallelSource3,0.021354
AnsiC,300000,outputParallelSource3,0.027101
AnsiC,420000,outputParallelSource3,0.037034
AnsiC,550000,outputParallelSource3,0.049673
AnsiC,750000,outputParallelSource3,0.063914
AnsiC,1000000,outputParallelSource3,0.087605
AnsiC,1350000,outputParallelSource3,0.117467
AnsiC,1750000,outputParallelSource3,0.153614
AnsiC,2350000,outputParallelSource3,0.196289
AnsiC,3000000,outputParallelSource3,0.252996
AnsiC,4200000,outputParallelSource3,0.353474
AnsiC,5500000,outputParallelSource3,0.461861
AnsiC,7500000,outputParallelSource3,0.632753
AnsiC,10000000,outputParallelSource3,0.838559
AnsiC,13500000,outputParallelSource3,1.183562
AnsiC,17500000,outputParallelSource3,1.485576
AnsiC,23500000,outputParallelSource3,1.976831
AnsiC,30000000,outputParallelSource3,2.523483
AnsiC,42000000,outputParallelSource3,3.526078
AnsiC,55000000,outputParallelSource3,4.598994
AnsiC,75000000,outputParallelSource3,6.285773
AnsiC,100000,outputParallelSource3,0.008453
AnsiC,135000,outputParallelSource3,0.012568
AnsiC,175000,outputParallelSource3,0.015024
AnsiC,235000,outputParallelSource3,0.021354
AnsiC,300000,outputParallelSource3,0.027101
AnsiC,420000,outputParallelSource3,0.037034
AnsiC,550000,outputParallelSource3,0.049673
AnsiC,750000,outputParallelSource3,0.063914
AnsiC,1000000,outputParallelSource3,0.087605
AnsiC,1350000,outputParallelSource3,0.117467
AnsiC,1750000,outputParallelSource3,0.153614
AnsiC,2350000,outputParallelSource3,0.196289
AnsiC,3000000,outputParallelSource3,0.252996
AnsiC,4200000,outputParallelSource3,0.353474
AnsiC,5500000,outputParallelSource3,0.461861
AnsiC,7500000,outputParallelSource3,0.632753
AnsiC,10000000,outputParallelSource3,0.838559
AnsiC,13500000,outputParallelSource3,1.183562
AnsiC,17500000,outputParallelSource3,1.485576
AnsiC,23500000,outputParallelSource3,1.976831
AnsiC,30000000,outputParallelSource3,2.523483
AnsiC,42000000,outputParallelSource3,3.526078
AnsiC,55000000,outputParallelSource3,4.598994
AnsiC,75000000,outputParallelSource3,6.285773
AnsiC,100000,outputParallelSource3,0.008453
AnsiC,135000,outputParallelSource3,0.012568
AnsiC,175000,outputParallelSource3,0.015024
AnsiC,235000,outputParallelSource3,0.021354
AnsiC,300000,outputParallelSource3,0.027101
AnsiC,420000,outputParallelSource3,0.037034
AnsiC,550000,outputParallelSource3,0.049673
AnsiC,750000,outputParallelSource3,0.063914
AnsiC,1000000,outputParallelSource3,0.087605
AnsiC,1350000,outputParallelSource3,0.117467
AnsiC,1750000,outputParallelSource3,0.153614
AnsiC,2350000,outputParallelSource3,0.196289
AnsiC,3000000,outputParallelSource3,0.252996
AnsiC,4200000,outputParallelSource3,0.353474
AnsiC,5500000,outputParallelSource3,0.461861
AnsiC,7500000,outputParallelSource3,0.632753
AnsiC,10000000,outputParallelSource3,0.838559
AnsiC,13500000,outputParallelSource3,1.183562
AnsiC,17500000,outputParallelSource3,1.485576
AnsiC,23500000,outputParallelSource3,1.976831
AnsiC,30000000,outputParallelSource3,2.523483
AnsiC,42000000,outputParallelSource3,3.526078
AnsiC,55000000,outputParallelSource3,4.598994
AnsiC,75000000,outputParallelSource3,6.285773
AnsiC,100000,outputParallelSource3,0.008453
AnsiC,135000,outputParallelSource3,0.012568
AnsiC,175000,outputParallelSource3,0.015024
AnsiC,235000,outputParallelSource3,0.021354
AnsiC,300000,outputParallelSource3,0.027101
AnsiC,420000,outputParallelSource3,0.037034
AnsiC,550000,outputParallelSource3,0.049673
AnsiC,750000,outputParallelSource3,0.063914
AnsiC,1000000,outputParallelSource3,0.087605
AnsiC,1350000,outputParallelSource3,0.117467
AnsiC,1750000,outputParallelSource3,0.153614
AnsiC,2350000,outputParallelSource3,0.196289
AnsiC,3000000,outputParallelSource3,0.252996
AnsiC,4200000,outputParallelSource3,0.353474
AnsiC,5500000,outputParallelSource3,0.461861
AnsiC,7500000,outputParallelSource3,0.632753
AnsiC,10000000,outputParallelSource3,0.838559
AnsiC,13500000,outputParallelSource3,1.183562
AnsiC,17500000,outputParallelSource3,1.485576
AnsiC,23500000,outputParallelSource3,1.976831
AnsiC,30000000,outputParallelSource3,2.523483
AnsiC,42000000,outputParallelSource3,3.526078
AnsiC,55000000,outputParallelSource3,4.598994
AnsiC,75000000,outputParallelSource3,6.285773
AnsiC,100000,outputParallelSource3,0.008453
AnsiC,135000,outputParallelSource3,0.012568
AnsiC,175000,outputParallelSource3,0.015024
AnsiC,235000,outputParallelSource3,0.021354
AnsiC,300000,outputParallelSource3,0.027101
AnsiC,420000,outputParallelSource3,0.037034
AnsiC,550000,outputParallelSource3,0.049673
AnsiC,750000,outputParallelSource3,0.063914
AnsiC,1000000,outputParallelSource3,0.087605
AnsiC,1350000,outputParallelSource3,0.117467
AnsiC,1750000,outputParallelSource3,0.153614
AnsiC,2350000,outputParallelSource3,0.196289
AnsiC,3000000,outputParallelSource3,0.252996
AnsiC,4200000,outputParallelSource3,0.353474
AnsiC,5500000,outputParallelSource3,0.461861
AnsiC,7500000,outputParallelSource3,0.632753
AnsiC,10000000,outputParallelSource3,0.838559
AnsiC,13500000,outputParallelSource3,1.183562
AnsiC,17500000,outputParallelSource3,1.485576
AnsiC,23500000,outputParallelSource3,1.976831
AnsiC,30000000,outputParallelSource3,2.523483
AnsiC,42000000,outputParallelSource3,3.526078
AnsiC,55000000,outputParallelSource3,4.598994
AnsiC,75000000,outputParallelSource3,6.285773
AnsiC,100000,outputParallelSource3,0.008453
AnsiC,135000,outputParallelSource3,0.012568
AnsiC,175000,outputParallelSource3,0.015024
AnsiC,235000,outputParallelSource3,0.021354
AnsiC,300000,outputParallelSource3,0.027101
AnsiC,420000,outputParallelSource3,0.037034
AnsiC,550000,outputParallelSource3,0.049673
AnsiC,750000,outputParallelSource3,0.063914
AnsiC,1000000,outputParallelSource3,0.087605
AnsiC,1350000,outputParallelSource3,0.117467
AnsiC,1750000,outputParallelSource3,0.153614
AnsiC,2350000,outputParallelSource3,0.196289
AnsiC,3000000,outputParallelSource3,0.252996
AnsiC,4200000,outputParallelSource3,0.353474
AnsiC,5500000,outputParallelSource3,0.461861
AnsiC,7500000,outputParallelSource3,0.632753
AnsiC,10000000,outputParallelSource3,0.838559
AnsiC,13500000,outputParallelSource3,1.183562
AnsiC,17500000,outputParallelSource3,1.485576
AnsiC,23500000,outputParallelSource3,1.976831
AnsiC,30000000,outputParallelSource3,2.523483
AnsiC,42000000,outputParallelSource3,3.526078
AnsiC,55000000,outputParallelSource3,4.598994
AnsiC,75000000,outputParallelSource3,6.285773
AnsiC,100000,outputParallelSource3,0.008453
AnsiC,135000,outputParallelSource3,0.012568
AnsiC,175000,outputParallelSource3,0.015024
AnsiC,235000,outputParallelSource3,0.021354
AnsiC,300000,outputParallelSource3,0.027101
AnsiC,420000,outputParallelSource3,0.037034
AnsiC,550000,outputParallelSource3,0.049673
AnsiC,750000,outputParallelSource3,0.063914
AnsiC,1000000,outputParallelSource3,0.087605
AnsiC,1350000,outputParallelSource3,0.117467
AnsiC,1750000,outputParallelSource3,0.153614
AnsiC,2350000,outputParallelSource3,0.196289
AnsiC,3000000,outputParallelSource3,0.252996
AnsiC,4200000,outputParallelSource3,0.353474
AnsiC,5500000,outputParallelSource3,0.461861
AnsiC,7500000,outputParallelSource3,0.632753
AnsiC,10000000,outputParallelSource3,0.838559
AnsiC,13500000,outputParallelSource3,1.183562
AnsiC,17500000,outputParallelSource3,1.485576
AnsiC,23500000,outputParallelSource3,1.976831
AnsiC,30000000,outputParallelSource3,2.523483
AnsiC,42000000,outputParallelSource3,3.526078
AnsiC,55000000,outputParallelSource3,4.598994
AnsiC,75000000,outputParallelSource3,6.285773
AnsiC,100000,outputParallelSource3,0.008453
AnsiC,135000,outputParallelSource3,0.012568
AnsiC,175000,outputParallelSource3,0.015024
AnsiC,235000,outputParallelSource3,0.021354
AnsiC,300000,outputParallelSource3,0.027101
AnsiC,420000,outputParallelSource3,0.037034
AnsiC,550000,outputParallelSource3,0.049673
AnsiC,750000,outputParallelSource3,0.063914
AnsiC,1000000,outputParallelSource3,0.087605
AnsiC,1350000,outputParallelSource3,0.117467
AnsiC,1750000,outputParallelSource3,0.153614
AnsiC,2350000,outputParallelSource3,0.196289
AnsiC,3000000,outputParallelSource3,0.252996
AnsiC,4200000,outputParallelSource3,0.353474
AnsiC,5500000,outputParallelSource3,0.461861
AnsiC,7500000,outputParallelSource3,0.632753
AnsiC,10000000,outputParallelSource3,0.838559
AnsiC,13500000,outputParallelSource3,1.183562
AnsiC,17500000,outputParallelSource3,1.485576
AnsiC,23500000,outputParallelSource3,1.976831
AnsiC,30000000,outputParallelSource3,2.523483
AnsiC,42000000,outputParallelSource3,3.526078
AnsiC,55000000,outputParallelSource3,4.598994
AnsiC,75000000,outputParallelSource3,6.285773
AnsiC,100000,outputParallelSource3,0.008453
AnsiC,135000,outputParallelSource3,0.012568
AnsiC,175000,outputParallelSource3,0.015024
AnsiC,235000,outputParallelSource3,0.021354
AnsiC,300000,outputParallelSource3,0.027101
AnsiC,420000,outputParallelSource3,0.037034
AnsiC,550000,outputParallelSource3,0.049673
AnsiC,750000,outputParallelSource3,0.063914
AnsiC,1000000,outputParallelSource3,0.087605
AnsiC,1350000,outputParallelSource3,0.117467
AnsiC,1750000,outputParallelSource3,0.153614
AnsiC,2350000,outputParallelSource3,0.196289
AnsiC,3000000,outputParallelSource3,0.252996
AnsiC,4200000,outputParallelSource3,0.353474
AnsiC,5500000,outputParallelSource3,0.461861
AnsiC,7500000,outputParallelSource3,0.632753
AnsiC,10000000,outputParallelSource3,0.838559
AnsiC,13500000,outputParallelSource3,1.183562
AnsiC,17500000,outputParallelSource3,1.485576
AnsiC,23500000,outputParallelSource3,1.976831
AnsiC,30000000,outputParallelSource3,2.523483
AnsiC,42000000,outputParallelSource3,3.526078
AnsiC,55000000,outputParallelSource3,4.598994
AnsiC,75000000,outputParallelSource3,6.285773
AnsiC,100000,outputParallelSource3,0.008453
AnsiC,135000,outputParallelSource3,0.012568
AnsiC,175000,outputParallelSource3,0.015024
AnsiC,235000,outputParallelSource3,0.021354
AnsiC,300000,outputParallelSource3,0.027101
AnsiC,420000,outputParallelSource3,0.037034
AnsiC,550000,outputParallelSource3,0.049673
AnsiC,750000,outputParallelSource3,0.063914
AnsiC,1000000,outputParallelSource3,0.087605
AnsiC,1350000,outputParallelSource3,0.117467
AnsiC,1750000,outputParallelSource3,0.153614
AnsiC,2350000,outputParallelSource3,0.196289
AnsiC,3000000,outputParallelSource3,0.252996
AnsiC,4200000,outputParallelSource3,0.353474
AnsiC,5500000,outputParallelSource3,0.461861
AnsiC,7500000,outputParallelSource3,0.632753
AnsiC,10000000,outputParallelSource3,0.838559
AnsiC,13500000,outputParallelSource3,1.183562
AnsiC,17500000,outputParallelSource3,1.485576
AnsiC,23500000,outputParallelSource3,1.976831
AnsiC,30000000,outputParallelSource3,2.523483
AnsiC,42000000,outputParallelSource3,3.526078
AnsiC,55000000,outputParallelSource3,4.598994
AnsiC,75000000,outputParallelSource3,6.285773
AnsiC,100000,outputParallelSource3,0.008453
AnsiC,135000,outputParallelSource3,0.012568
AnsiC,175000,outputParallelSource3,0.015024
AnsiC,235000,outputParallelSource3,0.021354
AnsiC,300000,outputParallelSource3,0.027101
AnsiC,420000,outputParallelSource3,0.037034
AnsiC,550000,outputParallelSource3,0.049673
AnsiC,750000,outputParallelSource3,0.063914
AnsiC,1000000,outputParallelSource3,0.087605
AnsiC,1350000,outputParallelSource3,0.117467
AnsiC,1750000,outputParallelSource3,0.153614
AnsiC,2350000,outputParallelSource3,0.196289
AnsiC,3000000,outputParallelSource3,0.252996
AnsiC,4200000,outputParallelSource3,0.353474
AnsiC,5500000,outputParallelSource3,0.461861
AnsiC,7500000,outputParallelSource3,0.632753
AnsiC,10000000,outputParallelSource3,0.838559
AnsiC,13500000,outputParallelSource3,1.183562
AnsiC,17500000,outputParallelSource3,1.485576
AnsiC,23500000,outputParallelSource3,1.976831
AnsiC,30000000,outputParallelSource3,2.523483
AnsiC,42000000,outputParallelSource3,3.526078
AnsiC,55000000,outputParallelSource3,4.598994
AnsiC,75000000,outputParallelSource3,6.285773
AnsiC,100000,outputParallelSource3,0.008453
AnsiC,135000,outputParallelSource3,0.012568
AnsiC,175000,outputParallelSource3,0.015024
AnsiC,235000,outputParallelSource3,0.021354
AnsiC,300000,outputParallelSource3,0.027101
AnsiC,420000,outputParallelSource3,0.037034
AnsiC,550000,outputParallelSource3,0.049673
AnsiC,750000,outputParallelSource3,0.063914
AnsiC,1000000,outputParallelSource3,0.087605
AnsiC,1350000,outputParallelSource3,0.117467
AnsiC,1750000,outputParallelSource3,0.153614
AnsiC,2350000,outputParallelSource3,0.196289
AnsiC,3000000,outputParallelSource3,0.252996
AnsiC,4200000,outputParallelSource3,0.353474
AnsiC,5500000,outputParallelSource3,0.461861
AnsiC,7500000,outputParallelSource3,0.632753
AnsiC,10000000,outputParallelSource3,0.838559
AnsiC,13500000,outputParallelSource3,1.183562
AnsiC,17500000,outputParallelSource3,1.485576
AnsiC,23500000,outputParallelSource3,1.976831
AnsiC,30000000,outputParallelSource3,2.523483
AnsiC,42000000,outputParallelSource3,3.526078
AnsiC,55000000,outputParallelSource3,4.598994
AnsiC,75000000,outputParallelSource3,6.285773
AnsiC,100000,outputParallelSource3,0.008453
AnsiC,135000,outputParallelSource3,0.012568
AnsiC,175000,outputParallelSource3,0.015024
AnsiC,235000,outputParallelSource3,0.021354
AnsiC,300000,outputParallelSource3,0.027101
AnsiC,420000,outputParallelSource3,0.037034
AnsiC,550000,outputParallelSource3,0.049673
AnsiC,750000,outputParallelSource3,0.063914
AnsiC,1000000,outputParallelSource3,0.087605
AnsiC,1350000,outputParallelSource3,0.117467
AnsiC,1750000,outputParallelSource3,0.153614
AnsiC,2350000,outputParallelSource3,0.196289
AnsiC,3000000,outputParallelSource3,0.252996
AnsiC,4200000,outputParallelSource3,0.353474
AnsiC,5500000,outputParallelSource3,0.461861
AnsiC,7500000,outputParallelSource3,0.632753
AnsiC,10000000,outputParallelSource3,0.838559
AnsiC,13500000,outputParallelSource3,1.183562
AnsiC,17500000,outputParallelSource3,1.485576
AnsiC,23500000,outputParallelSource3,1.976831
AnsiC,30000000,outputParallelSource3,2.523483
AnsiC,42000000,outputParallelSource3,3.526078
AnsiC,55000000,outputParallelSource3,4.598994
AnsiC,75000000,outputParallelSource3,6.285773
AnsiC,100000,outputParallelSource3,0.008453
AnsiC,135000,outputParallelSource3,0.012568
AnsiC,175000,outputParallelSource3,0.015024
AnsiC,235000,outputParallelSource3,0.021354
AnsiC,300000,outputParallelSource3,0.027101
AnsiC,420000,outputParallelSource3,0.037034
AnsiC,550000,outputParallelSource3,0.049673
AnsiC,750000,outputParallelSource3,0.063914
AnsiC,1000000,outputParallelSource3,0.087605
AnsiC,1350000,outputParallelSource3,0.117467
AnsiC,1750000,outputParallelSource3,0.153614
AnsiC,2350000,outputParallelSource3,0.196289
AnsiC,3000000,outputParallelSource3,0.252996
AnsiC,4200000,outputParallelSource3,0.353474
AnsiC,5500000,outputParallelSource3,0.461861
AnsiC,7500000,outputParallelSource3,0.632753
AnsiC,10000000,outputParallelSource3,0.838559
AnsiC,13500000,outputParallelSource3,1.183562
AnsiC,17500000,outputParallelSource3,1.485576
AnsiC,23500000,outputParallelSource3,1.976831
AnsiC,30000000,outputParallelSource3,2.523483
AnsiC,42000000,outputParallelSource3,3.526078
AnsiC,55000000,outputParallelSource3,4.598994
AnsiC,75000000,outputParallelSource3,6.285773
AnsiC,100000,outputParallelSource3,0.008453
AnsiC,135000,outputParallelSource3,0.012568
AnsiC,175000,outputParallelSource3,0.015024
AnsiC,235000,outputParallelSource3,0.021354
AnsiC,300000,outputParallelSource3,0.027101
AnsiC,420000,outputParallelSource3,0.037034
AnsiC,550000,outputParallelSource3,0.049673
AnsiC,750000,outputParallelSource3,0.063914
AnsiC,1000000,outputParallelSource3,0.087605
AnsiC,1350000,outputParallelSource3,0.117467
AnsiC,1750000,outputParallelSource3,0.153614
AnsiC,2350000,outputParallelSource3,0.196289
AnsiC,3000000,outputParallelSource3,0.252996
AnsiC,4200000,outputParallelSource3,0.353474
AnsiC,5500000,outputParallelSource3,0.461861
AnsiC,7500000,outputParallelSource3,0.632753
AnsiC,10000000,outputParallelSource3,0.838559
AnsiC,13500000,outputParallelSource3,1.183562
AnsiC,17500000,outputParallelSource3,1.485576
AnsiC,23500000,outputParallelSource3,1.976831
AnsiC,30000000,outputParallelSource3,2.523483
AnsiC,42000000,outputParallelSource3,3.526078
AnsiC,55000000,outputParallelSource3,4.598994
AnsiC,75000000,outputParallelSource3,6.285773
AnsiC,100000,outputParallelSource3,0.008453
AnsiC,135000,outputParallelSource3,0.012568
AnsiC,175000,outputParallelSource3,0.015024
AnsiC,235000,outputParallelSource3,0.021354
AnsiC,300000,outputParallelSource3,0.027101
AnsiC,420000,outputParallelSource3,0.037034
AnsiC,550000,outputParallelSource3,0.049673
AnsiC,750000,outputParallelSource3,0.063914
AnsiC,1000000,outputParallelSource3,0.087605
AnsiC,1350000,outputParallelSource3,0.117467
AnsiC,1750000,outputParallelSource3,0.153614
AnsiC,2350000,outputParallelSource3,0.196289
AnsiC,3000000,outputParallelSource3,0.252996
AnsiC,4200000,outputParallelSource3,0.353474
AnsiC,5500000,outputParallelSource3,0.461861
AnsiC,7500000,outputParallelSource3,0.632753
AnsiC,10000000,outputParallelSource3,0.838559
AnsiC,13500000,outputParallelSource3,1.183562
AnsiC,17500000,outputParallelSource3,1.485576
AnsiC,23500000,outputParallelSource3,1.976831
AnsiC,30000000,outputParallelSource3,2.523483
AnsiC,42000000,outputParallelSource3,3.526078
AnsiC,55000000,outputParallelSource3,4.598994
AnsiC,75000000,outputParallelSource3,6.285773
AnsiC,100000,outputParallelSource3,0.008453
AnsiC,135000,outputParallelSource3,0.012568
AnsiC,175000,outputParallelSource3,0.015024
AnsiC,235000,outputParallelSource3,0.021354
AnsiC,300000,outputParallelSource3,0.027101
AnsiC,420000,outputParallelSource3,0.037034
AnsiC,550000,outputParallelSource3,0.049673
AnsiC,750000,outputParallelSource3,0.063914
AnsiC,1000000,outputParallelSource3,0.087605
AnsiC,1350000,outputParallelSource3,0.117467
AnsiC,1750000,outputParallelSource3,0.153614
AnsiC,2350000,outputParallelSource3,0.196289
AnsiC,3000000,outputParallelSource3,0.252996
AnsiC,4200000,outputParallelSource3,0.353474
AnsiC,5500000,outputParallelSource3,0.461861
AnsiC,7500000,outputParallelSource3,0.632753
AnsiC,10000000,outputParallelSource3,0.838559
AnsiC,13500000,outputParallelSource3,1.183562
AnsiC,17500000,outputParallelSource3,1.485576
AnsiC,23500000,outputParallelSource3,1.976831
AnsiC,30000000,outputParallelSource3,2.523483
AnsiC,42000000,outputParallelSource3,3.526078
AnsiC,55000000,outputParallelSource3,4.598994
AnsiC,75000000,outputParallelSource3,6.285773
AnsiC,100000,outputParallelSource3,0.008453
AnsiC,135000,outputParallelSource3,0.012568
AnsiC,175000,outputParallelSource3,0.015024
AnsiC,235000,outputParallelSource3,0.021354
AnsiC,300000,outputParallelSource3,0.027101
AnsiC,420000,outputParallelSource3,0.037034
AnsiC,550000,outputParallelSource3,0.049673
AnsiC,750000,outputParallelSource3,0.063914
AnsiC,1000000,outputParallelSource3,0.087605
AnsiC,1350000,outputParallelSource3,0.117467
AnsiC,1750000,outputParallelSource3,0.153614
AnsiC,2350000,outputParallelSource3,0.196289
AnsiC,3000000,outputParallelSource3,0.252996
AnsiC,4200000,outputParallelSource3,0.353474
AnsiC,5500000,outputParallelSource3,0.461861
AnsiC,7500000,outputParallelSource3,0.632753
AnsiC,10000000,outputParallelSource3,0.838559
AnsiC,13500000,outputParallelSource3,1.183562
AnsiC,17500000,outputParallelSource3,1.485576
AnsiC,23500000,outputParallelSource3,1.976831
AnsiC,30000000,outputParallelSource3,2.523483
AnsiC,42000000,outputParallelSource3,3.526078
AnsiC,55000000,outputParallelSource3,4.598994
AnsiC,75000000,outputParallelSource3,6.285773
AnsiC,100000,outputParallelSource3,0.008453
AnsiC,135000,outputParallelSource3,0.012568
AnsiC,175000,outputParallelSource3,0.015024
AnsiC,235000,outputParallelSource3,0.021354
AnsiC,300000,outputParallelSource3,0.027101
AnsiC,420000,outputParallelSource3,0.037034
AnsiC,550000,outputParallelSource3,0.049673
AnsiC,750000,outputParallelSource3,0.063914
AnsiC,1000000,outputParallelSource3,0.087605
AnsiC,1350000,outputParallelSource3,0.117467
AnsiC,1750000,outputParallelSource3,0.153614
AnsiC,2350000,outputParallelSource3,0.196289
AnsiC,3000000,outputParallelSource3,0.252996
AnsiC,4200000,outputParallelSource3,0.353474
AnsiC,5500000,outputParallelSource3,0.461861
AnsiC,7500000,outputParallelSource3,0.632753
AnsiC,10000000,outputParallelSource3,0.838559
AnsiC,13500000,outputParallelSource3,1.183562
AnsiC,17500000,outputParallelSource3,1.485576
AnsiC,23500000,outputParallelSource3,1.976831
AnsiC,30000000,outputParallelSource3,2.523483
AnsiC,42000000,outputParallelSource3,3.526078
AnsiC,55000000,outputParallelSource3,4.598994
AnsiC,75000000,outputParallelSource3,6.285773
AnsiC,100000,outputParallelSource3,0.008453
AnsiC,135000,outputParallelSource3,0.012568
AnsiC,175000,outputParallelSource3,0.015024
AnsiC,235000,outputParallelSource3,0.021354
AnsiC,300000,outputParallelSource3,0.027101
AnsiC,420000,outputParallelSource3,0.037034
AnsiC,550000,outputParallelSource3,0.049673
AnsiC,750000,outputParallelSource3,0.063914
AnsiC,1000000,outputParallelSource3,0.087605
AnsiC,1350000,outputParallelSource3,0.117467
AnsiC,1750000,outputParallelSource3,0.153614
AnsiC,2350000,outputParallelSource3,0.196289
AnsiC,3000000,outputParallelSource3,0.252996
AnsiC,4200000,outputParallelSource3,0.353474
AnsiC,5500000,outputParallelSource3,0.461861
AnsiC,7500000,outputParallelSource3,0.632753
AnsiC,10000000,outputParallelSource3,0.838559
AnsiC,13500000,outputParallelSource3,1.183562
AnsiC,17500000,outputParallelSource3,1.485576
AnsiC,23500000,outputParallelSource3,1.976831
AnsiC,30000000,outputParallelSource3,2.523483
AnsiC,42000000,outputParallelSource3,3.526078
AnsiC,55000000,outputParallelSource3,4.598994
AnsiC,75000000,outputParallelSource3,6.285773
AnsiC,100000,outputParallelSource3,0.008453
AnsiC,135000,outputParallelSource3,0.012568
AnsiC,175000,outputParallelSource3,0.015024
AnsiC,235000,outputParallelSource3,0.021354
AnsiC,300000,outputParallelSource3,0.027101
AnsiC,420000,outputParallelSource3,0.037034
AnsiC,550000,outputParallelSource3,0.049673
AnsiC,750000,outputParallelSource3,0.063914
AnsiC,1000000,outputParallelSource3,0.087605
AnsiC,1350000,outputParallelSource3,0.117467
AnsiC,1750000,outputParallelSource3,0.153614
AnsiC,2350000,outputParallelSource3,0.196289
AnsiC,3000000,outputParallelSource3,0.252996
AnsiC,4200000,outputParallelSource3,0.353474
AnsiC,5500000,outputParallelSource3,0.461861
AnsiC,7500000,outputParallelSource3,0.632753
AnsiC,10000000,outputParallelSource3,0.838559
AnsiC,13500000,outputParallelSource3,1.183562
AnsiC,17500000,outputParallelSource3,1.485576
AnsiC,23500000,outputParallelSource3,1.976831
AnsiC,30000000,outputParallelSource3,2.523483
AnsiC,42000000,outputParallelSource3,3.526078
AnsiC,55000000,outputParallelSource3,4.598994
AnsiC,75000000,outputParallelSource3,6.285773
AnsiC,100000,outputParallelSource3,0.008453
AnsiC,135000,outputParallelSource3,0.012568
AnsiC,175000,outputParallelSource3,0.015024
AnsiC,235000,outputParallelSource3,0.021354
AnsiC,300000,outputParallelSource3,0.027101
AnsiC,420000,outputParallelSource3,0.037034
AnsiC,550000,outputParallelSource3,0.049673
AnsiC,750000,outputParallelSource3,0.063914
AnsiC,1000000,outputParallelSource3,0.087605
AnsiC,1350000,outputParallelSource3,0.117467
AnsiC,1750000,outputParallelSource3,0.153614
AnsiC,2350000,outputParallelSource3,0.196289
AnsiC,3000000,outputParallelSource3,0.252996
AnsiC,4200000,outputParallelSource3,0.353474
AnsiC,5500000,outputParallelSource3,0.461861
AnsiC,7500000,outputParallelSource3,0.632753
AnsiC,10000000,outputParallelSource3,0.838559
AnsiC,13500000,outputParallelSource3,1.183562
AnsiC,17500000,outputParallelSource3,1.485576
AnsiC,23500000,outputParallelSource3,1.976831
AnsiC,30000000,outputParallelSource3,2.523483
AnsiC,42000000,outputParallelSource3,3.526078
AnsiC,55000000,outputParallelSource3,4.598994
AnsiC,75000000,outputParallelSource3,6.285773
AnsiC,100000,outputParallelSource3,0.008453
AnsiC,135000,outputParallelSource3,0.012568
AnsiC,175000,outputParallelSource3,0.015024
AnsiC,235000,outputParallelSource3,0.021354
AnsiC,300000,outputParallelSource3,0.027101
AnsiC,420000,outputParallelSource3,0.037034
AnsiC,550000,outputParallelSource3,0.049673
AnsiC,750000,outputParallelSource3,0.063914
AnsiC,1000000,outputParallelSource3,0.087605
AnsiC,1350000,outputParallelSource3,0.117467
AnsiC,1750000,outputParallelSource3,0.153614
AnsiC,2350000,outputParallelSource3,0.196289
AnsiC,3000000,outputParallelSource3,0.252996
AnsiC,4200000,outputParallelSource3,0.353474
AnsiC,5500000,outputParallelSource3,0.461861
AnsiC,7500000,outputParallelSource3,0.632753
AnsiC,10000000,outputParallelSource3,0.838559
AnsiC,13500000,outputParallelSource3,1.183562
AnsiC,17500000,outputParallelSource3,1.485576
AnsiC,23500000,outputParallelSource3,1.976831
AnsiC,30000000,outputParallelSource3,2.523483
AnsiC,42000000,outputParallelSource3,3.526078
AnsiC,55000000,outputParallelSource3,4.598994
AnsiC,75000000,outputParallelSource3,6.285773
AnsiC,100000,outputParallelSource3,0.008453
AnsiC,135000,outputParallelSource3,0.012568
AnsiC,175000,outputParallelSource3,0.015024
AnsiC,235000,outputParallelSource3,0.021354
AnsiC,300000,outputParallelSource3,0.027101
AnsiC,420000,outputParallelSource3,0.037034
AnsiC,550000,outputParallelSource3,0.049673
AnsiC,750000,outputParallelSource3,0.063914
AnsiC,1000000,outputParallelSource3,0.087605
AnsiC,1350000,outputParallelSource3,0.117467
AnsiC,1750000,outputParallelSource3,0.153614
AnsiC,2350000,outputParallelSource3,0.196289
AnsiC,3000000,outputParallelSource3,0.252996
AnsiC,4200000,outputParallelSource3,0.353474
AnsiC,5500000,outputParallelSource3,0.461861
AnsiC,7500000,outputParallelSource3,0.632753
AnsiC,10000000,outputParallelSource3,0.838559
AnsiC,13500000,outputParallelSource3,1.183562
AnsiC,17500000,outputParallelSource3,1.485576
AnsiC,23500000,outputParallelSource3,1.976831
AnsiC,30000000,outputParallelSource3,2.523483
AnsiC,42000000,outputParallelSource3,3.526078
AnsiC,55000000,outputParallelSource3,4.598994
AnsiC,75000000,outputParallelSource3,6.285773
AnsiC,100000,outputParallelSource3,0.008453
AnsiC,135000,outputParallelSource3,0.012568
AnsiC,175000,outputParallelSource3,0.015024
AnsiC,235000,outputParallelSource3,0.021354
AnsiC,300000,outputParallelSource3,0.027101
AnsiC,420000,outputParallelSource3,0.037034
AnsiC,550000,outputParallelSource3,0.049673
AnsiC,750000,outputParallelSource3,0.063914
AnsiC,1000000,outputParallelSource3,0.087605
AnsiC,1350000,outputParallelSource3,0.117467
AnsiC,1750000,outputParallelSource3,0.153614
AnsiC,2350000,outputParallelSource3,0.196289
AnsiC,3000000,outputParallelSource3,0.252996
AnsiC,4200000,outputParallelSource3,0.353474
AnsiC,5500000,outputParallelSource3,0.461861
AnsiC,7500000,outputParallelSource3,0.632753
AnsiC,10000000,outputParallelSource3,0.838559
AnsiC,13500000,outputParallelSource3,1.183562
AnsiC,17500000,outputParallelSource3,1.485576
AnsiC,23500000,outputParallelSource3,1.976831
AnsiC,30000000,outputParallelSource3,2.523483
AnsiC,42000000,outputParallelSource3,3.526078
AnsiC,55000000,outputParallelSource3,4.598994
AnsiC,75000000,outputParallelSource3,6.285773
AnsiC,100000,outputParallelSource3,0.008453
AnsiC,135000,outputParallelSource3,0.012568
AnsiC,175000,outputParallelSource3,0.015024
AnsiC,235000,outputParallelSource3,0.021354
AnsiC,300000,outputParallelSource3,0.027101
AnsiC,420000,outputParallelSource3,0.037034
AnsiC,550000,outputParallelSource3,0.049673
AnsiC,750000,outputParallelSource3,0.063914
AnsiC,1000000,outputParallelSource3,0.087605
AnsiC,1350000,outputParallelSource3,0.117467
AnsiC,1750000,outputParallelSource3,0.153614
AnsiC,2350000,outputParallelSource3,0.196289
AnsiC,3000000,outputParallelSource3,0.252996
AnsiC,4200000,outputParallelSource3,0.353474
AnsiC,5500000,outputParallelSource3,0.461861
AnsiC,7500000,outputParallelSource3,0.632753
AnsiC,10000000,outputParallelSource3,0.838559
AnsiC,13500000,outputParallelSource3,1.183562
AnsiC,17500000,outputParallelSource3,1.485576
AnsiC,23500000,outputParallelSource3,1.976831
AnsiC,30000000,outputParallelSource3,2.523483
AnsiC,42000000,outputParallelSource3,3.526078
AnsiC,55000000,outputParallelSource3,4.598994
AnsiC,75000000,outputParallelSource3,6.285773
AnsiC,100000,outputParallelSource3,0.008453
AnsiC,135000,outputParallelSource3,0.012568
AnsiC,175000,outputParallelSource3,0.015024
AnsiC,235000,outputParallelSource3,0.021354
AnsiC,300000,outputParallelSource3,0.027101
AnsiC,420000,outputParallelSource3,0.037034
AnsiC,550000,outputParallelSource3,0.049673
AnsiC,750000,outputParallelSource3,0.063914
AnsiC,1000000,outputParallelSource3,0.087605
AnsiC,1350000,outputParallelSource3,0.117467
AnsiC,1750000,outputParallelSource3,0.153614
AnsiC,2350000,outputParallelSource3,0.196289
AnsiC,3000000,outputParallelSource3,0.252996
AnsiC,4200000,outputParallelSource3,0.353474
AnsiC,5500000,outputParallelSource3,0.461861
AnsiC,7500000,outputParallelSource3,0.632753
AnsiC,10000000,outputParallelSource3,0.838559
AnsiC,13500000,outputParallelSource3,1.183562
AnsiC,17500000,outputParallelSource3,1.485576
AnsiC,23500000,outputParallelSource3,1.976831
AnsiC,30000000,outputParallelSource3,2.523483
AnsiC,42000000,outputParallelSource3,3.526078
AnsiC,55000000,outputParallelSource3,4.598994
AnsiC,75000000,outputParallelSource3,6.285773
AnsiC,100000,outputParallelSource3,0.008453
AnsiC,135000,outputParallelSource3,0.012568
AnsiC,175000,outputParallelSource3,0.015024
AnsiC,235000,outputParallelSource3,0.021354
AnsiC,300000,outputParallelSource3,0.027101
AnsiC,420000,outputParallelSource3,0.037034
AnsiC,550000,outputParallelSource3,0.049673
AnsiC,750000,outputParallelSource3,0.063914
AnsiC,1000000,outputParallelSource3,0.087605
AnsiC,1350000,outputParallelSource3,0.117467
AnsiC,1750000,outputParallelSource3,0.153614
AnsiC,2350000,outputParallelSource3,0.196289
AnsiC,3000000,outputParallelSource3,0.252996
AnsiC,4200000,outputParallelSource3,0.353474
AnsiC,5500000,outputParallelSource3,0.461861
AnsiC,7500000,outputParallelSource3,0.632753
AnsiC,10000000,outputParallelSource3,0.838559
AnsiC,13500000,outputParallelSource3,1.183562
AnsiC,17500000,outputParallelSource3,1.485576
AnsiC,23500000,outputParallelSource3,1.976831
AnsiC,30000000,outputParallelSource3,2.523483
AnsiC,42000000,outputParallelSource3,3.526078
AnsiC,55000000,outputParallelSource3,4.598994
AnsiC,75000000,outputParallelSource3,6.285773
AnsiC,100000,outputParallelSource3,0.008453
AnsiC,135000,outputParallelSource3,0.012568
AnsiC,175000,outputParallelSource3,0.015024
AnsiC,235000,outputParallelSource3,0.021354
AnsiC,300000,outputParallelSource3,0.027101
AnsiC,420000,outputParallelSource3,0.037034
AnsiC,550000,outputParallelSource3,0.049673
AnsiC,750000,outputParallelSource3,0.063914
AnsiC,1000000,outputParallelSource3,0.087605
AnsiC,1350000,outputParallelSource3,0.117467
AnsiC,1750000,outputParallelSource3,0.153614
AnsiC,2350000,outputParallelSource3,0.196289
AnsiC,3000000,outputParallelSource3,0.252996
AnsiC,4200000,outputParallelSource3,0.353474
AnsiC,5500000,outputParallelSource3,0.461861
AnsiC,7500000,outputParallelSource3,0.632753
AnsiC,10000000,outputParallelSource3,0.838559
AnsiC,13500000,outputParallelSource3,1.183562
AnsiC,17500000,outputParallelSource3,1.485576
AnsiC,23500000,outputParallelSource3,1.976831
AnsiC,30000000,outputParallelSource3,2.523483
AnsiC,42000000,outputParallelSource3,3.526078
AnsiC,55000000,outputParallelSource3,4.598994
AnsiC,75000000,outputParallelSource3,6.285773
AnsiC,100000,outputParallelSource3,0.008453
AnsiC,135000,outputParallelSource3,0.012568
AnsiC,175000,outputParallelSource3,0.015024
AnsiC,235000,outputParallelSource3,0.021354
AnsiC,300000,outputParallelSource3,0.027101
AnsiC,420000,outputParallelSource3,0.037034
AnsiC,550000,outputParallelSource3,0.049673
AnsiC,750000,outputParallelSource3,0.063914
AnsiC,1000000,outputParallelSource3,0.087605
AnsiC,1350000,outputParallelSource3,0.117467
AnsiC,1750000,outputParallelSource3,0.153614
AnsiC,2350000,outputParallelSource3,0.196289
AnsiC,3000000,outputParallelSource3,0.252996
AnsiC,4200000,outputParallelSource3,0.353474
AnsiC,5500000,outputParallelSource3,0.461861
AnsiC,7500000,outputParallelSource3,0.632753
AnsiC,10000000,outputParallelSource3,0.838559
AnsiC,13500000,outputParallelSource3,1.183562
AnsiC,17500000,outputParallelSource3,1.485576
AnsiC,23500000,outputParallelSource3,1.976831
AnsiC,30000000,outputParallelSource3,2.523483
AnsiC,42000000,outputParallelSource3,3.526078
AnsiC,55000000,outputParallelSource3,4.598994
AnsiC,75000000,outputParallelSource3,6.285773
AnsiC,100000,outputParallelSource3,0.008453
AnsiC,135000,outputParallelSource3,0.012568
AnsiC,175000,outputParallelSource3,0.015024
AnsiC,235000,outputParallelSource3,0.021354
AnsiC,300000,outputParallelSource3,0.027101
AnsiC,420000,outputParallelSource3,0.037034
AnsiC,550000,outputParallelSource3,0.049673
AnsiC,750000,outputParallelSource3,0.063914
AnsiC,1000000,outputParallelSource3,0.087605
AnsiC,1350000,outputParallelSource3,0.117467
AnsiC,1750000,outputParallelSource3,0.153614
AnsiC,2350000,outputParallelSource3,0.196289
AnsiC,3000000,outputParallelSource3,0.252996
AnsiC,4200000,outputParallelSource3,0.353474
AnsiC,5500000,outputParallelSource3,0.461861
AnsiC,7500000,outputParallelSource3,0.632753
AnsiC,10000000,outputParallelSource3,0.838559
AnsiC,13500000,outputParallelSource3,1.183562
AnsiC,17500000,outputParallelSource3,1.485576
AnsiC,23500000,outputParallelSource3,1.976831
AnsiC,30000000,outputParallelSource3,2.523483
AnsiC,42000000,outputParallelSource3,3.526078
AnsiC,55000000,outputParallelSource3,4.598994
AnsiC,75000000,outputParallelSource3,6.285773
AnsiC,100000,outputParallelSource3,0.008453
AnsiC,135000,outputParallelSource3,0.012568
AnsiC,175000,outputParallelSource3,0.015024
AnsiC,235000,outputParallelSource3,0.021354
AnsiC,300000,outputParallelSource3,0.027101
AnsiC,420000,outputParallelSource3,0.037034
AnsiC,550000,outputParallelSource3,0.049673
AnsiC,750000,outputParallelSource3,0.063914
AnsiC,1000000,outputParallelSource3,0.087605
AnsiC,1350000,outputParallelSource3,0.117467
AnsiC,1750000,outputParallelSource3,0.153614
AnsiC,2350000,outputParallelSource3,0.196289
AnsiC,3000000,outputParallelSource3,0.252996
AnsiC,4200000,outputParallelSource3,0.353474
AnsiC,5500000,outputParallelSource3,0.461861
AnsiC,7500000,outputParallelSource3,0.632753
AnsiC,10000000,outputParallelSource3,0.838559
AnsiC,13500000,outputParallelSource3,1.183562
AnsiC,17500000,outputParallelSource3,1.485576
AnsiC,23500000,outputParallelSource3,1.976831
AnsiC,30000000,outputParallelSource3,2.523483
AnsiC,42000000,outputParallelSource3,3.526078
AnsiC,55000000,outputParallelSource3,4.598994
AnsiC,75000000,outputParallelSource3,6.285773
AnsiC,100000,outputParallelSource3,0.008453
AnsiC,135000,outputParallelSource3,0.012568
AnsiC,175000,outputParallelSource3,0.015024
AnsiC,235000,outputParallelSource3,0.021354
AnsiC,300000,outputParallelSource3,0.027101
AnsiC,420000,outputParallelSource3,0.037034
AnsiC,550000,outputParallelSource3,0.049673
AnsiC,750000,outputParallelSource3,0.063914
AnsiC,1000000,outputParallelSource3,0.087605
AnsiC,1350000,outputParallelSource3,0.117467
AnsiC,1750000,outputParallelSource3,0.153614
AnsiC,2350000,outputParallelSource3,0.196289
AnsiC,3000000,outputParallelSource3,0.252996
AnsiC,4200000,outputParallelSource3,0.353474
AnsiC,5500000,outputParallelSource3,0.461861
AnsiC,7500000,outputParallelSource3,0.632753
AnsiC,10000000,outputParallelSource3,0.838559
AnsiC,13500000,outputParallelSource3,1.183562
AnsiC,17500000,outputParallelSource3,1.485576
AnsiC,23500000,outputParallelSource3,1.976831
AnsiC,30000000,outputParallelSource3,2.523483
AnsiC,42000000,outputParallelSource3,3.526078
AnsiC,55000000,outputParallelSource3,4.598994
AnsiC,75000000,outputParallelSource3,6.285773
AnsiC,100000,outputParallelSource3,0.008453
AnsiC,135000,outputParallelSource3,0.012568
AnsiC,175000,outputParallelSource3,0.015024
AnsiC,235000,outputParallelSource3,0.021354
AnsiC,300000,outputParallelSource3,0.027101
AnsiC,420000,outputParallelSource3,0.037034
AnsiC,550000,outputParallelSource3,0.049673
AnsiC,750000,outputParallelSource3,0.063914
AnsiC,1000000,outputParallelSource3,0.087605
AnsiC,1350000,outputParallelSource3,0.117467
AnsiC,1750000,outputParallelSource3,0.153614
AnsiC,2350000,outputParallelSource3,0.196289
AnsiC,3000000,outputParallelSource3,0.252996
AnsiC,4200000,outputParallelSource3,0.353474
AnsiC,5500000,outputParallelSource3,0.461861
AnsiC,7500000,outputParallelSource3,0.632753
AnsiC,10000000,outputParallelSource3,0.838559
AnsiC,13500000,outputParallelSource3,1.183562
AnsiC,17500000,outputParallelSource3,1.485576
AnsiC,23500000,outputParallelSource3,1.976831
AnsiC,30000000,outputParallelSource3,2.523483
AnsiC,42000000,outputParallelSource3,3.526078
AnsiC,55000000,outputParallelSource3,4.598994
AnsiC,75000000,outputParallelSource3,6.285773
AnsiC,100000,outputParallelSource3,0.008453
AnsiC,135000,outputParallelSource3,0.012568
AnsiC,175000,outputParallelSource3,0.015024
AnsiC,235000,outputParallelSource3,0.021354
AnsiC,300000,outputParallelSource3,0.027101
AnsiC,420000,outputParallelSource3,0.037034
AnsiC,550000,outputParallelSource3,0.049673
AnsiC,750000,outputParallelSource3,0.063914
AnsiC,1000000,outputParallelSource3,0.087605
AnsiC,1350000,outputParallelSource3,0.117467
AnsiC,1750000,outputParallelSource3,0.153614
AnsiC,2350000,outputParallelSource3,0.196289
AnsiC,3000000,outputParallelSource3,0.252996
AnsiC,4200000,outputParallelSource3,0.353474
AnsiC,5500000,outputParallelSource3,0.461861
AnsiC,7500000,outputParallelSource3,0.632753
AnsiC,10000000,outputParallelSource3,0.838559
AnsiC,13500000,outputParallelSource3,1.183562
AnsiC,17500000,outputParallelSource3,1.485576
AnsiC,23500000,outputParallelSource3,1.976831
AnsiC,30000000,outputParallelSource3,2.523483
AnsiC,42000000,outputParallelSource3,3.526078
AnsiC,55000000,outputParallelSource3,4.598994
AnsiC,75000000,outputParallelSource3,6.285773
AnsiC,100000,outputParallelSource3,0.008453
AnsiC,135000,outputParallelSource3,0.012568
AnsiC,175000,outputParallelSource3,0.015024
AnsiC,235000,outputParallelSource3,0.021354
AnsiC,300000,outputParallelSource3,0.027101
AnsiC,420000,outputParallelSource3,0.037034
AnsiC,550000,outputParallelSource3,0.049673
AnsiC,750000,outputParallelSource3,0.063914
AnsiC,1000000,outputParallelSource3,0.087605
AnsiC,1350000,outputParallelSource3,0.117467
AnsiC,1750000,outputParallelSource3,0.153614
AnsiC,2350000,outputParallelSource3,0.196289
AnsiC,3000000,outputParallelSource3,0.252996
AnsiC,4200000,outputParallelSource3,0.353474
AnsiC,5500000,outputParallelSource3,0.461861
AnsiC,7500000,outputParallelSource3,0.632753
AnsiC,10000000,outputParallelSource3,0.838559
AnsiC,13500000,outputParallelSource3,1.183562
AnsiC,17500000,outputParallelSource3,1.485576
AnsiC,23500000,outputParallelSource3,1.976831
AnsiC,30000000,outputParallelSource3,2.523483
AnsiC,42000000,outputParallelSource3,3.526078
AnsiC,55000000,outputParallelSource3,4.598994
AnsiC,75000000,outputParallelSource3,6.285773
AnsiC,100000,outputParallelSource3,0.008453
AnsiC,135000,outputParallelSource3,0.012568
AnsiC,175000,outputParallelSource3,0.015024
AnsiC,235000,outputParallelSource3,0.021354
AnsiC,300000,outputParallelSource3,0.027101
AnsiC,420000,outputParallelSource3,0.037034
AnsiC,550000,outputParallelSource3,0.049673
AnsiC,750000,outputParallelSource3,0.063914
AnsiC,1000000,outputParallelSource3,0.087605
AnsiC,1350000,outputParallelSource3,0.117467
AnsiC,1750000,outputParallelSource3,0.153614
AnsiC,2350000,outputParallelSource3,0.196289
AnsiC,3000000,outputParallelSource3,0.252996
AnsiC,4200000,outputParallelSource3,0.353474
AnsiC,5500000,outputParallelSource3,0.461861
AnsiC,7500000,outputParallelSource3,0.632753
AnsiC,10000000,outputParallelSource3,0.838559
AnsiC,13500000,outputParallelSource3,1.183562
AnsiC,17500000,outputParallelSource3,1.485576
AnsiC,23500000,outputParallelSource3,1.976831
AnsiC,30000000,outputParallelSource3,2.523483
AnsiC,42000000,outputParallelSource3,3.526078
AnsiC,55000000,outputParallelSource3,4.598994
AnsiC,75000000,outputParallelSource3,6.285773
AnsiC,100000,outputParallelSource3,0.008453
AnsiC,135000,outputParallelSource3,0.012568
AnsiC,175000,outputParallelSource3,0.015024
AnsiC,235000,outputParallelSource3,0.021354
AnsiC,300000,outputParallelSource3,0.027101
AnsiC,420000,outputParallelSource3,0.037034
AnsiC,550000,outputParallelSource3,0.049673
AnsiC,750000,outputParallelSource3,0.063914
AnsiC,1000000,outputParallelSource3,0.087605
AnsiC,1350000,outputParallelSource3,0.117467
AnsiC,1750000,outputParallelSource3,0.153614
AnsiC,2350000,outputParallelSource3,0.196289
AnsiC,3000000,outputParallelSource3,0.252996
AnsiC,4200000,outputParallelSource3,0.353474
AnsiC,5500000,outputParallelSource3,0.461861
AnsiC,7500000,outputParallelSource3,0.632753
AnsiC,10000000,outputParallelSource3,0.838559
AnsiC,13500000,outputParallelSource3,1.183562
AnsiC,17500000,outputParallelSource3,1.485576
AnsiC,23500000,outputParallelSource3,1.976831
AnsiC,30000000,outputParallelSource3,2.523483
AnsiC,42000000,outputParallelSource3,3.526078
AnsiC,55000000,outputParallelSource3,4.598994
AnsiC,75000000,outputParallelSource3,6.285773
AnsiC,100000,outputParallelSource3,0.008453
AnsiC,135000,outputParallelSource3,0.012568
AnsiC,175000,outputParallelSource3,0.015024
AnsiC,235000,outputParallelSource3,0.021354
AnsiC,300000,outputParallelSource3,0.027101
AnsiC,420000,outputParallelSource3,0.037034
AnsiC,550000,outputParallelSource3,0.049673
AnsiC,750000,outputParallelSource3,0.063914
AnsiC,1000000,outputParallelSource3,0.087605
AnsiC,1350000,outputParallelSource3,0.117467
AnsiC,1750000,outputParallelSource3,0.153614
AnsiC,2350000,outputParallelSource3,0.196289
AnsiC,3000000,outputParallelSource3,0.252996
AnsiC,4200000,outputParallelSource3,0.353474
AnsiC,5500000,outputParallelSource3,0.461861
AnsiC,7500000,outputParallelSource3,0.632753
AnsiC,10000000,outputParallelSource3,0.838559
AnsiC,13500000,outputParallelSource3,1.183562
AnsiC,17500000,outputParallelSource3,1.485576
AnsiC,23500000,outputParallelSource3,1.976831
AnsiC,30000000,outputParallelSource3,2.523483
AnsiC,42000000,outputParallelSource3,3.526078
AnsiC,55000000,outputParallelSource3,4.598994
AnsiC,75000000,outputParallelSource3,6.285773
AnsiC,100000,outputParallelSource3,0.008453
AnsiC,135000,outputParallelSource3,0.012568
AnsiC,175000,outputParallelSource3,0.015024
AnsiC,235000,outputParallelSource3,0.021354
AnsiC,300000,outputParallelSource3,0.027101
AnsiC,420000,outputParallelSource3,0.037034
AnsiC,550000,outputParallelSource3,0.049673
AnsiC,750000,outputParallelSource3,0.063914
AnsiC,1000000,outputParallelSource3,0.087605
AnsiC,1350000,outputParallelSource3,0.117467
AnsiC,1750000,outputParallelSource3,0.153614
AnsiC,2350000,outputParallelSource3,0.196289
AnsiC,3000000,outputParallelSource3,0.252996
AnsiC,4200000,outputParallelSource3,0.353474
AnsiC,5500000,outputParallelSource3,0.461861
AnsiC,7500000,outputParallelSource3,0.632753
AnsiC,10000000,outputParallelSource3,0.838559
AnsiC,13500000,outputParallelSource3,1.183562
AnsiC,17500000,outputParallelSource3,1.485576
AnsiC,23500000,outputParallelSource3,1.976831
AnsiC,30000000,outputParallelSource3,2.523483
AnsiC,42000000,outputParallelSource3,3.526078
AnsiC,55000000,outputParallelSource3,4.598994
AnsiC,75000000,outputParallelSource3,6.285773
AnsiC,100000,outputParallelSource3,0.008453
AnsiC,135000,outputParallelSource3,0.012568
AnsiC,175000,outputParallelSource3,0.015024
AnsiC,235000,outputParallelSource3,0.021354
AnsiC,300000,outputParallelSource3,0.027101
AnsiC,420000,outputParallelSource3,0.037034
AnsiC,550000,outputParallelSource3,0.049673
AnsiC,750000,outputParallelSource3,0.063914
AnsiC,1000000,outputParallelSource3,0.087605
AnsiC,1350000,outputParallelSource3,0.117467
AnsiC,1750000,outputParallelSource3,0.153614
AnsiC,2350000,outputParallelSource3,0.196289
AnsiC,3000000,outputParallelSource3,0.252996
AnsiC,4200000,outputParallelSource3,0.353474
AnsiC,5500000,outputParallelSource3,0.461861
AnsiC,7500000,outputParallelSource3,0.632753
AnsiC,10000000,outputParallelSource3,0.838559
AnsiC,13500000,outputParallelSource3,1.183562
AnsiC,17500000,outputParallelSource3,1.485576
AnsiC,23500000,outputParallelSource3,1.976831
AnsiC,30000000,outputParallelSource3,2.523483
AnsiC,42000000,outputParallelSource3,3.526078
AnsiC,55000000,outputParallelSource3,4.598994
AnsiC,75000000,outputParallelSource3,6.285773
AnsiC,100000,outputParallelSource3,0.008453
AnsiC,135000,outputParallelSource3,0.012568
AnsiC,175000,outputParallelSource3,0.015024
AnsiC,235000,outputParallelSource3,0.021354
AnsiC,300000,outputParallelSource3,0.027101
AnsiC,420000,outputParallelSource3,0.037034
AnsiC,550000,outputParallelSource3,0.049673
AnsiC,750000,outputParallelSource3,0.063914
AnsiC,1000000,outputParallelSource3,0.087605
AnsiC,1350000,outputParallelSource3,0.117467
AnsiC,1750000,outputParallelSource3,0.153614
AnsiC,2350000,outputParallelSource3,0.196289
AnsiC,3000000,outputParallelSource3,0.252996
AnsiC,4200000,outputParallelSource3,0.353474
AnsiC,5500000,outputParallelSource3,0.461861
AnsiC,7500000,outputParallelSource3,0.632753
AnsiC,10000000,outputParallelSource3,0.838559
AnsiC,13500000,outputParallelSource3,1.183562
AnsiC,17500000,outputParallelSource3,1.485576
AnsiC,23500000,outputParallelSource3,1.976831
AnsiC,30000000,outputParallelSource3,2.523483
AnsiC,42000000,outputParallelSource3,3.526078
AnsiC,55000000,outputParallelSource3,4.598994
AnsiC,75000000,outputParallelSource3,6.285773
AnsiC,100000,outputParallelSource3,0.008453
AnsiC,135000,outputParallelSource3,0.012568
AnsiC,175000,outputParallelSource3,0.015024
AnsiC,235000,outputParallelSource3,0.021354
AnsiC,300000,outputParallelSource3,0.027101
AnsiC,420000,outputParallelSource3,0.037034
AnsiC,550000,outputParallelSource3,0.049673
AnsiC,750000,outputParallelSource3,0.063914
AnsiC,1000000,outputParallelSource3,0.087605
AnsiC,1350000,outputParallelSource3,0.117467
AnsiC,1750000,outputParallelSource3,0.153614
AnsiC,2350000,outputParallelSource3,0.196289
AnsiC,3000000,outputParallelSource3,0.252996
AnsiC,4200000,outputParallelSource3,0.353474
AnsiC,5500000,outputParallelSource3,0.461861
AnsiC,7500000,outputParallelSource3,0.632753
AnsiC,10000000,outputParallelSource3,0.838559
AnsiC,13500000,outputParallelSource3,1.183562
AnsiC,17500000,outputParallelSource3,1.485576
AnsiC,23500000,outputParallelSource3,1.976831
AnsiC,30000000,outputParallelSource3,2.523483
AnsiC,42000000,outputParallelSource3,3.526078
AnsiC,55000000,outputParallelSource3,4.598994
AnsiC,75000000,outputParallelSource3,6.285773
AnsiC,100000,outputParallelSource3,0.008453
AnsiC,135000,outputParallelSource3,0.012568
AnsiC,175000,outputParallelSource3,0.015024
AnsiC,235000,outputParallelSource3,0.021354
AnsiC,300000,outputParallelSource3,0.027101
AnsiC,420000,outputParallelSource3,0.037034
AnsiC,550000,outputParallelSource3,0.049673
AnsiC,750000,outputParallelSource3,0.063914
AnsiC,1000000,outputParallelSource3,0.087605
AnsiC,1350000,outputParallelSource3,0.117467
AnsiC,1750000,outputParallelSource3,0.153614
AnsiC,2350000,outputParallelSource3,0.196289
AnsiC,3000000,outputParallelSource3,0.252996
AnsiC,4200000,outputParallelSource3,0.353474
AnsiC,5500000,outputParallelSource3,0.461861
AnsiC,7500000,outputParallelSource3,0.632753
AnsiC,10000000,outputParallelSource3,0.838559
AnsiC,13500000,outputParallelSource3,1.183562
AnsiC,17500000,outputParallelSource3,1.485576
AnsiC,23500000,outputParallelSource3,1.976831
AnsiC,30000000,outputParallelSource3,2.523483
AnsiC,42000000,outputParallelSource3,3.526078
AnsiC,55000000,outputParallelSource3,4.598994
AnsiC,75000000,outputParallelSource3,6.285773
AnsiC,100000,outputParallelSource3,0.008453
AnsiC,135000,outputParallelSource3,0.012568
AnsiC,175000,outputParallelSource3,0.015024
AnsiC,235000,outputParallelSource3,0.021354
AnsiC,300000,outputParallelSource3,0.027101
AnsiC,420000,outputParallelSource3,0.037034
AnsiC,550000,outputParallelSource3,0.049673
AnsiC,750000,outputParallelSource3,0.063914
AnsiC,1000000,outputParallelSource3,0.087605
AnsiC,1350000,outputParallelSource3,0.117467
AnsiC,1750000,outputParallelSource3,0.153614
AnsiC,2350000,outputParallelSource3,0.196289
AnsiC,3000000,outputParallelSource3,0.252996
AnsiC,4200000,outputParallelSource3,0.353474
AnsiC,5500000,outputParallelSource3,0.461861
AnsiC,7500000,outputParallelSource3,0.632753
AnsiC,10000000,outputParallelSource3,0.838559
AnsiC,13500000,outputParallelSource3,1.183562
AnsiC,17500000,outputParallelSource3,1.485576
AnsiC,23500000,outputParallelSource3,1.976831
AnsiC,30000000,outputParallelSource3,2.523483
AnsiC,42000000,outputParallelSource3,3.526078
AnsiC,55000000,outputParallelSource3,4.598994
AnsiC,75000000,outputParallelSource3,6.285773
AnsiC,100000,outputParallelSource3,0.008453
AnsiC,135000,outputParallelSource3,0.012568
AnsiC,175000,outputParallelSource3,0.015024
AnsiC,235000,outputParallelSource3,0.021354
AnsiC,300000,outputParallelSource3,0.027101
AnsiC,420000,outputParallelSource3,0.037034
AnsiC,550000,outputParallelSource3,0.049673
AnsiC,750000,outputParallelSource3,0.063914
AnsiC,1000000,outputParallelSource3,0.087605
AnsiC,1350000,outputParallelSource3,0.117467
AnsiC,1750000,outputParallelSource3,0.153614
AnsiC,2350000,outputParallelSource3,0.196289
AnsiC,3000000,outputParallelSource3,0.252996
AnsiC,4200000,outputParallelSource3,0.353474
AnsiC,5500000,outputParallelSource3,0.461861
AnsiC,7500000,outputParallelSource3,0.632753
AnsiC,10000000,outputParallelSource3,0.838559
AnsiC,13500000,outputParallelSource3,1.183562
AnsiC,17500000,outputParallelSource3,1.485576
AnsiC,23500000,outputParallelSource3,1.976831
AnsiC,30000000,outputParallelSource3,2.523483
AnsiC,42000000,outputParallelSource3,3.526078
AnsiC,55000000,outputParallelSource3,4.598994
AnsiC,75000000,outputParallelSource3,6.285773
AnsiC,100000,outputParallelSource3,0.008453
AnsiC,135000,outputParallelSource3,0.012568
AnsiC,175000,outputParallelSource3,0.015024
AnsiC,235000,outputParallelSource3,0.021354
AnsiC,300000,outputParallelSource3,0.027101
AnsiC,420000,outputParallelSource3,0.037034
AnsiC,550000,outputParallelSource3,0.049673
AnsiC,750000,outputParallelSource3,0.063914
AnsiC,1000000,outputParallelSource3,0.087605
AnsiC,1350000,outputParallelSource3,0.117467
AnsiC,1750000,outputParallelSource3,0.153614
AnsiC,2350000,outputParallelSource3,0.196289
AnsiC,3000000,outputParallelSource3,0.252996
AnsiC,4200000,outputParallelSource3,0.353474
AnsiC,5500000,outputParallelSource3,0.461861
AnsiC,7500000,outputParallelSource3,0.632753
AnsiC,10000000,outputParallelSource3,0.838559
AnsiC,13500000,outputParallelSource3,1.183562
AnsiC,17500000,outputParallelSource3,1.485576
AnsiC,23500000,outputParallelSource3,1.976831
AnsiC,30000000,outputParallelSource3,2.523483
AnsiC,42000000,outputParallelSource3,3.526078
AnsiC,55000000,outputParallelSource3,4.598994
AnsiC,75000000,outputParallelSource3,6.285773
AnsiC,100000,outputParallelSource3,0.008453
AnsiC,135000,outputParallelSource3,0.012568
AnsiC,175000,outputParallelSource3,0.015024
AnsiC,235000,outputParallelSource3,0.021354
AnsiC,300000,outputParallelSource3,0.027101
AnsiC,420000,outputParallelSource3,0.037034
AnsiC,550000,outputParallelSource3,0.049673
AnsiC,750000,outputParallelSource3,0.063914
AnsiC,1000000,outputParallelSource3,0.087605
AnsiC,1350000,outputParallelSource3,0.117467
AnsiC,1750000,outputParallelSource3,0.153614
AnsiC,2350000,outputParallelSource3,0.196289
AnsiC,3000000,outputParallelSource3,0.252996
AnsiC,4200000,outputParallelSource3,0.353474
AnsiC,5500000,outputParallelSource3,0.461861
AnsiC,7500000,outputParallelSource3,0.632753
AnsiC,10000000,outputParallelSource3,0.838559
AnsiC,13500000,outputParallelSource3,1.183562
AnsiC,17500000,outputParallelSource3,1.485576
AnsiC,23500000,outputParallelSource3,1.976831
AnsiC,30000000,outputParallelSource3,2.523483
AnsiC,42000000,outputParallelSource3,3.526078
AnsiC,55000000,outputParallelSource3,4.598994
AnsiC,75000000,outputParallelSource3,6.285773
AnsiC,100000,outputParallelSource3,0.008453
AnsiC,135000,outputParallelSource3,0.012568
AnsiC,175000,outputParallelSource3,0.015024
AnsiC,235000,outputParallelSource3,0.021354
AnsiC,300000,outputParallelSource3,0.027101
AnsiC,420000,outputParallelSource3,0.037034
AnsiC,550000,outputParallelSource3,0.049673
AnsiC,750000,outputParallelSource3,0.063914
AnsiC,1000000,outputParallelSource3,0.087605
AnsiC,1350000,outputParallelSource3,0.117467
AnsiC,1750000,outputParallelSource3,0.153614
AnsiC,2350000,outputParallelSource3,0.196289
AnsiC,3000000,outputParallelSource3,0.252996
AnsiC,4200000,outputParallelSource3,0.353474
AnsiC,5500000,outputParallelSource3,0.461861
AnsiC,7500000,outputParallelSource3,0.632753
AnsiC,10000000,outputParallelSource3,0.838559
AnsiC,13500000,outputParallelSource3,1.183562
AnsiC,17500000,outputParallelSource3,1.485576
AnsiC,23500000,outputParallelSource3,1.976831
AnsiC,30000000,outputParallelSource3,2.523483
AnsiC,42000000,outputParallelSource3,3.526078
AnsiC,55000000,outputParallelSource3,4.598994
AnsiC,75000000,outputParallelSource3,6.285773
AnsiC,100000,outputParallelSource3,0.008453
AnsiC,135000,outputParallelSource3,0.012568
AnsiC,175000,outputParallelSource3,0.015024
AnsiC,235000,outputParallelSource3,0.021354
AnsiC,300000,outputParallelSource3,0.027101
AnsiC,420000,outputParallelSource3,0.037034
AnsiC,550000,outputParallelSource3,0.049673
AnsiC,750000,outputParallelSource3,0.063914
AnsiC,1000000,outputParallelSource3,0.087605
AnsiC,1350000,outputParallelSource3,0.117467
AnsiC,1750000,outputParallelSource3,0.153614
AnsiC,2350000,outputParallelSource3,0.196289
AnsiC,3000000,outputParallelSource3,0.252996
AnsiC,4200000,outputParallelSource3,0.353474
AnsiC,5500000,outputParallelSource3,0.461861
AnsiC,7500000,outputParallelSource3,0.632753
AnsiC,10000000,outputParallelSource3,0.838559
AnsiC,13500000,outputParallelSource3,1.183562
AnsiC,17500000,outputParallelSource3,1.485576
AnsiC,23500000,outputParallelSource3,1.976831
AnsiC,30000000,outputParallelSource3,2.523483
AnsiC,42000000,outputParallelSource3,3.526078
AnsiC,55000000,outputParallelSource3,4.598994
AnsiC,75000000,outputParallelSource3,6.285773
AnsiC,100000,outputParallelSource3,0.008453
AnsiC,135000,outputParallelSource3,0.012568
AnsiC,175000,outputParallelSource3,0.015024
AnsiC,235000,outputParallelSource3,0.021354
AnsiC,300000,outputParallelSource3,0.027101
AnsiC,420000,outputParallelSource3,0.037034
AnsiC,550000,outputParallelSource3,0.049673
AnsiC,750000,outputParallelSource3,0.063914
AnsiC,1000000,outputParallelSource3,0.087605
AnsiC,1350000,outputParallelSource3,0.117467
AnsiC,1750000,outputParallelSource3,0.153614
AnsiC,2350000,outputParallelSource3,0.196289
AnsiC,3000000,outputParallelSource3,0.252996
AnsiC,4200000,outputParallelSource3,0.353474
AnsiC,5500000,outputParallelSource3,0.461861
AnsiC,7500000,outputParallelSource3,0.632753
AnsiC,10000000,outputParallelSource3,0.838559
AnsiC,13500000,outputParallelSource3,1.183562
AnsiC,17500000,outputParallelSource3,1.485576
AnsiC,23500000,outputParallelSource3,1.976831
AnsiC,30000000,outputParallelSource3,2.523483
AnsiC,42000000,outputParallelSource3,3.526078
AnsiC,55000000,outputParallelSource3,4.598994
AnsiC,75000000,outputParallelSource3,6.285773
AnsiC,100000,outputParallelSource3,0.008453
AnsiC,135000,outputParallelSource3,0.012568
AnsiC,175000,outputParallelSource3,0.015024
AnsiC,235000,outputParallelSource3,0.021354
AnsiC,300000,outputParallelSource3,0.027101
AnsiC,420000,outputParallelSource3,0.037034
AnsiC,550000,outputParallelSource3,0.049673
AnsiC,750000,outputParallelSource3,0.063914
AnsiC,1000000,outputParallelSource3,0.087605
AnsiC,1350000,outputParallelSource3,0.117467
AnsiC,1750000,outputParallelSource3,0.153614
AnsiC,2350000,outputParallelSource3,0.196289
AnsiC,3000000,outputParallelSource3,0.252996
AnsiC,4200000,outputParallelSource3,0.353474
AnsiC,5500000,outputParallelSource3,0.461861
AnsiC,7500000,outputParallelSource3,0.632753
AnsiC,10000000,outputParallelSource3,0.838559
AnsiC,13500000,outputParallelSource3,1.183562
AnsiC,17500000,outputParallelSource3,1.485576
AnsiC,23500000,outputParallelSource3,1.976831
AnsiC,30000000,outputParallelSource3,2.523483
AnsiC,42000000,outputParallelSource3,3.526078
AnsiC,55000000,outputParallelSource3,4.598994
AnsiC,75000000,outputParallelSource3,6.285773
AnsiC,100000,outputParallelSource3,0.008453
AnsiC,135000,outputParallelSource3,0.012568
AnsiC,175000,outputParallelSource3,0.015024
AnsiC,235000,outputParallelSource3,0.021354
AnsiC,300000,outputParallelSource3,0.027101
AnsiC,420000,outputParallelSource3,0.037034
AnsiC,550000,outputParallelSource3,0.049673
AnsiC,750000,outputParallelSource3,0.063914
AnsiC,1000000,outputParallelSource3,0.087605
AnsiC,1350000,outputParallelSource3,0.117467
AnsiC,1750000,outputParallelSource3,0.153614
AnsiC,2350000,outputParallelSource3,0.196289
AnsiC,3000000,outputParallelSource3,0.252996
AnsiC,4200000,outputParallelSource3,0.353474
AnsiC,5500000,outputParallelSource3,0.461861
AnsiC,7500000,outputParallelSource3,0.632753
AnsiC,10000000,outputParallelSource3,0.838559
AnsiC,13500000,outputParallelSource3,1.183562
AnsiC,17500000,outputParallelSource3,1.485576
AnsiC,23500000,outputParallelSource3,1.976831
AnsiC,30000000,outputParallelSource3,2.523483
AnsiC,42000000,outputParallelSource3,3.526078
AnsiC,55000000,outputParallelSource3,4.598994
AnsiC,75000000,outputParallelSource3,6.285773
AnsiC,100000,outputParallelSource3,0.008453
AnsiC,135000,outputParallelSource3,0.012568
AnsiC,175000,outputParallelSource3,0.015024
AnsiC,235000,outputParallelSource3,0.021354
AnsiC,300000,outputParallelSource3,0.027101
AnsiC,420000,outputParallelSource3,0.037034
AnsiC,550000,outputParallelSource3,0.049673
AnsiC,750000,outputParallelSource3,0.063914
AnsiC,1000000,outputParallelSource3,0.087605
AnsiC,1350000,outputParallelSource3,0.117467
AnsiC,1750000,outputParallelSource3,0.153614
AnsiC,2350000,outputParallelSource3,0.196289
AnsiC,3000000,outputParallelSource3,0.252996
AnsiC,4200000,outputParallelSource3,0.353474
AnsiC,5500000,outputParallelSource3,0.461861
AnsiC,7500000,outputParallelSource3,0.632753
AnsiC,10000000,outputParallelSource3,0.838559
AnsiC,13500000,outputParallelSource3,1.183562
AnsiC,17500000,outputParallelSource3,1.485576
AnsiC,23500000,outputParallelSource3,1.976831
AnsiC,30000000,outputParallelSource3,2.523483
AnsiC,42000000,outputParallelSource3,3.526078
AnsiC,55000000,outputParallelSource3,4.598994
AnsiC,75000000,outputParallelSource3,6.285773
AnsiC,100000,outputParallelSource3,0.008453
AnsiC,135000,outputParallelSource3,0.012568
AnsiC,175000,outputParallelSource3,0.015024
AnsiC,235000,outputParallelSource3,0.021354
AnsiC,300000,outputParallelSource3,0.027101
AnsiC,420000,outputParallelSource3,0.037034
AnsiC,550000,outputParallelSource3,0.049673
AnsiC,750000,outputParallelSource3,0.063914
AnsiC,1000000,outputParallelSource3,0.087605
AnsiC,1350000,outputParallelSource3,0.117467
AnsiC,1750000,outputParallelSource3,0.153614
AnsiC,2350000,outputParallelSource3,0.196289
AnsiC,3000000,outputParallelSource3,0.252996
AnsiC,4200000,outputParallelSource3,0.353474
AnsiC,5500000,outputParallelSource3,0.461861
AnsiC,7500000,outputParallelSource3,0.632753
AnsiC,10000000,outputParallelSource3,0.838559
AnsiC,13500000,outputParallelSource3,1.183562
AnsiC,17500000,outputParallelSource3,1.485576
AnsiC,23500000,outputParallelSource3,1.976831
AnsiC,30000000,outputParallelSource3,2.523483
AnsiC,42000000,outputParallelSource3,3.526078
AnsiC,55000000,outputParallelSource3,4.598994
AnsiC,75000000,outputParallelSource3,6.285773
AnsiC,100000,outputParallelSource3,0.008453
AnsiC,135000,outputParallelSource3,0.012568
AnsiC,175000,outputParallelSource3,0.015024
AnsiC,235000,outputParallelSource3,0.021354
AnsiC,300000,outputParallelSource3,0.027101
AnsiC,420000,outputParallelSource3,0.037034
AnsiC,550000,outputParallelSource3,0.049673
AnsiC,750000,outputParallelSource3,0.063914
AnsiC,1000000,outputParallelSource3,0.087605
AnsiC,1350000,outputParallelSource3,0.117467
AnsiC,1750000,outputParallelSource3,0.153614
AnsiC,2350000,outputParallelSource3,0.196289
AnsiC,3000000,outputParallelSource3,0.252996
AnsiC,4200000,outputParallelSource3,0.353474
AnsiC,5500000,outputParallelSource3,0.461861
AnsiC,7500000,outputParallelSource3,0.632753
AnsiC,10000000,outputParallelSource3,0.838559
AnsiC,13500000,outputParallelSource3,1.183562
AnsiC,17500000,outputParallelSource3,1.485576
AnsiC,23500000,outputParallelSource3,1.976831
AnsiC,30000000,outputParallelSource3,2.523483
AnsiC,42000000,outputParallelSource3,3.526078
AnsiC,55000000,outputParallelSource3,4.598994
AnsiC,75000000,outputParallelSource3,6.285773
AnsiC,100000,outputParallelSource3,0.008453
AnsiC,135000,outputParallelSource3,0.012568
AnsiC,175000,outputParallelSource3,0.015024
AnsiC,235000,outputParallelSource3,0.021354
AnsiC,300000,outputParallelSource3,0.027101
AnsiC,420000,outputParallelSource3,0.037034
AnsiC,550000,outputParallelSource3,0.049673
AnsiC,750000,outputParallelSource3,0.063914
AnsiC,1000000,outputParallelSource3,0.087605
AnsiC,1350000,outputParallelSource3,0.117467
AnsiC,1750000,outputParallelSource3,0.153614
AnsiC,2350000,outputParallelSource3,0.196289
AnsiC,3000000,outputParallelSource3,0.252996
AnsiC,4200000,outputParallelSource3,0.353474
AnsiC,5500000,outputParallelSource3,0.461861
AnsiC,7500000,outputParallelSource3,0.632753
AnsiC,10000000,outputParallelSource3,0.838559
AnsiC,13500000,outputParallelSource3,1.183562
AnsiC,17500000,outputParallelSource3,1.485576
AnsiC,23500000,outputParallelSource3,1.976831
AnsiC,30000000,outputParallelSource3,2.523483
AnsiC,42000000,outputParallelSource3,3.526078
AnsiC,55000000,outputParallelSource3,4.598994
AnsiC,75000000,outputParallelSource3,6.285773
AnsiC,100000,outputParallelSource3,0.008453
AnsiC,135000,outputParallelSource3,0.012568
AnsiC,175000,outputParallelSource3,0.015024
AnsiC,235000,outputParallelSource3,0.021354
AnsiC,300000,outputParallelSource3,0.027101
AnsiC,420000,outputParallelSource3,0.037034
AnsiC,550000,outputParallelSource3,0.049673
AnsiC,750000,outputParallelSource3,0.063914
AnsiC,1000000,outputParallelSource3,0.087605
AnsiC,1350000,outputParallelSource3,0.117467
AnsiC,1750000,outputParallelSource3,0.153614
AnsiC,2350000,outputParallelSource3,0.196289
AnsiC,3000000,outputParallelSource3,0.252996
AnsiC,4200000,outputParallelSource3,0.353474
AnsiC,5500000,outputParallelSource3,0.461861
AnsiC,7500000,outputParallelSource3,0.632753
AnsiC,10000000,outputParallelSource3,0.838559
AnsiC,13500000,outputParallelSource3,1.183562
AnsiC,17500000,outputParallelSource3,1.485576
AnsiC,23500000,outputParallelSource3,1.976831
AnsiC,30000000,outputParallelSource3,2.523483
AnsiC,42000000,outputParallelSource3,3.526078
AnsiC,55000000,outputParallelSource3,4.598994
AnsiC,75000000,outputParallelSource3,6.285773
AnsiC,100000,outputParallelSource3,0.008453
AnsiC,135000,outputParallelSource3,0.012568
AnsiC,175000,outputParallelSource3,0.015024
AnsiC,235000,outputParallelSource3,0.021354
AnsiC,300000,outputParallelSource3,0.027101
AnsiC,420000,outputParallelSource3,0.037034
AnsiC,550000,outputParallelSource3,0.049673
AnsiC,750000,outputParallelSource3,0.063914
AnsiC,1000000,outputParallelSource3,0.087605
AnsiC,1350000,outputParallelSource3,0.117467
AnsiC,1750000,outputParallelSource3,0.153614
AnsiC,2350000,outputParallelSource3,0.196289
AnsiC,3000000,outputParallelSource3,0.252996
AnsiC,4200000,outputParallelSource3,0.353474
AnsiC,5500000,outputParallelSource3,0.461861
AnsiC,7500000,outputParallelSource3,0.632753
AnsiC,10000000,outputParallelSource3,0.838559
AnsiC,13500000,outputParallelSource3,1.183562
AnsiC,17500000,outputParallelSource3,1.485576
AnsiC,23500000,outputParallelSource3,1.976831
AnsiC,30000000,outputParallelSource3,2.523483
AnsiC,42000000,outputParallelSource3,3.526078
AnsiC,55000000,outputParallelSource3,4.598994
AnsiC,75000000,outputParallelSource3,6.285773
AnsiC,100000,outputParallelSource3,0.008453
AnsiC,135000,outputParallelSource3,0.012568
AnsiC,175000,outputParallelSource3,0.015024
AnsiC,235000,outputParallelSource3,0.021354
AnsiC,300000,outputParallelSource3,0.027101
AnsiC,420000,outputParallelSource3,0.037034
AnsiC,550000,outputParallelSource3,0.049673
AnsiC,750000,outputParallelSource3,0.063914
AnsiC,1000000,outputParallelSource3,0.087605
AnsiC,1350000,outputParallelSource3,0.117467
AnsiC,1750000,outputParallelSource3,0.153614
AnsiC,2350000,outputParallelSource3,0.196289
AnsiC,3000000,outputParallelSource3,0.252996
AnsiC,4200000,outputParallelSource3,0.353474
AnsiC,5500000,outputParallelSource3,0.461861
AnsiC,7500000,outputParallelSource3,0.632753
AnsiC,10000000,outputParallelSource3,0.838559
AnsiC,13500000,outputParallelSource3,1.183562
AnsiC,17500000,outputParallelSource3,1.485576
AnsiC,23500000,outputParallelSource3,1.976831
AnsiC,30000000,outputParallelSource3,2.523483
AnsiC,42000000,outputParallelSource3,3.526078
AnsiC,55000000,outputParallelSource3,4.598994
AnsiC,75000000,outputParallelSource3,6.285773
AnsiC,100000,outputParallelSource3,0.008453
AnsiC,135000,outputParallelSource3,0.012568
AnsiC,175000,outputParallelSource3,0.015024
AnsiC,235000,outputParallelSource3,0.021354
AnsiC,300000,outputParallelSource3,0.027101
AnsiC,420000,outputParallelSource3,0.037034
AnsiC,550000,outputParallelSource3,0.049673
AnsiC,750000,outputParallelSource3,0.063914
AnsiC,1000000,outputParallelSource3,0.087605
AnsiC,1350000,outputParallelSource3,0.117467
AnsiC,1750000,outputParallelSource3,0.153614
AnsiC,2350000,outputParallelSource3,0.196289
AnsiC,3000000,outputParallelSource3,0.252996
AnsiC,4200000,outputParallelSource3,0.353474
AnsiC,5500000,outputParallelSource3,0.461861
AnsiC,7500000,outputParallelSource3,0.632753
AnsiC,10000000,outputParallelSource3,0.838559
AnsiC,13500000,outputParallelSource3,1.183562
AnsiC,17500000,outputParallelSource3,1.485576
AnsiC,23500000,outputParallelSource3,1.976831
AnsiC,30000000,outputParallelSource3,2.523483
AnsiC,42000000,outputParallelSource3,3.526078
AnsiC,55000000,outputParallelSource3,4.598994
AnsiC,75000000,outputParallelSource3,6.285773
AnsiC,100000,outputParallelSource3,0.008453
AnsiC,135000,outputParallelSource3,0.012568
AnsiC,175000,outputParallelSource3,0.015024
AnsiC,235000,outputParallelSource3,0.021354
AnsiC,300000,outputParallelSource3,0.027101
AnsiC,420000,outputParallelSource3,0.037034
AnsiC,550000,outputParallelSource3,0.049673
AnsiC,750000,outputParallelSource3,0.063914
AnsiC,1000000,outputParallelSource3,0.087605
AnsiC,1350000,outputParallelSource3,0.117467
AnsiC,1750000,outputParallelSource3,0.153614
AnsiC,2350000,outputParallelSource3,0.196289
AnsiC,3000000,outputParallelSource3,0.252996
AnsiC,4200000,outputParallelSource3,0.353474
AnsiC,5500000,outputParallelSource3,0.461861
AnsiC,7500000,outputParallelSource3,0.632753
AnsiC,10000000,outputParallelSource3,0.838559
AnsiC,13500000,outputParallelSource3,1.183562
AnsiC,17500000,outputParallelSource3,1.485576
AnsiC,23500000,outputParallelSource3,1.976831
AnsiC,30000000,outputParallelSource3,2.523483
AnsiC,42000000,outputParallelSource3,3.526078
AnsiC,55000000,outputParallelSource3,4.598994
AnsiC,75000000,outputParallelSource3,6.285773
AnsiC,100000,outputParallelSource3,0.008453
AnsiC,135000,outputParallelSource3,0.012568
AnsiC,175000,outputParallelSource3,0.015024
AnsiC,235000,outputParallelSource3,0.021354
AnsiC,300000,outputParallelSource3,0.027101
AnsiC,420000,outputParallelSource3,0.037034
AnsiC,550000,outputParallelSource3,0.049673
AnsiC,750000,outputParallelSource3,0.063914
AnsiC,1000000,outputParallelSource3,0.087605
AnsiC,1350000,outputParallelSource3,0.117467
AnsiC,1750000,outputParallelSource3,0.153614
AnsiC,2350000,outputParallelSource3,0.196289
AnsiC,3000000,outputParallelSource3,0.252996
AnsiC,4200000,outputParallelSource3,0.353474
AnsiC,5500000,outputParallelSource3,0.461861
AnsiC,7500000,outputParallelSource3,0.632753
AnsiC,10000000,outputParallelSource3,0.838559
AnsiC,13500000,outputParallelSource3,1.183562
AnsiC,17500000,outputParallelSource3,1.485576
AnsiC,23500000,outputParallelSource3,1.976831
AnsiC,30000000,outputParallelSource3,2.523483
AnsiC,42000000,outputParallelSource3,3.526078
AnsiC,55000000,outputParallelSource3,4.598994
AnsiC,75000000,outputParallelSource3,6.285773
AnsiC,100000,outputParallelSource3,0.008453
AnsiC,135000,outputParallelSource3,0.012568
AnsiC,175000,outputParallelSource3,0.015024
AnsiC,235000,outputParallelSource3,0.021354
AnsiC,300000,outputParallelSource3,0.027101
AnsiC,420000,outputParallelSource3,0.037034
AnsiC,550000,outputParallelSource3,0.049673
AnsiC,750000,outputParallelSource3,0.063914
AnsiC,1000000,outputParallelSource3,0.087605
AnsiC,1350000,outputParallelSource3,0.117467
AnsiC,1750000,outputParallelSource3,0.153614
AnsiC,2350000,outputParallelSource3,0.196289
AnsiC,3000000,outputParallelSource3,0.252996
AnsiC,4200000,outputParallelSource3,0.353474
AnsiC,5500000,outputParallelSource3,0.461861
AnsiC,7500000,outputParallelSource3,0.632753
AnsiC,10000000,outputParallelSource3,0.838559
AnsiC,13500000,outputParallelSource3,1.183562
AnsiC,17500000,outputParallelSource3,1.485576
AnsiC,23500000,outputParallelSource3,1.976831
AnsiC,30000000,outputParallelSource3,2.523483
AnsiC,42000000,outputParallelSource3,3.526078
AnsiC,55000000,outputParallelSource3,4.598994
AnsiC,75000000,outputParallelSource3,6.285773
AnsiC,100000,outputParallelSource3,0.008453
AnsiC,135000,outputParallelSource3,0.012568
AnsiC,175000,outputParallelSource3,0.015024
AnsiC,235000,outputParallelSource3,0.021354
AnsiC,300000,outputParallelSource3,0.027101
AnsiC,420000,outputParallelSource3,0.037034
AnsiC,550000,outputParallelSource3,0.049673
AnsiC,750000,outputParallelSource3,0.063914
AnsiC,1000000,outputParallelSource3,0.087605
AnsiC,1350000,outputParallelSource3,0.117467
AnsiC,1750000,outputParallelSource3,0.153614
AnsiC,2350000,outputParallelSource3,0.196289
AnsiC,3000000,outputParallelSource3,0.252996
AnsiC,4200000,outputParallelSource3,0.353474
AnsiC,5500000,outputParallelSource3,0.461861
AnsiC,7500000,outputParallelSource3,0.632753
AnsiC,10000000,outputParallelSource3,0.838559
AnsiC,13500000,outputParallelSource3,1.183562
AnsiC,17500000,outputParallelSource3,1.485576
AnsiC,23500000,outputParallelSource3,1.976831
AnsiC,30000000,outputParallelSource3,2.523483
AnsiC,42000000,outputParallelSource3,3.526078
AnsiC,55000000,outputParallelSource3,4.598994
AnsiC,75000000,outputParallelSource3,6.285773
AnsiC,100000,outputParallelSource3,0.008453
AnsiC,135000,outputParallelSource3,0.012568
AnsiC,175000,outputParallelSource3,0.015024
AnsiC,235000,outputParallelSource3,0.021354
AnsiC,300000,outputParallelSource3,0.027101
AnsiC,420000,outputParallelSource3,0.037034
AnsiC,550000,outputParallelSource3,0.049673
AnsiC,750000,outputParallelSource3,0.063914
AnsiC,1000000,outputParallelSource3,0.087605
AnsiC,1350000,outputParallelSource3,0.117467
AnsiC,1750000,outputParallelSource3,0.153614
AnsiC,2350000,outputParallelSource3,0.196289
AnsiC,3000000,outputParallelSource3,0.252996
AnsiC,4200000,outputParallelSource3,0.353474
AnsiC,5500000,outputParallelSource3,0.461861
AnsiC,7500000,outputParallelSource3,0.632753
AnsiC,10000000,outputParallelSource3,0.838559
AnsiC,13500000,outputParallelSource3,1.183562
AnsiC,17500000,outputParallelSource3,1.485576
AnsiC,23500000,outputParallelSource3,1.976831
AnsiC,30000000,outputParallelSource3,2.523483
AnsiC,42000000,outputParallelSource3,3.526078
AnsiC,55000000,outputParallelSource3,4.598994
AnsiC,75000000,outputParallelSource3,6.285773
AnsiC,100000,outputParallelSource3,0.008453
AnsiC,135000,outputParallelSource3,0.012568
AnsiC,175000,outputParallelSource3,0.015024
AnsiC,235000,outputParallelSource3,0.021354
AnsiC,300000,outputParallelSource3,0.027101
AnsiC,420000,outputParallelSource3,0.037034
AnsiC,550000,outputParallelSource3,0.049673
AnsiC,750000,outputParallelSource3,0.063914
AnsiC,1000000,outputParallelSource3,0.087605
AnsiC,1350000,outputParallelSource3,0.117467
AnsiC,1750000,outputParallelSource3,0.153614
AnsiC,2350000,outputParallelSource3,0.196289
AnsiC,3000000,outputParallelSource3,0.252996
AnsiC,4200000,outputParallelSource3,0.353474
AnsiC,5500000,outputParallelSource3,0.461861
AnsiC,7500000,outputParallelSource3,0.632753
AnsiC,10000000,outputParallelSource3,0.838559
AnsiC,13500000,outputParallelSource3,1.183562
AnsiC,17500000,outputParallelSource3,1.485576
AnsiC,23500000,outputParallelSource3,1.976831
AnsiC,30000000,outputParallelSource3,2.523483
AnsiC,42000000,outputParallelSource3,3.526078
AnsiC,55000000,outputParallelSource3,4.598994
AnsiC,75000000,outputParallelSource3,6.285773
AnsiC,100000,outputParallelSource3,0.008453
AnsiC,135000,outputParallelSource3,0.012568
AnsiC,175000,outputParallelSource3,0.015024
AnsiC,235000,outputParallelSource3,0.021354
AnsiC,300000,outputParallelSource3,0.027101
AnsiC,420000,outputParallelSource3,0.037034
AnsiC,550000,outputParallelSource3,0.049673
AnsiC,750000,outputParallelSource3,0.063914
AnsiC,1000000,outputParallelSource3,0.087605
AnsiC,1350000,outputParallelSource3,0.117467
AnsiC,1750000,outputParallelSource3,0.153614
AnsiC,2350000,outputParallelSource3,0.196289
AnsiC,3000000,outputParallelSource3,0.252996
AnsiC,4200000,outputParallelSource3,0.353474
AnsiC,5500000,outputParallelSource3,0.461861
AnsiC,7500000,outputParallelSource3,0.632753
AnsiC,10000000,outputParallelSource3,0.838559
AnsiC,13500000,outputParallelSource3,1.183562
AnsiC,17500000,outputParallelSource3,1.485576
AnsiC,23500000,outputParallelSource3,1.976831
AnsiC,30000000,outputParallelSource3,2.523483
AnsiC,42000000,outputParallelSource3,3.526078
AnsiC,55000000,outputParallelSource3,4.598994
AnsiC,75000000,outputParallelSource3,6.285773
