Platform,Iterations,ModelName,Time
AnsiC,100000,outputParallelSource1,0.004160
AnsiC,135000,outputParallelSource1,0.005090
AnsiC,175000,outputParallelSource1,0.007239
AnsiC,235000,outputParallelSource1,0.009465
AnsiC,300000,outputParallelSource1,0.010845
AnsiC,420000,outputParallelSource1,0.016963
AnsiC,550000,outputParallelSource1,0.020509
AnsiC,750000,outputParallelSource1,0.027187
AnsiC,1000000,outputParallelSource1,0.037541
AnsiC,1350000,outputParallelSource1,0.049263
AnsiC,1750000,outputParallelSource1,0.063878
AnsiC,2350000,outputParallelSource1,0.084288
AnsiC,3000000,outputParallelSource1,0.110278
AnsiC,4200000,outputParallelSource1,0.148433
AnsiC,5500000,outputParallelSource1,0.194334
AnsiC,7500000,outputParallelSource1,0.274637
AnsiC,10000000,outputParallelSource1,0.357649
AnsiC,13500000,outputParallelSource1,0.476571
AnsiC,17500000,outputParallelSource1,0.607245
AnsiC,23500000,outputParallelSource1,0.815873
AnsiC,30000000,outputParallelSource1,1.060851
AnsiC,42000000,outputParallelSource1,1.474264
AnsiC,55000000,outputParallelSource1,1.927484
AnsiC,75000000,outputParallelSource1,2.608125
AnsiC,100000,outputParallelSource1,0.004160
AnsiC,135000,outputParallelSource1,0.005090
AnsiC,175000,outputParallelSource1,0.007239
AnsiC,235000,outputParallelSource1,0.009465
AnsiC,300000,outputParallelSource1,0.010845
AnsiC,420000,outputParallelSource1,0.016963
AnsiC,550000,outputParallelSource1,0.020509
AnsiC,750000,outputParallelSource1,0.027187
AnsiC,1000000,outputParallelSource1,0.037541
AnsiC,1350000,outputParallelSource1,0.049263
AnsiC,1750000,outputParallelSource1,0.063878
AnsiC,2350000,outputParallelSource1,0.084288
AnsiC,3000000,outputParallelSource1,0.110278
AnsiC,4200000,outputParallelSource1,0.148433
AnsiC,5500000,outputParallelSource1,0.194334
AnsiC,7500000,outputParallelSource1,0.274637
AnsiC,10000000,outputParallelSource1,0.357649
AnsiC,13500000,outputParallelSource1,0.476571
AnsiC,17500000,outputParallelSource1,0.607245
AnsiC,23500000,outputParallelSource1,0.815873
AnsiC,30000000,outputParallelSource1,1.060851
AnsiC,42000000,outputParallelSource1,1.474264
AnsiC,55000000,outputParallelSource1,1.927484
AnsiC,75000000,outputParallelSource1,2.608125
AnsiC,100000,outputParallelSource1,0.004160
AnsiC,135000,outputParallelSource1,0.005090
AnsiC,175000,outputParallelSource1,0.007239
AnsiC,235000,outputParallelSource1,0.009465
AnsiC,300000,outputParallelSource1,0.010845
AnsiC,420000,outputParallelSource1,0.016963
AnsiC,550000,outputParallelSource1,0.020509
AnsiC,750000,outputParallelSource1,0.027187
AnsiC,1000000,outputParallelSource1,0.037541
AnsiC,1350000,outputParallelSource1,0.049263
AnsiC,1750000,outputParallelSource1,0.063878
AnsiC,2350000,outputParallelSource1,0.084288
AnsiC,3000000,outputParallelSource1,0.110278
AnsiC,4200000,outputParallelSource1,0.148433
AnsiC,5500000,outputParallelSource1,0.194334
AnsiC,7500000,outputParallelSource1,0.274637
AnsiC,10000000,outputParallelSource1,0.357649
AnsiC,13500000,outputParallelSource1,0.476571
AnsiC,17500000,outputParallelSource1,0.607245
AnsiC,23500000,outputParallelSource1,0.815873
AnsiC,30000000,outputParallelSource1,1.060851
AnsiC,42000000,outputParallelSource1,1.474264
AnsiC,55000000,outputParallelSource1,1.927484
AnsiC,75000000,outputParallelSource1,2.608125
AnsiC,100000,outputParallelSource1,0.004160
AnsiC,135000,outputParallelSource1,0.005090
AnsiC,175000,outputParallelSource1,0.007239
AnsiC,235000,outputParallelSource1,0.009465
AnsiC,300000,outputParallelSource1,0.010845
AnsiC,420000,outputParallelSource1,0.016963
AnsiC,550000,outputParallelSource1,0.020509
AnsiC,750000,outputParallelSource1,0.027187
AnsiC,1000000,outputParallelSource1,0.037541
AnsiC,1350000,outputParallelSource1,0.049263
AnsiC,1750000,outputParallelSource1,0.063878
AnsiC,2350000,outputParallelSource1,0.084288
AnsiC,3000000,outputParallelSource1,0.110278
AnsiC,4200000,outputParallelSource1,0.148433
AnsiC,5500000,outputParallelSource1,0.194334
AnsiC,7500000,outputParallelSource1,0.274637
AnsiC,10000000,outputParallelSource1,0.357649
AnsiC,13500000,outputParallelSource1,0.476571
AnsiC,17500000,outputParallelSource1,0.607245
AnsiC,23500000,outputParallelSource1,0.815873
AnsiC,30000000,outputParallelSource1,1.060851
AnsiC,42000000,outputParallelSource1,1.474264
AnsiC,55000000,outputParallelSource1,1.927484
AnsiC,75000000,outputParallelSource1,2.608125
AnsiC,100000,outputParallelSource1,0.004160
AnsiC,135000,outputParallelSource1,0.005090
AnsiC,175000,outputParallelSource1,0.007239
AnsiC,235000,outputParallelSource1,0.009465
AnsiC,300000,outputParallelSource1,0.010845
AnsiC,420000,outputParallelSource1,0.016963
AnsiC,550000,outputParallelSource1,0.020509
AnsiC,750000,outputParallelSource1,0.027187
AnsiC,1000000,outputParallelSource1,0.037541
AnsiC,1350000,outputParallelSource1,0.049263
AnsiC,1750000,outputParallelSource1,0.063878
AnsiC,2350000,outputParallelSource1,0.084288
AnsiC,3000000,outputParallelSource1,0.110278
AnsiC,4200000,outputParallelSource1,0.148433
AnsiC,5500000,outputParallelSource1,0.194334
AnsiC,7500000,outputParallelSource1,0.274637
AnsiC,10000000,outputParallelSource1,0.357649
AnsiC,13500000,outputParallelSource1,0.476571
AnsiC,17500000,outputParallelSource1,0.607245
AnsiC,23500000,outputParallelSource1,0.815873
AnsiC,30000000,outputParallelSource1,1.060851
AnsiC,42000000,outputParallelSource1,1.474264
AnsiC,55000000,outputParallelSource1,1.927484
AnsiC,75000000,outputParallelSource1,2.608125
AnsiC,100000,outputParallelSource1,0.004160
AnsiC,135000,outputParallelSource1,0.005090
AnsiC,175000,outputParallelSource1,0.007239
AnsiC,235000,outputParallelSource1,0.009465
AnsiC,300000,outputParallelSource1,0.010845
AnsiC,420000,outputParallelSource1,0.016963
AnsiC,550000,outputParallelSource1,0.020509
AnsiC,750000,outputParallelSource1,0.027187
AnsiC,1000000,outputParallelSource1,0.037541
AnsiC,1350000,outputParallelSource1,0.049263
AnsiC,1750000,outputParallelSource1,0.063878
AnsiC,2350000,outputParallelSource1,0.084288
AnsiC,3000000,outputParallelSource1,0.110278
AnsiC,4200000,outputParallelSource1,0.148433
AnsiC,5500000,outputParallelSource1,0.194334
AnsiC,7500000,outputParallelSource1,0.274637
AnsiC,10000000,outputParallelSource1,0.357649
AnsiC,13500000,outputParallelSource1,0.476571
AnsiC,17500000,outputParallelSource1,0.607245
AnsiC,23500000,outputParallelSource1,0.815873
AnsiC,30000000,outputParallelSource1,1.060851
AnsiC,42000000,outputParallelSource1,1.474264
AnsiC,55000000,outputParallelSource1,1.927484
AnsiC,75000000,outputParallelSource1,2.608125
AnsiC,100000,outputParallelSource1,0.004160
AnsiC,135000,outputParallelSource1,0.005090
AnsiC,175000,outputParallelSource1,0.007239
AnsiC,235000,outputParallelSource1,0.009465
AnsiC,300000,outputParallelSource1,0.010845
AnsiC,420000,outputParallelSource1,0.016963
AnsiC,550000,outputParallelSource1,0.020509
AnsiC,750000,outputParallelSource1,0.027187
AnsiC,1000000,outputParallelSource1,0.037541
AnsiC,1350000,outputParallelSource1,0.049263
AnsiC,1750000,outputParallelSource1,0.063878
AnsiC,2350000,outputParallelSource1,0.084288
AnsiC,3000000,outputParallelSource1,0.110278
AnsiC,4200000,outputParallelSource1,0.148433
AnsiC,5500000,outputParallelSource1,0.194334
AnsiC,7500000,outputParallelSource1,0.274637
AnsiC,10000000,outputParallelSource1,0.357649
AnsiC,13500000,outputParallelSource1,0.476571
AnsiC,17500000,outputParallelSource1,0.607245
AnsiC,23500000,outputParallelSource1,0.815873
AnsiC,30000000,outputParallelSource1,1.060851
AnsiC,42000000,outputParallelSource1,1.474264
AnsiC,55000000,outputParallelSource1,1.927484
AnsiC,75000000,outputParallelSource1,2.608125
AnsiC,100000,outputParallelSource1,0.004160
AnsiC,135000,outputParallelSource1,0.005090
AnsiC,175000,outputParallelSource1,0.007239
AnsiC,235000,outputParallelSource1,0.009465
AnsiC,300000,outputParallelSource1,0.010845
AnsiC,420000,outputParallelSource1,0.016963
AnsiC,550000,outputParallelSource1,0.020509
AnsiC,750000,outputParallelSource1,0.027187
AnsiC,1000000,outputParallelSource1,0.037541
AnsiC,1350000,outputParallelSource1,0.049263
AnsiC,1750000,outputParallelSource1,0.063878
AnsiC,2350000,outputParallelSource1,0.084288
AnsiC,3000000,outputParallelSource1,0.110278
AnsiC,4200000,outputParallelSource1,0.148433
AnsiC,5500000,outputParallelSource1,0.194334
AnsiC,7500000,outputParallelSource1,0.274637
AnsiC,10000000,outputParallelSource1,0.357649
AnsiC,13500000,outputParallelSource1,0.476571
AnsiC,17500000,outputParallelSource1,0.607245
AnsiC,23500000,outputParallelSource1,0.815873
AnsiC,30000000,outputParallelSource1,1.060851
AnsiC,42000000,outputParallelSource1,1.474264
AnsiC,55000000,outputParallelSource1,1.927484
AnsiC,75000000,outputParallelSource1,2.608125
AnsiC,100000,outputParallelSource1,0.004160
AnsiC,135000,outputParallelSource1,0.005090
AnsiC,175000,outputParallelSource1,0.007239
AnsiC,235000,outputParallelSource1,0.009465
AnsiC,300000,outputParallelSource1,0.010845
AnsiC,420000,outputParallelSource1,0.016963
AnsiC,550000,outputParallelSource1,0.020509
AnsiC,750000,outputParallelSource1,0.027187
AnsiC,1000000,outputParallelSource1,0.037541
AnsiC,1350000,outputParallelSource1,0.049263
AnsiC,1750000,outputParallelSource1,0.063878
AnsiC,2350000,outputParallelSource1,0.084288
AnsiC,3000000,outputParallelSource1,0.110278
AnsiC,4200000,outputParallelSource1,0.148433
AnsiC,5500000,outputParallelSource1,0.194334
AnsiC,7500000,outputParallelSource1,0.274637
AnsiC,10000000,outputParallelSource1,0.357649
AnsiC,13500000,outputParallelSource1,0.476571
AnsiC,17500000,outputParallelSource1,0.607245
AnsiC,23500000,outputParallelSource1,0.815873
AnsiC,30000000,outputParallelSource1,1.060851
AnsiC,42000000,outputParallelSource1,1.474264
AnsiC,55000000,outputParallelSource1,1.927484
AnsiC,75000000,outputParallelSource1,2.608125
AnsiC,100000,outputParallelSource1,0.004160
AnsiC,135000,outputParallelSource1,0.005090
AnsiC,175000,outputParallelSource1,0.007239
AnsiC,235000,outputParallelSource1,0.009465
AnsiC,300000,outputParallelSource1,0.010845
AnsiC,420000,outputParallelSource1,0.016963
AnsiC,550000,outputParallelSource1,0.020509
AnsiC,750000,outputParallelSource1,0.027187
AnsiC,1000000,outputParallelSource1,0.037541
AnsiC,1350000,outputParallelSource1,0.049263
AnsiC,1750000,outputParallelSource1,0.063878
AnsiC,2350000,outputParallelSource1,0.084288
AnsiC,3000000,outputParallelSource1,0.110278
AnsiC,4200000,outputParallelSource1,0.148433
AnsiC,5500000,outputParallelSource1,0.194334
AnsiC,7500000,outputParallelSource1,0.274637
AnsiC,10000000,outputParallelSource1,0.357649
AnsiC,13500000,outputParallelSource1,0.476571
AnsiC,17500000,outputParallelSource1,0.607245
AnsiC,23500000,outputParallelSource1,0.815873
AnsiC,30000000,outputParallelSource1,1.060851
AnsiC,42000000,outputParallelSource1,1.474264
AnsiC,55000000,outputParallelSource1,1.927484
AnsiC,75000000,outputParallelSource1,2.608125
AnsiC,100000,outputParallelSource1,0.004160
AnsiC,135000,outputParallelSource1,0.005090
AnsiC,175000,outputParallelSource1,0.007239
AnsiC,235000,outputParallelSource1,0.009465
AnsiC,300000,outputParallelSource1,0.010845
AnsiC,420000,outputParallelSource1,0.016963
AnsiC,550000,outputParallelSource1,0.020509
AnsiC,750000,outputParallelSource1,0.027187
AnsiC,1000000,outputParallelSource1,0.037541
AnsiC,1350000,outputParallelSource1,0.049263
AnsiC,1750000,outputParallelSource1,0.063878
AnsiC,2350000,outputParallelSource1,0.084288
AnsiC,3000000,outputParallelSource1,0.110278
AnsiC,4200000,outputParallelSource1,0.148433
AnsiC,5500000,outputParallelSource1,0.194334
AnsiC,7500000,outputParallelSource1,0.274637
AnsiC,10000000,outputParallelSource1,0.357649
AnsiC,13500000,outputParallelSource1,0.476571
AnsiC,17500000,outputParallelSource1,0.607245
AnsiC,23500000,outputParallelSource1,0.815873
AnsiC,30000000,outputParallelSource1,1.060851
AnsiC,42000000,outputParallelSource1,1.474264
AnsiC,55000000,outputParallelSource1,1.927484
AnsiC,75000000,outputParallelSource1,2.608125
AnsiC,100000,outputParallelSource1,0.004160
AnsiC,135000,outputParallelSource1,0.005090
AnsiC,175000,outputParallelSource1,0.007239
AnsiC,235000,outputParallelSource1,0.009465
AnsiC,300000,outputParallelSource1,0.010845
AnsiC,420000,outputParallelSource1,0.016963
AnsiC,550000,outputParallelSource1,0.020509
AnsiC,750000,outputParallelSource1,0.027187
AnsiC,1000000,outputParallelSource1,0.037541
AnsiC,1350000,outputParallelSource1,0.049263
AnsiC,1750000,outputParallelSource1,0.063878
AnsiC,2350000,outputParallelSource1,0.084288
AnsiC,3000000,outputParallelSource1,0.110278
AnsiC,4200000,outputParallelSource1,0.148433
AnsiC,5500000,outputParallelSource1,0.194334
AnsiC,7500000,outputParallelSource1,0.274637
AnsiC,10000000,outputParallelSource1,0.357649
AnsiC,13500000,outputParallelSource1,0.476571
AnsiC,17500000,outputParallelSource1,0.607245
AnsiC,23500000,outputParallelSource1,0.815873
AnsiC,30000000,outputParallelSource1,1.060851
AnsiC,42000000,outputParallelSource1,1.474264
AnsiC,55000000,outputParallelSource1,1.927484
AnsiC,75000000,outputParallelSource1,2.608125
AnsiC,100000,outputParallelSource1,0.004160
AnsiC,135000,outputParallelSource1,0.005090
AnsiC,175000,outputParallelSource1,0.007239
AnsiC,235000,outputParallelSource1,0.009465
AnsiC,300000,outputParallelSource1,0.010845
AnsiC,420000,outputParallelSource1,0.016963
AnsiC,550000,outputParallelSource1,0.020509
AnsiC,750000,outputParallelSource1,0.027187
AnsiC,1000000,outputParallelSource1,0.037541
AnsiC,1350000,outputParallelSource1,0.049263
AnsiC,1750000,outputParallelSource1,0.063878
AnsiC,2350000,outputParallelSource1,0.084288
AnsiC,3000000,outputParallelSource1,0.110278
AnsiC,4200000,outputParallelSource1,0.148433
AnsiC,5500000,outputParallelSource1,0.194334
AnsiC,7500000,outputParallelSource1,0.274637
AnsiC,10000000,outputParallelSource1,0.357649
AnsiC,13500000,outputParallelSource1,0.476571
AnsiC,17500000,outputParallelSource1,0.607245
AnsiC,23500000,outputParallelSource1,0.815873
AnsiC,30000000,outputParallelSource1,1.060851
AnsiC,42000000,outputParallelSource1,1.474264
AnsiC,55000000,outputParallelSource1,1.927484
AnsiC,75000000,outputParallelSource1,2.608125
AnsiC,100000,outputParallelSource1,0.004160
AnsiC,135000,outputParallelSource1,0.005090
AnsiC,175000,outputParallelSource1,0.007239
AnsiC,235000,outputParallelSource1,0.009465
AnsiC,300000,outputParallelSource1,0.010845
AnsiC,420000,outputParallelSource1,0.016963
AnsiC,550000,outputParallelSource1,0.020509
AnsiC,750000,outputParallelSource1,0.027187
AnsiC,1000000,outputParallelSource1,0.037541
AnsiC,1350000,outputParallelSource1,0.049263
AnsiC,1750000,outputParallelSource1,0.063878
AnsiC,2350000,outputParallelSource1,0.084288
AnsiC,3000000,outputParallelSource1,0.110278
AnsiC,4200000,outputParallelSource1,0.148433
AnsiC,5500000,outputParallelSource1,0.194334
AnsiC,7500000,outputParallelSource1,0.274637
AnsiC,10000000,outputParallelSource1,0.357649
AnsiC,13500000,outputParallelSource1,0.476571
AnsiC,17500000,outputParallelSource1,0.607245
AnsiC,23500000,outputParallelSource1,0.815873
AnsiC,30000000,outputParallelSource1,1.060851
AnsiC,42000000,outputParallelSource1,1.474264
AnsiC,55000000,outputParallelSource1,1.927484
AnsiC,75000000,outputParallelSource1,2.608125
AnsiC,100000,outputParallelSource1,0.004160
AnsiC,135000,outputParallelSource1,0.005090
AnsiC,175000,outputParallelSource1,0.007239
AnsiC,235000,outputParallelSource1,0.009465
AnsiC,300000,outputParallelSource1,0.010845
AnsiC,420000,outputParallelSource1,0.016963
AnsiC,550000,outputParallelSource1,0.020509
AnsiC,750000,outputParallelSource1,0.027187
AnsiC,1000000,outputParallelSource1,0.037541
AnsiC,1350000,outputParallelSource1,0.049263
AnsiC,1750000,outputParallelSource1,0.063878
AnsiC,2350000,outputParallelSource1,0.084288
AnsiC,3000000,outputParallelSource1,0.110278
AnsiC,4200000,outputParallelSource1,0.148433
AnsiC,5500000,outputParallelSource1,0.194334
AnsiC,7500000,outputParallelSource1,0.274637
AnsiC,10000000,outputParallelSource1,0.357649
AnsiC,13500000,outputParallelSource1,0.476571
AnsiC,17500000,outputParallelSource1,0.607245
AnsiC,23500000,outputParallelSource1,0.815873
AnsiC,30000000,outputParallelSource1,1.060851
AnsiC,42000000,outputParallelSource1,1.474264
AnsiC,55000000,outputParallelSource1,1.927484
AnsiC,75000000,outputParallelSource1,2.608125
AnsiC,100000,outputParallelSource1,0.004160
AnsiC,135000,outputParallelSource1,0.005090
AnsiC,175000,outputParallelSource1,0.007239
AnsiC,235000,outputParallelSource1,0.009465
AnsiC,300000,outputParallelSource1,0.010845
AnsiC,420000,outputParallelSource1,0.016963
AnsiC,550000,outputParallelSource1,0.020509
AnsiC,750000,outputParallelSource1,0.027187
AnsiC,1000000,outputParallelSource1,0.037541
AnsiC,1350000,outputParallelSource1,0.049263
AnsiC,1750000,outputParallelSource1,0.063878
AnsiC,2350000,outputParallelSource1,0.084288
AnsiC,3000000,outputParallelSource1,0.110278
AnsiC,4200000,outputParallelSource1,0.148433
AnsiC,5500000,outputParallelSource1,0.194334
AnsiC,7500000,outputParallelSource1,0.274637
AnsiC,10000000,outputParallelSource1,0.357649
AnsiC,13500000,outputParallelSource1,0.476571
AnsiC,17500000,outputParallelSource1,0.607245
AnsiC,23500000,outputParallelSource1,0.815873
AnsiC,30000000,outputParallelSource1,1.060851
AnsiC,42000000,outputParallelSource1,1.474264
AnsiC,55000000,outputParallelSource1,1.927484
AnsiC,75000000,outputParallelSource1,2.608125
AnsiC,100000,outputParallelSource1,0.004160
AnsiC,135000,outputParallelSource1,0.005090
AnsiC,175000,outputParallelSource1,0.007239
AnsiC,235000,outputParallelSource1,0.009465
AnsiC,300000,outputParallelSource1,0.010845
AnsiC,420000,outputParallelSource1,0.016963
AnsiC,550000,outputParallelSource1,0.020509
AnsiC,750000,outputParallelSource1,0.027187
AnsiC,1000000,outputParallelSource1,0.037541
AnsiC,1350000,outputParallelSource1,0.049263
AnsiC,1750000,outputParallelSource1,0.063878
AnsiC,2350000,outputParallelSource1,0.084288
AnsiC,3000000,outputParallelSource1,0.110278
AnsiC,4200000,outputParallelSource1,0.148433
AnsiC,5500000,outputParallelSource1,0.194334
AnsiC,7500000,outputParallelSource1,0.274637
AnsiC,10000000,outputParallelSource1,0.357649
AnsiC,13500000,outputParallelSource1,0.476571
AnsiC,17500000,outputParallelSource1,0.607245
AnsiC,23500000,outputParallelSource1,0.815873
AnsiC,30000000,outputParallelSource1,1.060851
AnsiC,42000000,outputParallelSource1,1.474264
AnsiC,55000000,outputParallelSource1,1.927484
AnsiC,75000000,outputParallelSource1,2.608125
AnsiC,100000,outputParallelSource1,0.004160
AnsiC,135000,outputParallelSource1,0.005090
AnsiC,175000,outputParallelSource1,0.007239
AnsiC,235000,outputParallelSource1,0.009465
AnsiC,300000,outputParallelSource1,0.010845
AnsiC,420000,outputParallelSource1,0.016963
AnsiC,550000,outputParallelSource1,0.020509
AnsiC,750000,outputParallelSource1,0.027187
AnsiC,1000000,outputParallelSource1,0.037541
AnsiC,1350000,outputParallelSource1,0.049263
AnsiC,1750000,outputParallelSource1,0.063878
AnsiC,2350000,outputParallelSource1,0.084288
AnsiC,3000000,outputParallelSource1,0.110278
AnsiC,4200000,outputParallelSource1,0.148433
AnsiC,5500000,outputParallelSource1,0.194334
AnsiC,7500000,outputParallelSource1,0.274637
AnsiC,10000000,outputParallelSource1,0.357649
AnsiC,13500000,outputParallelSource1,0.476571
AnsiC,17500000,outputParallelSource1,0.607245
AnsiC,23500000,outputParallelSource1,0.815873
AnsiC,30000000,outputParallelSource1,1.060851
AnsiC,42000000,outputParallelSource1,1.474264
AnsiC,55000000,outputParallelSource1,1.927484
AnsiC,75000000,outputParallelSource1,2.608125
AnsiC,100000,outputParallelSource1,0.004160
AnsiC,135000,outputParallelSource1,0.005090
AnsiC,175000,outputParallelSource1,0.007239
AnsiC,235000,outputParallelSource1,0.009465
AnsiC,300000,outputParallelSource1,0.010845
AnsiC,420000,outputParallelSource1,0.016963
AnsiC,550000,outputParallelSource1,0.020509
AnsiC,750000,outputParallelSource1,0.027187
AnsiC,1000000,outputParallelSource1,0.037541
AnsiC,1350000,outputParallelSource1,0.049263
AnsiC,1750000,outputParallelSource1,0.063878
AnsiC,2350000,outputParallelSource1,0.084288
AnsiC,3000000,outputParallelSource1,0.110278
AnsiC,4200000,outputParallelSource1,0.148433
AnsiC,5500000,outputParallelSource1,0.194334
AnsiC,7500000,outputParallelSource1,0.274637
AnsiC,10000000,outputParallelSource1,0.357649
AnsiC,13500000,outputParallelSource1,0.476571
AnsiC,17500000,outputParallelSource1,0.607245
AnsiC,23500000,outputParallelSource1,0.815873
AnsiC,30000000,outputParallelSource1,1.060851
AnsiC,42000000,outputParallelSource1,1.474264
AnsiC,55000000,outputParallelSource1,1.927484
AnsiC,75000000,outputParallelSource1,2.608125
AnsiC,100000,outputParallelSource1,0.004160
AnsiC,135000,outputParallelSource1,0.005090
AnsiC,175000,outputParallelSource1,0.007239
AnsiC,235000,outputParallelSource1,0.009465
AnsiC,300000,outputParallelSource1,0.010845
AnsiC,420000,outputParallelSource1,0.016963
AnsiC,550000,outputParallelSource1,0.020509
AnsiC,750000,outputParallelSource1,0.027187
AnsiC,1000000,outputParallelSource1,0.037541
AnsiC,1350000,outputParallelSource1,0.049263
AnsiC,1750000,outputParallelSource1,0.063878
AnsiC,2350000,outputParallelSource1,0.084288
AnsiC,3000000,outputParallelSource1,0.110278
AnsiC,4200000,outputParallelSource1,0.148433
AnsiC,5500000,outputParallelSource1,0.194334
AnsiC,7500000,outputParallelSource1,0.274637
AnsiC,10000000,outputParallelSource1,0.357649
AnsiC,13500000,outputParallelSource1,0.476571
AnsiC,17500000,outputParallelSource1,0.607245
AnsiC,23500000,outputParallelSource1,0.815873
AnsiC,30000000,outputParallelSource1,1.060851
AnsiC,42000000,outputParallelSource1,1.474264
AnsiC,55000000,outputParallelSource1,1.927484
AnsiC,75000000,outputParallelSource1,2.608125
AnsiC,100000,outputParallelSource1,0.004160
AnsiC,135000,outputParallelSource1,0.005090
AnsiC,175000,outputParallelSource1,0.007239
AnsiC,235000,outputParallelSource1,0.009465
AnsiC,300000,outputParallelSource1,0.010845
AnsiC,420000,outputParallelSource1,0.016963
AnsiC,550000,outputParallelSource1,0.020509
AnsiC,750000,outputParallelSource1,0.027187
AnsiC,1000000,outputParallelSource1,0.037541
AnsiC,1350000,outputParallelSource1,0.049263
AnsiC,1750000,outputParallelSource1,0.063878
AnsiC,2350000,outputParallelSource1,0.084288
AnsiC,3000000,outputParallelSource1,0.110278
AnsiC,4200000,outputParallelSource1,0.148433
AnsiC,5500000,outputParallelSource1,0.194334
AnsiC,7500000,outputParallelSource1,0.274637
AnsiC,10000000,outputParallelSource1,0.357649
AnsiC,13500000,outputParallelSource1,0.476571
AnsiC,17500000,outputParallelSource1,0.607245
AnsiC,23500000,outputParallelSource1,0.815873
AnsiC,30000000,outputParallelSource1,1.060851
AnsiC,42000000,outputParallelSource1,1.474264
AnsiC,55000000,outputParallelSource1,1.927484
AnsiC,75000000,outputParallelSource1,2.608125
AnsiC,100000,outputParallelSource1,0.004160
AnsiC,135000,outputParallelSource1,0.005090
AnsiC,175000,outputParallelSource1,0.007239
AnsiC,235000,outputParallelSource1,0.009465
AnsiC,300000,outputParallelSource1,0.010845
AnsiC,420000,outputParallelSource1,0.016963
AnsiC,550000,outputParallelSource1,0.020509
AnsiC,750000,outputParallelSource1,0.027187
AnsiC,1000000,outputParallelSource1,0.037541
AnsiC,1350000,outputParallelSource1,0.049263
AnsiC,1750000,outputParallelSource1,0.063878
AnsiC,2350000,outputParallelSource1,0.084288
AnsiC,3000000,outputParallelSource1,0.110278
AnsiC,4200000,outputParallelSource1,0.148433
AnsiC,5500000,outputParallelSource1,0.194334
AnsiC,7500000,outputParallelSource1,0.274637
AnsiC,10000000,outputParallelSource1,0.357649
AnsiC,13500000,outputParallelSource1,0.476571
AnsiC,17500000,outputParallelSource1,0.607245
AnsiC,23500000,outputParallelSource1,0.815873
AnsiC,30000000,outputParallelSource1,1.060851
AnsiC,42000000,outputParallelSource1,1.474264
AnsiC,55000000,outputParallelSource1,1.927484
AnsiC,75000000,outputParallelSource1,2.608125
AnsiC,100000,outputParallelSource1,0.004160
AnsiC,135000,outputParallelSource1,0.005090
AnsiC,175000,outputParallelSource1,0.007239
AnsiC,235000,outputParallelSource1,0.009465
AnsiC,300000,outputParallelSource1,0.010845
AnsiC,420000,outputParallelSource1,0.016963
AnsiC,550000,outputParallelSource1,0.020509
AnsiC,750000,outputParallelSource1,0.027187
AnsiC,1000000,outputParallelSource1,0.037541
AnsiC,1350000,outputParallelSource1,0.049263
AnsiC,1750000,outputParallelSource1,0.063878
AnsiC,2350000,outputParallelSource1,0.084288
AnsiC,3000000,outputParallelSource1,0.110278
AnsiC,4200000,outputParallelSource1,0.148433
AnsiC,5500000,outputParallelSource1,0.194334
AnsiC,7500000,outputParallelSource1,0.274637
AnsiC,10000000,outputParallelSource1,0.357649
AnsiC,13500000,outputParallelSource1,0.476571
AnsiC,17500000,outputParallelSource1,0.607245
AnsiC,23500000,outputParallelSource1,0.815873
AnsiC,30000000,outputParallelSource1,1.060851
AnsiC,42000000,outputParallelSource1,1.474264
AnsiC,55000000,outputParallelSource1,1.927484
AnsiC,75000000,outputParallelSource1,2.608125
AnsiC,100000,outputParallelSource1,0.004160
AnsiC,135000,outputParallelSource1,0.005090
AnsiC,175000,outputParallelSource1,0.007239
AnsiC,235000,outputParallelSource1,0.009465
AnsiC,300000,outputParallelSource1,0.010845
AnsiC,420000,outputParallelSource1,0.016963
AnsiC,550000,outputParallelSource1,0.020509
AnsiC,750000,outputParallelSource1,0.027187
AnsiC,1000000,outputParallelSource1,0.037541
AnsiC,1350000,outputParallelSource1,0.049263
AnsiC,1750000,outputParallelSource1,0.063878
AnsiC,2350000,outputParallelSource1,0.084288
AnsiC,3000000,outputParallelSource1,0.110278
AnsiC,4200000,outputParallelSource1,0.148433
AnsiC,5500000,outputParallelSource1,0.194334
AnsiC,7500000,outputParallelSource1,0.274637
AnsiC,10000000,outputParallelSource1,0.357649
AnsiC,13500000,outputParallelSource1,0.476571
AnsiC,17500000,outputParallelSource1,0.607245
AnsiC,23500000,outputParallelSource1,0.815873
AnsiC,30000000,outputParallelSource1,1.060851
AnsiC,42000000,outputParallelSource1,1.474264
AnsiC,55000000,outputParallelSource1,1.927484
AnsiC,75000000,outputParallelSource1,2.608125
AnsiC,100000,outputParallelSource1,0.004160
AnsiC,135000,outputParallelSource1,0.005090
AnsiC,175000,outputParallelSource1,0.007239
AnsiC,235000,outputParallelSource1,0.009465
AnsiC,300000,outputParallelSource1,0.010845
AnsiC,420000,outputParallelSource1,0.016963
AnsiC,550000,outputParallelSource1,0.020509
AnsiC,750000,outputParallelSource1,0.027187
AnsiC,1000000,outputParallelSource1,0.037541
AnsiC,1350000,outputParallelSource1,0.049263
AnsiC,1750000,outputParallelSource1,0.063878
AnsiC,2350000,outputParallelSource1,0.084288
AnsiC,3000000,outputParallelSource1,0.110278
AnsiC,4200000,outputParallelSource1,0.148433
AnsiC,5500000,outputParallelSource1,0.194334
AnsiC,7500000,outputParallelSource1,0.274637
AnsiC,10000000,outputParallelSource1,0.357649
AnsiC,13500000,outputParallelSource1,0.476571
AnsiC,17500000,outputParallelSource1,0.607245
AnsiC,23500000,outputParallelSource1,0.815873
AnsiC,30000000,outputParallelSource1,1.060851
AnsiC,42000000,outputParallelSource1,1.474264
AnsiC,55000000,outputParallelSource1,1.927484
AnsiC,75000000,outputParallelSource1,2.608125
AnsiC,100000,outputParallelSource1,0.004160
AnsiC,135000,outputParallelSource1,0.005090
AnsiC,175000,outputParallelSource1,0.007239
AnsiC,235000,outputParallelSource1,0.009465
AnsiC,300000,outputParallelSource1,0.010845
AnsiC,420000,outputParallelSource1,0.016963
AnsiC,550000,outputParallelSource1,0.020509
AnsiC,750000,outputParallelSource1,0.027187
AnsiC,1000000,outputParallelSource1,0.037541
AnsiC,1350000,outputParallelSource1,0.049263
AnsiC,1750000,outputParallelSource1,0.063878
AnsiC,2350000,outputParallelSource1,0.084288
AnsiC,3000000,outputParallelSource1,0.110278
AnsiC,4200000,outputParallelSource1,0.148433
AnsiC,5500000,outputParallelSource1,0.194334
AnsiC,7500000,outputParallelSource1,0.274637
AnsiC,10000000,outputParallelSource1,0.357649
AnsiC,13500000,outputParallelSource1,0.476571
AnsiC,17500000,outputParallelSource1,0.607245
AnsiC,23500000,outputParallelSource1,0.815873
AnsiC,30000000,outputParallelSource1,1.060851
AnsiC,42000000,outputParallelSource1,1.474264
AnsiC,55000000,outputParallelSource1,1.927484
AnsiC,75000000,outputParallelSource1,2.608125
AnsiC,100000,outputParallelSource1,0.004160
AnsiC,135000,outputParallelSource1,0.005090
AnsiC,175000,outputParallelSource1,0.007239
AnsiC,235000,outputParallelSource1,0.009465
AnsiC,300000,outputParallelSource1,0.010845
AnsiC,420000,outputParallelSource1,0.016963
AnsiC,550000,outputParallelSource1,0.020509
AnsiC,750000,outputParallelSource1,0.027187
AnsiC,1000000,outputParallelSource1,0.037541
AnsiC,1350000,outputParallelSource1,0.049263
AnsiC,1750000,outputParallelSource1,0.063878
AnsiC,2350000,outputParallelSource1,0.084288
AnsiC,3000000,outputParallelSource1,0.110278
AnsiC,4200000,outputParallelSource1,0.148433
AnsiC,5500000,outputParallelSource1,0.194334
AnsiC,7500000,outputParallelSource1,0.274637
AnsiC,10000000,outputParallelSource1,0.357649
AnsiC,13500000,outputParallelSource1,0.476571
AnsiC,17500000,outputParallelSource1,0.607245
AnsiC,23500000,outputParallelSource1,0.815873
AnsiC,30000000,outputParallelSource1,1.060851
AnsiC,42000000,outputParallelSource1,1.474264
AnsiC,55000000,outputParallelSource1,1.927484
AnsiC,75000000,outputParallelSource1,2.608125
AnsiC,100000,outputParallelSource1,0.004160
AnsiC,135000,outputParallelSource1,0.005090
AnsiC,175000,outputParallelSource1,0.007239
AnsiC,235000,outputParallelSource1,0.009465
AnsiC,300000,outputParallelSource1,0.010845
AnsiC,420000,outputParallelSource1,0.016963
AnsiC,550000,outputParallelSource1,0.020509
AnsiC,750000,outputParallelSource1,0.027187
AnsiC,1000000,outputParallelSource1,0.037541
AnsiC,1350000,outputParallelSource1,0.049263
AnsiC,1750000,outputParallelSource1,0.063878
AnsiC,2350000,outputParallelSource1,0.084288
AnsiC,3000000,outputParallelSource1,0.110278
AnsiC,4200000,outputParallelSource1,0.148433
AnsiC,5500000,outputParallelSource1,0.194334
AnsiC,7500000,outputParallelSource1,0.274637
AnsiC,10000000,outputParallelSource1,0.357649
AnsiC,13500000,outputParallelSource1,0.476571
AnsiC,17500000,outputParallelSource1,0.607245
AnsiC,23500000,outputParallelSource1,0.815873
AnsiC,30000000,outputParallelSource1,1.060851
AnsiC,42000000,outputParallelSource1,1.474264
AnsiC,55000000,outputParallelSource1,1.927484
AnsiC,75000000,outputParallelSource1,2.608125
AnsiC,100000,outputParallelSource1,0.004160
AnsiC,135000,outputParallelSource1,0.005090
AnsiC,175000,outputParallelSource1,0.007239
AnsiC,235000,outputParallelSource1,0.009465
AnsiC,300000,outputParallelSource1,0.010845
AnsiC,420000,outputParallelSource1,0.016963
AnsiC,550000,outputParallelSource1,0.020509
AnsiC,750000,outputParallelSource1,0.027187
AnsiC,1000000,outputParallelSource1,0.037541
AnsiC,1350000,outputParallelSource1,0.049263
AnsiC,1750000,outputParallelSource1,0.063878
AnsiC,2350000,outputParallelSource1,0.084288
AnsiC,3000000,outputParallelSource1,0.110278
AnsiC,4200000,outputParallelSource1,0.148433
AnsiC,5500000,outputParallelSource1,0.194334
AnsiC,7500000,outputParallelSource1,0.274637
AnsiC,10000000,outputParallelSource1,0.357649
AnsiC,13500000,outputParallelSource1,0.476571
AnsiC,17500000,outputParallelSource1,0.607245
AnsiC,23500000,outputParallelSource1,0.815873
AnsiC,30000000,outputParallelSource1,1.060851
AnsiC,42000000,outputParallelSource1,1.474264
AnsiC,55000000,outputParallelSource1,1.927484
AnsiC,75000000,outputParallelSource1,2.608125
AnsiC,100000,outputParallelSource1,0.004160
AnsiC,135000,outputParallelSource1,0.005090
AnsiC,175000,outputParallelSource1,0.007239
AnsiC,235000,outputParallelSource1,0.009465
AnsiC,300000,outputParallelSource1,0.010845
AnsiC,420000,outputParallelSource1,0.016963
AnsiC,550000,outputParallelSource1,0.020509
AnsiC,750000,outputParallelSource1,0.027187
AnsiC,1000000,outputParallelSource1,0.037541
AnsiC,1350000,outputParallelSource1,0.049263
AnsiC,1750000,outputParallelSource1,0.063878
AnsiC,2350000,outputParallelSource1,0.084288
AnsiC,3000000,outputParallelSource1,0.110278
AnsiC,4200000,outputParallelSource1,0.148433
AnsiC,5500000,outputParallelSource1,0.194334
AnsiC,7500000,outputParallelSource1,0.274637
AnsiC,10000000,outputParallelSource1,0.357649
AnsiC,13500000,outputParallelSource1,0.476571
AnsiC,17500000,outputParallelSource1,0.607245
AnsiC,23500000,outputParallelSource1,0.815873
AnsiC,30000000,outputParallelSource1,1.060851
AnsiC,42000000,outputParallelSource1,1.474264
AnsiC,55000000,outputParallelSource1,1.927484
AnsiC,75000000,outputParallelSource1,2.608125
AnsiC,100000,outputParallelSource1,0.004160
AnsiC,135000,outputParallelSource1,0.005090
AnsiC,175000,outputParallelSource1,0.007239
AnsiC,235000,outputParallelSource1,0.009465
AnsiC,300000,outputParallelSource1,0.010845
AnsiC,420000,outputParallelSource1,0.016963
AnsiC,550000,outputParallelSource1,0.020509
AnsiC,750000,outputParallelSource1,0.027187
AnsiC,1000000,outputParallelSource1,0.037541
AnsiC,1350000,outputParallelSource1,0.049263
AnsiC,1750000,outputParallelSource1,0.063878
AnsiC,2350000,outputParallelSource1,0.084288
AnsiC,3000000,outputParallelSource1,0.110278
AnsiC,4200000,outputParallelSource1,0.148433
AnsiC,5500000,outputParallelSource1,0.194334
AnsiC,7500000,outputParallelSource1,0.274637
AnsiC,10000000,outputParallelSource1,0.357649
AnsiC,13500000,outputParallelSource1,0.476571
AnsiC,17500000,outputParallelSource1,0.607245
AnsiC,23500000,outputParallelSource1,0.815873
AnsiC,30000000,outputParallelSource1,1.060851
AnsiC,42000000,outputParallelSource1,1.474264
AnsiC,55000000,outputParallelSource1,1.927484
AnsiC,75000000,outputParallelSource1,2.608125
AnsiC,100000,outputParallelSource1,0.004160
AnsiC,135000,outputParallelSource1,0.005090
AnsiC,175000,outputParallelSource1,0.007239
AnsiC,235000,outputParallelSource1,0.009465
AnsiC,300000,outputParallelSource1,0.010845
AnsiC,420000,outputParallelSource1,0.016963
AnsiC,550000,outputParallelSource1,0.020509
AnsiC,750000,outputParallelSource1,0.027187
AnsiC,1000000,outputParallelSource1,0.037541
AnsiC,1350000,outputParallelSource1,0.049263
AnsiC,1750000,outputParallelSource1,0.063878
AnsiC,2350000,outputParallelSource1,0.084288
AnsiC,3000000,outputParallelSource1,0.110278
AnsiC,4200000,outputParallelSource1,0.148433
AnsiC,5500000,outputParallelSource1,0.194334
AnsiC,7500000,outputParallelSource1,0.274637
AnsiC,10000000,outputParallelSource1,0.357649
AnsiC,13500000,outputParallelSource1,0.476571
AnsiC,17500000,outputParallelSource1,0.607245
AnsiC,23500000,outputParallelSource1,0.815873
AnsiC,30000000,outputParallelSource1,1.060851
AnsiC,42000000,outputParallelSource1,1.474264
AnsiC,55000000,outputParallelSource1,1.927484
AnsiC,75000000,outputParallelSource1,2.608125
AnsiC,100000,outputParallelSource1,0.004160
AnsiC,135000,outputParallelSource1,0.005090
AnsiC,175000,outputParallelSource1,0.007239
AnsiC,235000,outputParallelSource1,0.009465
AnsiC,300000,outputParallelSource1,0.010845
AnsiC,420000,outputParallelSource1,0.016963
AnsiC,550000,outputParallelSource1,0.020509
AnsiC,750000,outputParallelSource1,0.027187
AnsiC,1000000,outputParallelSource1,0.037541
AnsiC,1350000,outputParallelSource1,0.049263
AnsiC,1750000,outputParallelSource1,0.063878
AnsiC,2350000,outputParallelSource1,0.084288
AnsiC,3000000,outputParallelSource1,0.110278
AnsiC,4200000,outputParallelSource1,0.148433
AnsiC,5500000,outputParallelSource1,0.194334
AnsiC,7500000,outputParallelSource1,0.274637
AnsiC,10000000,outputParallelSource1,0.357649
AnsiC,13500000,outputParallelSource1,0.476571
AnsiC,17500000,outputParallelSource1,0.607245
AnsiC,23500000,outputParallelSource1,0.815873
AnsiC,30000000,outputParallelSource1,1.060851
AnsiC,42000000,outputParallelSource1,1.474264
AnsiC,55000000,outputParallelSource1,1.927484
AnsiC,75000000,outputParallelSource1,2.608125
AnsiC,100000,outputParallelSource1,0.004160
AnsiC,135000,outputParallelSource1,0.005090
AnsiC,175000,outputParallelSource1,0.007239
AnsiC,235000,outputParallelSource1,0.009465
AnsiC,300000,outputParallelSource1,0.010845
AnsiC,420000,outputParallelSource1,0.016963
AnsiC,550000,outputParallelSource1,0.020509
AnsiC,750000,outputParallelSource1,0.027187
AnsiC,1000000,outputParallelSource1,0.037541
AnsiC,1350000,outputParallelSource1,0.049263
AnsiC,1750000,outputParallelSource1,0.063878
AnsiC,2350000,outputParallelSource1,0.084288
AnsiC,3000000,outputParallelSource1,0.110278
AnsiC,4200000,outputParallelSource1,0.148433
AnsiC,5500000,outputParallelSource1,0.194334
AnsiC,7500000,outputParallelSource1,0.274637
AnsiC,10000000,outputParallelSource1,0.357649
AnsiC,13500000,outputParallelSource1,0.476571
AnsiC,17500000,outputParallelSource1,0.607245
AnsiC,23500000,outputParallelSource1,0.815873
AnsiC,30000000,outputParallelSource1,1.060851
AnsiC,42000000,outputParallelSource1,1.474264
AnsiC,55000000,outputParallelSource1,1.927484
AnsiC,75000000,outputParallelSource1,2.608125
AnsiC,100000,outputParallelSource1,0.004160
AnsiC,135000,outputParallelSource1,0.005090
AnsiC,175000,outputParallelSource1,0.007239
AnsiC,235000,outputParallelSource1,0.009465
AnsiC,300000,outputParallelSource1,0.010845
AnsiC,420000,outputParallelSource1,0.016963
AnsiC,550000,outputParallelSource1,0.020509
AnsiC,750000,outputParallelSource1,0.027187
AnsiC,1000000,outputParallelSource1,0.037541
AnsiC,1350000,outputParallelSource1,0.049263
AnsiC,1750000,outputParallelSource1,0.063878
AnsiC,2350000,outputParallelSource1,0.084288
AnsiC,3000000,outputParallelSource1,0.110278
AnsiC,4200000,outputParallelSource1,0.148433
AnsiC,5500000,outputParallelSource1,0.194334
AnsiC,7500000,outputParallelSource1,0.274637
AnsiC,10000000,outputParallelSource1,0.357649
AnsiC,13500000,outputParallelSource1,0.476571
AnsiC,17500000,outputParallelSource1,0.607245
AnsiC,23500000,outputParallelSource1,0.815873
AnsiC,30000000,outputParallelSource1,1.060851
AnsiC,42000000,outputParallelSource1,1.474264
AnsiC,55000000,outputParallelSource1,1.927484
AnsiC,75000000,outputParallelSource1,2.608125
AnsiC,100000,outputParallelSource1,0.004160
AnsiC,135000,outputParallelSource1,0.005090
AnsiC,175000,outputParallelSource1,0.007239
AnsiC,235000,outputParallelSource1,0.009465
AnsiC,300000,outputParallelSource1,0.010845
AnsiC,420000,outputParallelSource1,0.016963
AnsiC,550000,outputParallelSource1,0.020509
AnsiC,750000,outputParallelSource1,0.027187
AnsiC,1000000,outputParallelSource1,0.037541
AnsiC,1350000,outputParallelSource1,0.049263
AnsiC,1750000,outputParallelSource1,0.063878
AnsiC,2350000,outputParallelSource1,0.084288
AnsiC,3000000,outputParallelSource1,0.110278
AnsiC,4200000,outputParallelSource1,0.148433
AnsiC,5500000,outputParallelSource1,0.194334
AnsiC,7500000,outputParallelSource1,0.274637
AnsiC,10000000,outputParallelSource1,0.357649
AnsiC,13500000,outputParallelSource1,0.476571
AnsiC,17500000,outputParallelSource1,0.607245
AnsiC,23500000,outputParallelSource1,0.815873
AnsiC,30000000,outputParallelSource1,1.060851
AnsiC,42000000,outputParallelSource1,1.474264
AnsiC,55000000,outputParallelSource1,1.927484
AnsiC,75000000,outputParallelSource1,2.608125
AnsiC,100000,outputParallelSource1,0.004160
AnsiC,135000,outputParallelSource1,0.005090
AnsiC,175000,outputParallelSource1,0.007239
AnsiC,235000,outputParallelSource1,0.009465
AnsiC,300000,outputParallelSource1,0.010845
AnsiC,420000,outputParallelSource1,0.016963
AnsiC,550000,outputParallelSource1,0.020509
AnsiC,750000,outputParallelSource1,0.027187
AnsiC,1000000,outputParallelSource1,0.037541
AnsiC,1350000,outputParallelSource1,0.049263
AnsiC,1750000,outputParallelSource1,0.063878
AnsiC,2350000,outputParallelSource1,0.084288
AnsiC,3000000,outputParallelSource1,0.110278
AnsiC,4200000,outputParallelSource1,0.148433
AnsiC,5500000,outputParallelSource1,0.194334
AnsiC,7500000,outputParallelSource1,0.274637
AnsiC,10000000,outputParallelSource1,0.357649
AnsiC,13500000,outputParallelSource1,0.476571
AnsiC,17500000,outputParallelSource1,0.607245
AnsiC,23500000,outputParallelSource1,0.815873
AnsiC,30000000,outputParallelSource1,1.060851
AnsiC,42000000,outputParallelSource1,1.474264
AnsiC,55000000,outputParallelSource1,1.927484
AnsiC,75000000,outputParallelSource1,2.608125
AnsiC,100000,outputParallelSource1,0.004160
AnsiC,135000,outputParallelSource1,0.005090
AnsiC,175000,outputParallelSource1,0.007239
AnsiC,235000,outputParallelSource1,0.009465
AnsiC,300000,outputParallelSource1,0.010845
AnsiC,420000,outputParallelSource1,0.016963
AnsiC,550000,outputParallelSource1,0.020509
AnsiC,750000,outputParallelSource1,0.027187
AnsiC,1000000,outputParallelSource1,0.037541
AnsiC,1350000,outputParallelSource1,0.049263
AnsiC,1750000,outputParallelSource1,0.063878
AnsiC,2350000,outputParallelSource1,0.084288
AnsiC,3000000,outputParallelSource1,0.110278
AnsiC,4200000,outputParallelSource1,0.148433
AnsiC,5500000,outputParallelSource1,0.194334
AnsiC,7500000,outputParallelSource1,0.274637
AnsiC,10000000,outputParallelSource1,0.357649
AnsiC,13500000,outputParallelSource1,0.476571
AnsiC,17500000,outputParallelSource1,0.607245
AnsiC,23500000,outputParallelSource1,0.815873
AnsiC,30000000,outputParallelSource1,1.060851
AnsiC,42000000,outputParallelSource1,1.474264
AnsiC,55000000,outputParallelSource1,1.927484
AnsiC,75000000,outputParallelSource1,2.608125
AnsiC,100000,outputParallelSource1,0.004160
AnsiC,135000,outputParallelSource1,0.005090
AnsiC,175000,outputParallelSource1,0.007239
AnsiC,235000,outputParallelSource1,0.009465
AnsiC,300000,outputParallelSource1,0.010845
AnsiC,420000,outputParallelSource1,0.016963
AnsiC,550000,outputParallelSource1,0.020509
AnsiC,750000,outputParallelSource1,0.027187
AnsiC,1000000,outputParallelSource1,0.037541
AnsiC,1350000,outputParallelSource1,0.049263
AnsiC,1750000,outputParallelSource1,0.063878
AnsiC,2350000,outputParallelSource1,0.084288
AnsiC,3000000,outputParallelSource1,0.110278
AnsiC,4200000,outputParallelSource1,0.148433
AnsiC,5500000,outputParallelSource1,0.194334
AnsiC,7500000,outputParallelSource1,0.274637
AnsiC,10000000,outputParallelSource1,0.357649
AnsiC,13500000,outputParallelSource1,0.476571
AnsiC,17500000,outputParallelSource1,0.607245
AnsiC,23500000,outputParallelSource1,0.815873
AnsiC,30000000,outputParallelSource1,1.060851
AnsiC,42000000,outputParallelSource1,1.474264
AnsiC,55000000,outputParallelSource1,1.927484
AnsiC,75000000,outputParallelSource1,2.608125
AnsiC,100000,outputParallelSource1,0.004160
AnsiC,135000,outputParallelSource1,0.005090
AnsiC,175000,outputParallelSource1,0.007239
AnsiC,235000,outputParallelSource1,0.009465
AnsiC,300000,outputParallelSource1,0.010845
AnsiC,420000,outputParallelSource1,0.016963
AnsiC,550000,outputParallelSource1,0.020509
AnsiC,750000,outputParallelSource1,0.027187
AnsiC,1000000,outputParallelSource1,0.037541
AnsiC,1350000,outputParallelSource1,0.049263
AnsiC,1750000,outputParallelSource1,0.063878
AnsiC,2350000,outputParallelSource1,0.084288
AnsiC,3000000,outputParallelSource1,0.110278
AnsiC,4200000,outputParallelSource1,0.148433
AnsiC,5500000,outputParallelSource1,0.194334
AnsiC,7500000,outputParallelSource1,0.274637
AnsiC,10000000,outputParallelSource1,0.357649
AnsiC,13500000,outputParallelSource1,0.476571
AnsiC,17500000,outputParallelSource1,0.607245
AnsiC,23500000,outputParallelSource1,0.815873
AnsiC,30000000,outputParallelSource1,1.060851
AnsiC,42000000,outputParallelSource1,1.474264
AnsiC,55000000,outputParallelSource1,1.927484
AnsiC,75000000,outputParallelSource1,2.608125
AnsiC,100000,outputParallelSource1,0.004160
AnsiC,135000,outputParallelSource1,0.005090
AnsiC,175000,outputParallelSource1,0.007239
AnsiC,235000,outputParallelSource1,0.009465
AnsiC,300000,outputParallelSource1,0.010845
AnsiC,420000,outputParallelSource1,0.016963
AnsiC,550000,outputParallelSource1,0.020509
AnsiC,750000,outputParallelSource1,0.027187
AnsiC,1000000,outputParallelSource1,0.037541
AnsiC,1350000,outputParallelSource1,0.049263
AnsiC,1750000,outputParallelSource1,0.063878
AnsiC,2350000,outputParallelSource1,0.084288
AnsiC,3000000,outputParallelSource1,0.110278
AnsiC,4200000,outputParallelSource1,0.148433
AnsiC,5500000,outputParallelSource1,0.194334
AnsiC,7500000,outputParallelSource1,0.274637
AnsiC,10000000,outputParallelSource1,0.357649
AnsiC,13500000,outputParallelSource1,0.476571
AnsiC,17500000,outputParallelSource1,0.607245
AnsiC,23500000,outputParallelSource1,0.815873
AnsiC,30000000,outputParallelSource1,1.060851
AnsiC,42000000,outputParallelSource1,1.474264
AnsiC,55000000,outputParallelSource1,1.927484
AnsiC,75000000,outputParallelSource1,2.608125
AnsiC,100000,outputParallelSource1,0.004160
AnsiC,135000,outputParallelSource1,0.005090
AnsiC,175000,outputParallelSource1,0.007239
AnsiC,235000,outputParallelSource1,0.009465
AnsiC,300000,outputParallelSource1,0.010845
AnsiC,420000,outputParallelSource1,0.016963
AnsiC,550000,outputParallelSource1,0.020509
AnsiC,750000,outputParallelSource1,0.027187
AnsiC,1000000,outputParallelSource1,0.037541
AnsiC,1350000,outputParallelSource1,0.049263
AnsiC,1750000,outputParallelSource1,0.063878
AnsiC,2350000,outputParallelSource1,0.084288
AnsiC,3000000,outputParallelSource1,0.110278
AnsiC,4200000,outputParallelSource1,0.148433
AnsiC,5500000,outputParallelSource1,0.194334
AnsiC,7500000,outputParallelSource1,0.274637
AnsiC,10000000,outputParallelSource1,0.357649
AnsiC,13500000,outputParallelSource1,0.476571
AnsiC,17500000,outputParallelSource1,0.607245
AnsiC,23500000,outputParallelSource1,0.815873
AnsiC,30000000,outputParallelSource1,1.060851
AnsiC,42000000,outputParallelSource1,1.474264
AnsiC,55000000,outputParallelSource1,1.927484
AnsiC,75000000,outputParallelSource1,2.608125
AnsiC,100000,outputParallelSource1,0.004160
AnsiC,135000,outputParallelSource1,0.005090
AnsiC,175000,outputParallelSource1,0.007239
AnsiC,235000,outputParallelSource1,0.009465
AnsiC,300000,outputParallelSource1,0.010845
AnsiC,420000,outputParallelSource1,0.016963
AnsiC,550000,outputParallelSource1,0.020509
AnsiC,750000,outputParallelSource1,0.027187
AnsiC,1000000,outputParallelSource1,0.037541
AnsiC,1350000,outputParallelSource1,0.049263
AnsiC,1750000,outputParallelSource1,0.063878
AnsiC,2350000,outputParallelSource1,0.084288
AnsiC,3000000,outputParallelSource1,0.110278
AnsiC,4200000,outputParallelSource1,0.148433
AnsiC,5500000,outputParallelSource1,0.194334
AnsiC,7500000,outputParallelSource1,0.274637
AnsiC,10000000,outputParallelSource1,0.357649
AnsiC,13500000,outputParallelSource1,0.476571
AnsiC,17500000,outputParallelSource1,0.607245
AnsiC,23500000,outputParallelSource1,0.815873
AnsiC,30000000,outputParallelSource1,1.060851
AnsiC,42000000,outputParallelSource1,1.474264
AnsiC,55000000,outputParallelSource1,1.927484
AnsiC,75000000,outputParallelSource1,2.608125
AnsiC,100000,outputParallelSource1,0.004160
AnsiC,135000,outputParallelSource1,0.005090
AnsiC,175000,outputParallelSource1,0.007239
AnsiC,235000,outputParallelSource1,0.009465
AnsiC,300000,outputParallelSource1,0.010845
AnsiC,420000,outputParallelSource1,0.016963
AnsiC,550000,outputParallelSource1,0.020509
AnsiC,750000,outputParallelSource1,0.027187
AnsiC,1000000,outputParallelSource1,0.037541
AnsiC,1350000,outputParallelSource1,0.049263
AnsiC,1750000,outputParallelSource1,0.063878
AnsiC,2350000,outputParallelSource1,0.084288
AnsiC,3000000,outputParallelSource1,0.110278
AnsiC,4200000,outputParallelSource1,0.148433
AnsiC,5500000,outputParallelSource1,0.194334
AnsiC,7500000,outputParallelSource1,0.274637
AnsiC,10000000,outputParallelSource1,0.357649
AnsiC,13500000,outputParallelSource1,0.476571
AnsiC,17500000,outputParallelSource1,0.607245
AnsiC,23500000,outputParallelSource1,0.815873
AnsiC,30000000,outputParallelSource1,1.060851
AnsiC,42000000,outputParallelSource1,1.474264
AnsiC,55000000,outputParallelSource1,1.927484
AnsiC,75000000,outputParallelSource1,2.608125
AnsiC,100000,outputParallelSource1,0.004160
AnsiC,135000,outputParallelSource1,0.005090
AnsiC,175000,outputParallelSource1,0.007239
AnsiC,235000,outputParallelSource1,0.009465
AnsiC,300000,outputParallelSource1,0.010845
AnsiC,420000,outputParallelSource1,0.016963
AnsiC,550000,outputParallelSource1,0.020509
AnsiC,750000,outputParallelSource1,0.027187
AnsiC,1000000,outputParallelSource1,0.037541
AnsiC,1350000,outputParallelSource1,0.049263
AnsiC,1750000,outputParallelSource1,0.063878
AnsiC,2350000,outputParallelSource1,0.084288
AnsiC,3000000,outputParallelSource1,0.110278
AnsiC,4200000,outputParallelSource1,0.148433
AnsiC,5500000,outputParallelSource1,0.194334
AnsiC,7500000,outputParallelSource1,0.274637
AnsiC,10000000,outputParallelSource1,0.357649
AnsiC,13500000,outputParallelSource1,0.476571
AnsiC,17500000,outputParallelSource1,0.607245
AnsiC,23500000,outputParallelSource1,0.815873
AnsiC,30000000,outputParallelSource1,1.060851
AnsiC,42000000,outputParallelSource1,1.474264
AnsiC,55000000,outputParallelSource1,1.927484
AnsiC,75000000,outputParallelSource1,2.608125
AnsiC,100000,outputParallelSource1,0.004160
AnsiC,135000,outputParallelSource1,0.005090
AnsiC,175000,outputParallelSource1,0.007239
AnsiC,235000,outputParallelSource1,0.009465
AnsiC,300000,outputParallelSource1,0.010845
AnsiC,420000,outputParallelSource1,0.016963
AnsiC,550000,outputParallelSource1,0.020509
AnsiC,750000,outputParallelSource1,0.027187
AnsiC,1000000,outputParallelSource1,0.037541
AnsiC,1350000,outputParallelSource1,0.049263
AnsiC,1750000,outputParallelSource1,0.063878
AnsiC,2350000,outputParallelSource1,0.084288
AnsiC,3000000,outputParallelSource1,0.110278
AnsiC,4200000,outputParallelSource1,0.148433
AnsiC,5500000,outputParallelSource1,0.194334
AnsiC,7500000,outputParallelSource1,0.274637
AnsiC,10000000,outputParallelSource1,0.357649
AnsiC,13500000,outputParallelSource1,0.476571
AnsiC,17500000,outputParallelSource1,0.607245
AnsiC,23500000,outputParallelSource1,0.815873
AnsiC,30000000,outputParallelSource1,1.060851
AnsiC,42000000,outputParallelSource1,1.474264
AnsiC,55000000,outputParallelSource1,1.927484
AnsiC,75000000,outputParallelSource1,2.608125
AnsiC,100000,outputParallelSource1,0.004160
AnsiC,135000,outputParallelSource1,0.005090
AnsiC,175000,outputParallelSource1,0.007239
AnsiC,235000,outputParallelSource1,0.009465
AnsiC,300000,outputParallelSource1,0.010845
AnsiC,420000,outputParallelSource1,0.016963
AnsiC,550000,outputParallelSource1,0.020509
AnsiC,750000,outputParallelSource1,0.027187
AnsiC,1000000,outputParallelSource1,0.037541
AnsiC,1350000,outputParallelSource1,0.049263
AnsiC,1750000,outputParallelSource1,0.063878
AnsiC,2350000,outputParallelSource1,0.084288
AnsiC,3000000,outputParallelSource1,0.110278
AnsiC,4200000,outputParallelSource1,0.148433
AnsiC,5500000,outputParallelSource1,0.194334
AnsiC,7500000,outputParallelSource1,0.274637
AnsiC,10000000,outputParallelSource1,0.357649
AnsiC,13500000,outputParallelSource1,0.476571
AnsiC,17500000,outputParallelSource1,0.607245
AnsiC,23500000,outputParallelSource1,0.815873
AnsiC,30000000,outputParallelSource1,1.060851
AnsiC,42000000,outputParallelSource1,1.474264
AnsiC,55000000,outputParallelSource1,1.927484
AnsiC,75000000,outputParallelSource1,2.608125
AnsiC,100000,outputParallelSource1,0.004160
AnsiC,135000,outputParallelSource1,0.005090
AnsiC,175000,outputParallelSource1,0.007239
AnsiC,235000,outputParallelSource1,0.009465
AnsiC,300000,outputParallelSource1,0.010845
AnsiC,420000,outputParallelSource1,0.016963
AnsiC,550000,outputParallelSource1,0.020509
AnsiC,750000,outputParallelSource1,0.027187
AnsiC,1000000,outputParallelSource1,0.037541
AnsiC,1350000,outputParallelSource1,0.049263
AnsiC,1750000,outputParallelSource1,0.063878
AnsiC,2350000,outputParallelSource1,0.084288
AnsiC,3000000,outputParallelSource1,0.110278
AnsiC,4200000,outputParallelSource1,0.148433
AnsiC,5500000,outputParallelSource1,0.194334
AnsiC,7500000,outputParallelSource1,0.274637
AnsiC,10000000,outputParallelSource1,0.357649
AnsiC,13500000,outputParallelSource1,0.476571
AnsiC,17500000,outputParallelSource1,0.607245
AnsiC,23500000,outputParallelSource1,0.815873
AnsiC,30000000,outputParallelSource1,1.060851
AnsiC,42000000,outputParallelSource1,1.474264
AnsiC,55000000,outputParallelSource1,1.927484
AnsiC,75000000,outputParallelSource1,2.608125
AnsiC,100000,outputParallelSource1,0.004160
AnsiC,135000,outputParallelSource1,0.005090
AnsiC,175000,outputParallelSource1,0.007239
AnsiC,235000,outputParallelSource1,0.009465
AnsiC,300000,outputParallelSource1,0.010845
AnsiC,420000,outputParallelSource1,0.016963
AnsiC,550000,outputParallelSource1,0.020509
AnsiC,750000,outputParallelSource1,0.027187
AnsiC,1000000,outputParallelSource1,0.037541
AnsiC,1350000,outputParallelSource1,0.049263
AnsiC,1750000,outputParallelSource1,0.063878
AnsiC,2350000,outputParallelSource1,0.084288
AnsiC,3000000,outputParallelSource1,0.110278
AnsiC,4200000,outputParallelSource1,0.148433
AnsiC,5500000,outputParallelSource1,0.194334
AnsiC,7500000,outputParallelSource1,0.274637
AnsiC,10000000,outputParallelSource1,0.357649
AnsiC,13500000,outputParallelSource1,0.476571
AnsiC,17500000,outputParallelSource1,0.607245
AnsiC,23500000,outputParallelSource1,0.815873
AnsiC,30000000,outputParallelSource1,1.060851
AnsiC,42000000,outputParallelSource1,1.474264
AnsiC,55000000,outputParallelSource1,1.927484
AnsiC,75000000,outputParallelSource1,2.608125
AnsiC,100000,outputParallelSource1,0.004160
AnsiC,135000,outputParallelSource1,0.005090
AnsiC,175000,outputParallelSource1,0.007239
AnsiC,235000,outputParallelSource1,0.009465
AnsiC,300000,outputParallelSource1,0.010845
AnsiC,420000,outputParallelSource1,0.016963
AnsiC,550000,outputParallelSource1,0.020509
AnsiC,750000,outputParallelSource1,0.027187
AnsiC,1000000,outputParallelSource1,0.037541
AnsiC,1350000,outputParallelSource1,0.049263
AnsiC,1750000,outputParallelSource1,0.063878
AnsiC,2350000,outputParallelSource1,0.084288
AnsiC,3000000,outputParallelSource1,0.110278
AnsiC,4200000,outputParallelSource1,0.148433
AnsiC,5500000,outputParallelSource1,0.194334
AnsiC,7500000,outputParallelSource1,0.274637
AnsiC,10000000,outputParallelSource1,0.357649
AnsiC,13500000,outputParallelSource1,0.476571
AnsiC,17500000,outputParallelSource1,0.607245
AnsiC,23500000,outputParallelSource1,0.815873
AnsiC,30000000,outputParallelSource1,1.060851
AnsiC,42000000,outputParallelSource1,1.474264
AnsiC,55000000,outputParallelSource1,1.927484
AnsiC,75000000,outputParallelSource1,2.608125
AnsiC,100000,outputParallelSource1,0.004160
AnsiC,135000,outputParallelSource1,0.005090
AnsiC,175000,outputParallelSource1,0.007239
AnsiC,235000,outputParallelSource1,0.009465
AnsiC,300000,outputParallelSource1,0.010845
AnsiC,420000,outputParallelSource1,0.016963
AnsiC,550000,outputParallelSource1,0.020509
AnsiC,750000,outputParallelSource1,0.027187
AnsiC,1000000,outputParallelSource1,0.037541
AnsiC,1350000,outputParallelSource1,0.049263
AnsiC,1750000,outputParallelSource1,0.063878
AnsiC,2350000,outputParallelSource1,0.084288
AnsiC,3000000,outputParallelSource1,0.110278
AnsiC,4200000,outputParallelSource1,0.148433
AnsiC,5500000,outputParallelSource1,0.194334
AnsiC,7500000,outputParallelSource1,0.274637
AnsiC,10000000,outputParallelSource1,0.357649
AnsiC,13500000,outputParallelSource1,0.476571
AnsiC,17500000,outputParallelSource1,0.607245
AnsiC,23500000,outputParallelSource1,0.815873
AnsiC,30000000,outputParallelSource1,1.060851
AnsiC,42000000,outputParallelSource1,1.474264
AnsiC,55000000,outputParallelSource1,1.927484
AnsiC,75000000,outputParallelSource1,2.608125
AnsiC,100000,outputParallelSource1,0.004160
AnsiC,135000,outputParallelSource1,0.005090
AnsiC,175000,outputParallelSource1,0.007239
AnsiC,235000,outputParallelSource1,0.009465
AnsiC,300000,outputParallelSource1,0.010845
AnsiC,420000,outputParallelSource1,0.016963
AnsiC,550000,outputParallelSource1,0.020509
AnsiC,750000,outputParallelSource1,0.027187
AnsiC,1000000,outputParallelSource1,0.037541
AnsiC,1350000,outputParallelSource1,0.049263
AnsiC,1750000,outputParallelSource1,0.063878
AnsiC,2350000,outputParallelSource1,0.084288
AnsiC,3000000,outputParallelSource1,0.110278
AnsiC,4200000,outputParallelSource1,0.148433
AnsiC,5500000,outputParallelSource1,0.194334
AnsiC,7500000,outputParallelSource1,0.274637
AnsiC,10000000,outputParallelSource1,0.357649
AnsiC,13500000,outputParallelSource1,0.476571
AnsiC,17500000,outputParallelSource1,0.607245
AnsiC,23500000,outputParallelSource1,0.815873
AnsiC,30000000,outputParallelSource1,1.060851
AnsiC,42000000,outputParallelSource1,1.474264
AnsiC,55000000,outputParallelSource1,1.927484
AnsiC,75000000,outputParallelSource1,2.608125
AnsiC,100000,outputParallelSource1,0.004160
AnsiC,135000,outputParallelSource1,0.005090
AnsiC,175000,outputParallelSource1,0.007239
AnsiC,235000,outputParallelSource1,0.009465
AnsiC,300000,outputParallelSource1,0.010845
AnsiC,420000,outputParallelSource1,0.016963
AnsiC,550000,outputParallelSource1,0.020509
AnsiC,750000,outputParallelSource1,0.027187
AnsiC,1000000,outputParallelSource1,0.037541
AnsiC,1350000,outputParallelSource1,0.049263
AnsiC,1750000,outputParallelSource1,0.063878
AnsiC,2350000,outputParallelSource1,0.084288
AnsiC,3000000,outputParallelSource1,0.110278
AnsiC,4200000,outputParallelSource1,0.148433
AnsiC,5500000,outputParallelSource1,0.194334
AnsiC,7500000,outputParallelSource1,0.274637
AnsiC,10000000,outputParallelSource1,0.357649
AnsiC,13500000,outputParallelSource1,0.476571
AnsiC,17500000,outputParallelSource1,0.607245
AnsiC,23500000,outputParallelSource1,0.815873
AnsiC,30000000,outputParallelSource1,1.060851
AnsiC,42000000,outputParallelSource1,1.474264
AnsiC,55000000,outputParallelSource1,1.927484
AnsiC,75000000,outputParallelSource1,2.608125
AnsiC,100000,outputParallelSource1,0.004160
AnsiC,135000,outputParallelSource1,0.005090
AnsiC,175000,outputParallelSource1,0.007239
AnsiC,235000,outputParallelSource1,0.009465
AnsiC,300000,outputParallelSource1,0.010845
AnsiC,420000,outputParallelSource1,0.016963
AnsiC,550000,outputParallelSource1,0.020509
AnsiC,750000,outputParallelSource1,0.027187
AnsiC,1000000,outputParallelSource1,0.037541
AnsiC,1350000,outputParallelSource1,0.049263
AnsiC,1750000,outputParallelSource1,0.063878
AnsiC,2350000,outputParallelSource1,0.084288
AnsiC,3000000,outputParallelSource1,0.110278
AnsiC,4200000,outputParallelSource1,0.148433
AnsiC,5500000,outputParallelSource1,0.194334
AnsiC,7500000,outputParallelSource1,0.274637
AnsiC,10000000,outputParallelSource1,0.357649
AnsiC,13500000,outputParallelSource1,0.476571
AnsiC,17500000,outputParallelSource1,0.607245
AnsiC,23500000,outputParallelSource1,0.815873
AnsiC,30000000,outputParallelSource1,1.060851
AnsiC,42000000,outputParallelSource1,1.474264
AnsiC,55000000,outputParallelSource1,1.927484
AnsiC,75000000,outputParallelSource1,2.608125
AnsiC,100000,outputParallelSource1,0.004160
AnsiC,135000,outputParallelSource1,0.005090
AnsiC,175000,outputParallelSource1,0.007239
AnsiC,235000,outputParallelSource1,0.009465
AnsiC,300000,outputParallelSource1,0.010845
AnsiC,420000,outputParallelSource1,0.016963
AnsiC,550000,outputParallelSource1,0.020509
AnsiC,750000,outputParallelSource1,0.027187
AnsiC,1000000,outputParallelSource1,0.037541
AnsiC,1350000,outputParallelSource1,0.049263
AnsiC,1750000,outputParallelSource1,0.063878
AnsiC,2350000,outputParallelSource1,0.084288
AnsiC,3000000,outputParallelSource1,0.110278
AnsiC,4200000,outputParallelSource1,0.148433
AnsiC,5500000,outputParallelSource1,0.194334
AnsiC,7500000,outputParallelSource1,0.274637
AnsiC,10000000,outputParallelSource1,0.357649
AnsiC,13500000,outputParallelSource1,0.476571
AnsiC,17500000,outputParallelSource1,0.607245
AnsiC,23500000,outputParallelSource1,0.815873
AnsiC,30000000,outputParallelSource1,1.060851
AnsiC,42000000,outputParallelSource1,1.474264
AnsiC,55000000,outputParallelSource1,1.927484
AnsiC,75000000,outputParallelSource1,2.608125
AnsiC,100000,outputParallelSource1,0.004160
AnsiC,135000,outputParallelSource1,0.005090
AnsiC,175000,outputParallelSource1,0.007239
AnsiC,235000,outputParallelSource1,0.009465
AnsiC,300000,outputParallelSource1,0.010845
AnsiC,420000,outputParallelSource1,0.016963
AnsiC,550000,outputParallelSource1,0.020509
AnsiC,750000,outputParallelSource1,0.027187
AnsiC,1000000,outputParallelSource1,0.037541
AnsiC,1350000,outputParallelSource1,0.049263
AnsiC,1750000,outputParallelSource1,0.063878
AnsiC,2350000,outputParallelSource1,0.084288
AnsiC,3000000,outputParallelSource1,0.110278
AnsiC,4200000,outputParallelSource1,0.148433
AnsiC,5500000,outputParallelSource1,0.194334
AnsiC,7500000,outputParallelSource1,0.274637
AnsiC,10000000,outputParallelSource1,0.357649
AnsiC,13500000,outputParallelSource1,0.476571
AnsiC,17500000,outputParallelSource1,0.607245
AnsiC,23500000,outputParallelSource1,0.815873
AnsiC,30000000,outputParallelSource1,1.060851
AnsiC,42000000,outputParallelSource1,1.474264
AnsiC,55000000,outputParallelSource1,1.927484
AnsiC,75000000,outputParallelSource1,2.608125
AnsiC,100000,outputParallelSource1,0.004160
AnsiC,135000,outputParallelSource1,0.005090
AnsiC,175000,outputParallelSource1,0.007239
AnsiC,235000,outputParallelSource1,0.009465
AnsiC,300000,outputParallelSource1,0.010845
AnsiC,420000,outputParallelSource1,0.016963
AnsiC,550000,outputParallelSource1,0.020509
AnsiC,750000,outputParallelSource1,0.027187
AnsiC,1000000,outputParallelSource1,0.037541
AnsiC,1350000,outputParallelSource1,0.049263
AnsiC,1750000,outputParallelSource1,0.063878
AnsiC,2350000,outputParallelSource1,0.084288
AnsiC,3000000,outputParallelSource1,0.110278
AnsiC,4200000,outputParallelSource1,0.148433
AnsiC,5500000,outputParallelSource1,0.194334
AnsiC,7500000,outputParallelSource1,0.274637
AnsiC,10000000,outputParallelSource1,0.357649
AnsiC,13500000,outputParallelSource1,0.476571
AnsiC,17500000,outputParallelSource1,0.607245
AnsiC,23500000,outputParallelSource1,0.815873
AnsiC,30000000,outputParallelSource1,1.060851
AnsiC,42000000,outputParallelSource1,1.474264
AnsiC,55000000,outputParallelSource1,1.927484
AnsiC,75000000,outputParallelSource1,2.608125
AnsiC,100000,outputParallelSource1,0.004160
AnsiC,135000,outputParallelSource1,0.005090
AnsiC,175000,outputParallelSource1,0.007239
AnsiC,235000,outputParallelSource1,0.009465
AnsiC,300000,outputParallelSource1,0.010845
AnsiC,420000,outputParallelSource1,0.016963
AnsiC,550000,outputParallelSource1,0.020509
AnsiC,750000,outputParallelSource1,0.027187
AnsiC,1000000,outputParallelSource1,0.037541
AnsiC,1350000,outputParallelSource1,0.049263
AnsiC,1750000,outputParallelSource1,0.063878
AnsiC,2350000,outputParallelSource1,0.084288
AnsiC,3000000,outputParallelSource1,0.110278
AnsiC,4200000,outputParallelSource1,0.148433
AnsiC,5500000,outputParallelSource1,0.194334
AnsiC,7500000,outputParallelSource1,0.274637
AnsiC,10000000,outputParallelSource1,0.357649
AnsiC,13500000,outputParallelSource1,0.476571
AnsiC,17500000,outputParallelSource1,0.607245
AnsiC,23500000,outputParallelSource1,0.815873
AnsiC,30000000,outputParallelSource1,1.060851
AnsiC,42000000,outputParallelSource1,1.474264
AnsiC,55000000,outputParallelSource1,1.927484
AnsiC,75000000,outputParallelSource1,2.608125
AnsiC,100000,outputParallelSource1,0.004160
AnsiC,135000,outputParallelSource1,0.005090
AnsiC,175000,outputParallelSource1,0.007239
AnsiC,235000,outputParallelSource1,0.009465
AnsiC,300000,outputParallelSource1,0.010845
AnsiC,420000,outputParallelSource1,0.016963
AnsiC,550000,outputParallelSource1,0.020509
AnsiC,750000,outputParallelSource1,0.027187
AnsiC,1000000,outputParallelSource1,0.037541
AnsiC,1350000,outputParallelSource1,0.049263
AnsiC,1750000,outputParallelSource1,0.063878
AnsiC,2350000,outputParallelSource1,0.084288
AnsiC,3000000,outputParallelSource1,0.110278
AnsiC,4200000,outputParallelSource1,0.148433
AnsiC,5500000,outputParallelSource1,0.194334
AnsiC,7500000,outputParallelSource1,0.274637
AnsiC,10000000,outputParallelSource1,0.357649
AnsiC,13500000,outputParallelSource1,0.476571
AnsiC,17500000,outputParallelSource1,0.607245
AnsiC,23500000,outputParallelSource1,0.815873
AnsiC,30000000,outputParallelSource1,1.060851
AnsiC,42000000,outputParallelSource1,1.474264
AnsiC,55000000,outputParallelSource1,1.927484
AnsiC,75000000,outputParallelSource1,2.608125
AnsiC,100000,outputParallelSource1,0.004160
AnsiC,135000,outputParallelSource1,0.005090
AnsiC,175000,outputParallelSource1,0.007239
AnsiC,235000,outputParallelSource1,0.009465
AnsiC,300000,outputParallelSource1,0.010845
AnsiC,420000,outputParallelSource1,0.016963
AnsiC,550000,outputParallelSource1,0.020509
AnsiC,750000,outputParallelSource1,0.027187
AnsiC,1000000,outputParallelSource1,0.037541
AnsiC,1350000,outputParallelSource1,0.049263
AnsiC,1750000,outputParallelSource1,0.063878
AnsiC,2350000,outputParallelSource1,0.084288
AnsiC,3000000,outputParallelSource1,0.110278
AnsiC,4200000,outputParallelSource1,0.148433
AnsiC,5500000,outputParallelSource1,0.194334
AnsiC,7500000,outputParallelSource1,0.274637
AnsiC,10000000,outputParallelSource1,0.357649
AnsiC,13500000,outputParallelSource1,0.476571
AnsiC,17500000,outputParallelSource1,0.607245
AnsiC,23500000,outputParallelSource1,0.815873
AnsiC,30000000,outputParallelSource1,1.060851
AnsiC,42000000,outputParallelSource1,1.474264
AnsiC,55000000,outputParallelSource1,1.927484
AnsiC,75000000,outputParallelSource1,2.608125
AnsiC,100000,outputParallelSource1,0.004160
AnsiC,135000,outputParallelSource1,0.005090
AnsiC,175000,outputParallelSource1,0.007239
AnsiC,235000,outputParallelSource1,0.009465
AnsiC,300000,outputParallelSource1,0.010845
AnsiC,420000,outputParallelSource1,0.016963
AnsiC,550000,outputParallelSource1,0.020509
AnsiC,750000,outputParallelSource1,0.027187
AnsiC,1000000,outputParallelSource1,0.037541
AnsiC,1350000,outputParallelSource1,0.049263
AnsiC,1750000,outputParallelSource1,0.063878
AnsiC,2350000,outputParallelSource1,0.084288
AnsiC,3000000,outputParallelSource1,0.110278
AnsiC,4200000,outputParallelSource1,0.148433
AnsiC,5500000,outputParallelSource1,0.194334
AnsiC,7500000,outputParallelSource1,0.274637
AnsiC,10000000,outputParallelSource1,0.357649
AnsiC,13500000,outputParallelSource1,0.476571
AnsiC,17500000,outputParallelSource1,0.607245
AnsiC,23500000,outputParallelSource1,0.815873
AnsiC,30000000,outputParallelSource1,1.060851
AnsiC,42000000,outputParallelSource1,1.474264
AnsiC,55000000,outputParallelSource1,1.927484
AnsiC,75000000,outputParallelSource1,2.608125
AnsiC,100000,outputParallelSource1,0.004160
AnsiC,135000,outputParallelSource1,0.005090
AnsiC,175000,outputParallelSource1,0.007239
AnsiC,235000,outputParallelSource1,0.009465
AnsiC,300000,outputParallelSource1,0.010845
AnsiC,420000,outputParallelSource1,0.016963
AnsiC,550000,outputParallelSource1,0.020509
AnsiC,750000,outputParallelSource1,0.027187
AnsiC,1000000,outputParallelSource1,0.037541
AnsiC,1350000,outputParallelSource1,0.049263
AnsiC,1750000,outputParallelSource1,0.063878
AnsiC,2350000,outputParallelSource1,0.084288
AnsiC,3000000,outputParallelSource1,0.110278
AnsiC,4200000,outputParallelSource1,0.148433
AnsiC,5500000,outputParallelSource1,0.194334
AnsiC,7500000,outputParallelSource1,0.274637
AnsiC,10000000,outputParallelSource1,0.357649
AnsiC,13500000,outputParallelSource1,0.476571
AnsiC,17500000,outputParallelSource1,0.607245
AnsiC,23500000,outputParallelSource1,0.815873
AnsiC,30000000,outputParallelSource1,1.060851
AnsiC,42000000,outputParallelSource1,1.474264
AnsiC,55000000,outputParallelSource1,1.927484
AnsiC,75000000,outputParallelSource1,2.608125
AnsiC,100000,outputParallelSource1,0.004160
AnsiC,135000,outputParallelSource1,0.005090
AnsiC,175000,outputParallelSource1,0.007239
AnsiC,235000,outputParallelSource1,0.009465
AnsiC,300000,outputParallelSource1,0.010845
AnsiC,420000,outputParallelSource1,0.016963
AnsiC,550000,outputParallelSource1,0.020509
AnsiC,750000,outputParallelSource1,0.027187
AnsiC,1000000,outputParallelSource1,0.037541
AnsiC,1350000,outputParallelSource1,0.049263
AnsiC,1750000,outputParallelSource1,0.063878
AnsiC,2350000,outputParallelSource1,0.084288
AnsiC,3000000,outputParallelSource1,0.110278
AnsiC,4200000,outputParallelSource1,0.148433
AnsiC,5500000,outputParallelSource1,0.194334
AnsiC,7500000,outputParallelSource1,0.274637
AnsiC,10000000,outputParallelSource1,0.357649
AnsiC,13500000,outputParallelSource1,0.476571
AnsiC,17500000,outputParallelSource1,0.607245
AnsiC,23500000,outputParallelSource1,0.815873
AnsiC,30000000,outputParallelSource1,1.060851
AnsiC,42000000,outputParallelSource1,1.474264
AnsiC,55000000,outputParallelSource1,1.927484
AnsiC,75000000,outputParallelSource1,2.608125
AnsiC,100000,outputParallelSource1,0.004160
AnsiC,135000,outputParallelSource1,0.005090
AnsiC,175000,outputParallelSource1,0.007239
AnsiC,235000,outputParallelSource1,0.009465
AnsiC,300000,outputParallelSource1,0.010845
AnsiC,420000,outputParallelSource1,0.016963
AnsiC,550000,outputParallelSource1,0.020509
AnsiC,750000,outputParallelSource1,0.027187
AnsiC,1000000,outputParallelSource1,0.037541
AnsiC,1350000,outputParallelSource1,0.049263
AnsiC,1750000,outputParallelSource1,0.063878
AnsiC,2350000,outputParallelSource1,0.084288
AnsiC,3000000,outputParallelSource1,0.110278
AnsiC,4200000,outputParallelSource1,0.148433
AnsiC,5500000,outputParallelSource1,0.194334
AnsiC,7500000,outputParallelSource1,0.274637
AnsiC,10000000,outputParallelSource1,0.357649
AnsiC,13500000,outputParallelSource1,0.476571
AnsiC,17500000,outputParallelSource1,0.607245
AnsiC,23500000,outputParallelSource1,0.815873
AnsiC,30000000,outputParallelSource1,1.060851
AnsiC,42000000,outputParallelSource1,1.474264
AnsiC,55000000,outputParallelSource1,1.927484
AnsiC,75000000,outputParallelSource1,2.608125
AnsiC,100000,outputParallelSource1,0.004160
AnsiC,135000,outputParallelSource1,0.005090
AnsiC,175000,outputParallelSource1,0.007239
AnsiC,235000,outputParallelSource1,0.009465
AnsiC,300000,outputParallelSource1,0.010845
AnsiC,420000,outputParallelSource1,0.016963
AnsiC,550000,outputParallelSource1,0.020509
AnsiC,750000,outputParallelSource1,0.027187
AnsiC,1000000,outputParallelSource1,0.037541
AnsiC,1350000,outputParallelSource1,0.049263
AnsiC,1750000,outputParallelSource1,0.063878
AnsiC,2350000,outputParallelSource1,0.084288
AnsiC,3000000,outputParallelSource1,0.110278
AnsiC,4200000,outputParallelSource1,0.148433
AnsiC,5500000,outputParallelSource1,0.194334
AnsiC,7500000,outputParallelSource1,0.274637
AnsiC,10000000,outputParallelSource1,0.357649
AnsiC,13500000,outputParallelSource1,0.476571
AnsiC,17500000,outputParallelSource1,0.607245
AnsiC,23500000,outputParallelSource1,0.815873
AnsiC,30000000,outputParallelSource1,1.060851
AnsiC,42000000,outputParallelSource1,1.474264
AnsiC,55000000,outputParallelSource1,1.927484
AnsiC,75000000,outputParallelSource1,2.608125
AnsiC,100000,outputParallelSource1,0.004160
AnsiC,135000,outputParallelSource1,0.005090
AnsiC,175000,outputParallelSource1,0.007239
AnsiC,235000,outputParallelSource1,0.009465
AnsiC,300000,outputParallelSource1,0.010845
AnsiC,420000,outputParallelSource1,0.016963
AnsiC,550000,outputParallelSource1,0.020509
AnsiC,750000,outputParallelSource1,0.027187
AnsiC,1000000,outputParallelSource1,0.037541
AnsiC,1350000,outputParallelSource1,0.049263
AnsiC,1750000,outputParallelSource1,0.063878
AnsiC,2350000,outputParallelSource1,0.084288
AnsiC,3000000,outputParallelSource1,0.110278
AnsiC,4200000,outputParallelSource1,0.148433
AnsiC,5500000,outputParallelSource1,0.194334
AnsiC,7500000,outputParallelSource1,0.274637
AnsiC,10000000,outputParallelSource1,0.357649
AnsiC,13500000,outputParallelSource1,0.476571
AnsiC,17500000,outputParallelSource1,0.607245
AnsiC,23500000,outputParallelSource1,0.815873
AnsiC,30000000,outputParallelSource1,1.060851
AnsiC,42000000,outputParallelSource1,1.474264
AnsiC,55000000,outputParallelSource1,1.927484
AnsiC,75000000,outputParallelSource1,2.608125
AnsiC,100000,outputParallelSource1,0.004160
AnsiC,135000,outputParallelSource1,0.005090
AnsiC,175000,outputParallelSource1,0.007239
AnsiC,235000,outputParallelSource1,0.009465
AnsiC,300000,outputParallelSource1,0.010845
AnsiC,420000,outputParallelSource1,0.016963
AnsiC,550000,outputParallelSource1,0.020509
AnsiC,750000,outputParallelSource1,0.027187
AnsiC,1000000,outputParallelSource1,0.037541
AnsiC,1350000,outputParallelSource1,0.049263
AnsiC,1750000,outputParallelSource1,0.063878
AnsiC,2350000,outputParallelSource1,0.084288
AnsiC,3000000,outputParallelSource1,0.110278
AnsiC,4200000,outputParallelSource1,0.148433
AnsiC,5500000,outputParallelSource1,0.194334
AnsiC,7500000,outputParallelSource1,0.274637
AnsiC,10000000,outputParallelSource1,0.357649
AnsiC,13500000,outputParallelSource1,0.476571
AnsiC,17500000,outputParallelSource1,0.607245
AnsiC,23500000,outputParallelSource1,0.815873
AnsiC,30000000,outputParallelSource1,1.060851
AnsiC,42000000,outputParallelSource1,1.474264
AnsiC,55000000,outputParallelSource1,1.927484
AnsiC,75000000,outputParallelSource1,2.608125
AnsiC,100000,outputParallelSource1,0.004160
AnsiC,135000,outputParallelSource1,0.005090
AnsiC,175000,outputParallelSource1,0.007239
AnsiC,235000,outputParallelSource1,0.009465
AnsiC,300000,outputParallelSource1,0.010845
AnsiC,420000,outputParallelSource1,0.016963
AnsiC,550000,outputParallelSource1,0.020509
AnsiC,750000,outputParallelSource1,0.027187
AnsiC,1000000,outputParallelSource1,0.037541
AnsiC,1350000,outputParallelSource1,0.049263
AnsiC,1750000,outputParallelSource1,0.063878
AnsiC,2350000,outputParallelSource1,0.084288
AnsiC,3000000,outputParallelSource1,0.110278
AnsiC,4200000,outputParallelSource1,0.148433
AnsiC,5500000,outputParallelSource1,0.194334
AnsiC,7500000,outputParallelSource1,0.274637
AnsiC,10000000,outputParallelSource1,0.357649
AnsiC,13500000,outputParallelSource1,0.476571
AnsiC,17500000,outputParallelSource1,0.607245
AnsiC,23500000,outputParallelSource1,0.815873
AnsiC,30000000,outputParallelSource1,1.060851
AnsiC,42000000,outputParallelSource1,1.474264
AnsiC,55000000,outputParallelSource1,1.927484
AnsiC,75000000,outputParallelSource1,2.608125
AnsiC,100000,outputParallelSource1,0.004160
AnsiC,135000,outputParallelSource1,0.005090
AnsiC,175000,outputParallelSource1,0.007239
AnsiC,235000,outputParallelSource1,0.009465
AnsiC,300000,outputParallelSource1,0.010845
AnsiC,420000,outputParallelSource1,0.016963
AnsiC,550000,outputParallelSource1,0.020509
AnsiC,750000,outputParallelSource1,0.027187
AnsiC,1000000,outputParallelSource1,0.037541
AnsiC,1350000,outputParallelSource1,0.049263
AnsiC,1750000,outputParallelSource1,0.063878
AnsiC,2350000,outputParallelSource1,0.084288
AnsiC,3000000,outputParallelSource1,0.110278
AnsiC,4200000,outputParallelSource1,0.148433
AnsiC,5500000,outputParallelSource1,0.194334
AnsiC,7500000,outputParallelSource1,0.274637
AnsiC,10000000,outputParallelSource1,0.357649
AnsiC,13500000,outputParallelSource1,0.476571
AnsiC,17500000,outputParallelSource1,0.607245
AnsiC,23500000,outputParallelSource1,0.815873
AnsiC,30000000,outputParallelSource1,1.060851
AnsiC,42000000,outputParallelSource1,1.474264
AnsiC,55000000,outputParallelSource1,1.927484
AnsiC,75000000,outputParallelSource1,2.608125
AnsiC,100000,outputParallelSource1,0.004160
AnsiC,135000,outputParallelSource1,0.005090
AnsiC,175000,outputParallelSource1,0.007239
AnsiC,235000,outputParallelSource1,0.009465
AnsiC,300000,outputParallelSource1,0.010845
AnsiC,420000,outputParallelSource1,0.016963
AnsiC,550000,outputParallelSource1,0.020509
AnsiC,750000,outputParallelSource1,0.027187
AnsiC,1000000,outputParallelSource1,0.037541
AnsiC,1350000,outputParallelSource1,0.049263
AnsiC,1750000,outputParallelSource1,0.063878
AnsiC,2350000,outputParallelSource1,0.084288
AnsiC,3000000,outputParallelSource1,0.110278
AnsiC,4200000,outputParallelSource1,0.148433
AnsiC,5500000,outputParallelSource1,0.194334
AnsiC,7500000,outputParallelSource1,0.274637
AnsiC,10000000,outputParallelSource1,0.357649
AnsiC,13500000,outputParallelSource1,0.476571
AnsiC,17500000,outputParallelSource1,0.607245
AnsiC,23500000,outputParallelSource1,0.815873
AnsiC,30000000,outputParallelSource1,1.060851
AnsiC,42000000,outputParallelSource1,1.474264
AnsiC,55000000,outputParallelSource1,1.927484
AnsiC,75000000,outputParallelSource1,2.608125
AnsiC,100000,outputParallelSource1,0.004160
AnsiC,135000,outputParallelSource1,0.005090
AnsiC,175000,outputParallelSource1,0.007239
AnsiC,235000,outputParallelSource1,0.009465
AnsiC,300000,outputParallelSource1,0.010845
AnsiC,420000,outputParallelSource1,0.016963
AnsiC,550000,outputParallelSource1,0.020509
AnsiC,750000,outputParallelSource1,0.027187
AnsiC,1000000,outputParallelSource1,0.037541
AnsiC,1350000,outputParallelSource1,0.049263
AnsiC,1750000,outputParallelSource1,0.063878
AnsiC,2350000,outputParallelSource1,0.084288
AnsiC,3000000,outputParallelSource1,0.110278
AnsiC,4200000,outputParallelSource1,0.148433
AnsiC,5500000,outputParallelSource1,0.194334
AnsiC,7500000,outputParallelSource1,0.274637
AnsiC,10000000,outputParallelSource1,0.357649
AnsiC,13500000,outputParallelSource1,0.476571
AnsiC,17500000,outputParallelSource1,0.607245
AnsiC,23500000,outputParallelSource1,0.815873
AnsiC,30000000,outputParallelSource1,1.060851
AnsiC,42000000,outputParallelSource1,1.474264
AnsiC,55000000,outputParallelSource1,1.927484
AnsiC,75000000,outputParallelSource1,2.608125
AnsiC,100000,outputParallelSource1,0.004160
AnsiC,135000,outputParallelSource1,0.005090
AnsiC,175000,outputParallelSource1,0.007239
AnsiC,235000,outputParallelSource1,0.009465
AnsiC,300000,outputParallelSource1,0.010845
AnsiC,420000,outputParallelSource1,0.016963
AnsiC,550000,outputParallelSource1,0.020509
AnsiC,750000,outputParallelSource1,0.027187
AnsiC,1000000,outputParallelSource1,0.037541
AnsiC,1350000,outputParallelSource1,0.049263
AnsiC,1750000,outputParallelSource1,0.063878
AnsiC,2350000,outputParallelSource1,0.084288
AnsiC,3000000,outputParallelSource1,0.110278
AnsiC,4200000,outputParallelSource1,0.148433
AnsiC,5500000,outputParallelSource1,0.194334
AnsiC,7500000,outputParallelSource1,0.274637
AnsiC,10000000,outputParallelSource1,0.357649
AnsiC,13500000,outputParallelSource1,0.476571
AnsiC,17500000,outputParallelSource1,0.607245
AnsiC,23500000,outputParallelSource1,0.815873
AnsiC,30000000,outputParallelSource1,1.060851
AnsiC,42000000,outputParallelSource1,1.474264
AnsiC,55000000,outputParallelSource1,1.927484
AnsiC,75000000,outputParallelSource1,2.608125
AnsiC,100000,outputParallelSource1,0.004160
AnsiC,135000,outputParallelSource1,0.005090
AnsiC,175000,outputParallelSource1,0.007239
AnsiC,235000,outputParallelSource1,0.009465
AnsiC,300000,outputParallelSource1,0.010845
AnsiC,420000,outputParallelSource1,0.016963
AnsiC,550000,outputParallelSource1,0.020509
AnsiC,750000,outputParallelSource1,0.027187
AnsiC,1000000,outputParallelSource1,0.037541
AnsiC,1350000,outputParallelSource1,0.049263
AnsiC,1750000,outputParallelSource1,0.063878
AnsiC,2350000,outputParallelSource1,0.084288
AnsiC,3000000,outputParallelSource1,0.110278
AnsiC,4200000,outputParallelSource1,0.148433
AnsiC,5500000,outputParallelSource1,0.194334
AnsiC,7500000,outputParallelSource1,0.274637
AnsiC,10000000,outputParallelSource1,0.357649
AnsiC,13500000,outputParallelSource1,0.476571
AnsiC,17500000,outputParallelSource1,0.607245
AnsiC,23500000,outputParallelSource1,0.815873
AnsiC,30000000,outputParallelSource1,1.060851
AnsiC,42000000,outputParallelSource1,1.474264
AnsiC,55000000,outputParallelSource1,1.927484
AnsiC,75000000,outputParallelSource1,2.608125
AnsiC,100000,outputParallelSource1,0.004160
AnsiC,135000,outputParallelSource1,0.005090
AnsiC,175000,outputParallelSource1,0.007239
AnsiC,235000,outputParallelSource1,0.009465
AnsiC,300000,outputParallelSource1,0.010845
AnsiC,420000,outputParallelSource1,0.016963
AnsiC,550000,outputParallelSource1,0.020509
AnsiC,750000,outputParallelSource1,0.027187
AnsiC,1000000,outputParallelSource1,0.037541
AnsiC,1350000,outputParallelSource1,0.049263
AnsiC,1750000,outputParallelSource1,0.063878
AnsiC,2350000,outputParallelSource1,0.084288
AnsiC,3000000,outputParallelSource1,0.110278
AnsiC,4200000,outputParallelSource1,0.148433
AnsiC,5500000,outputParallelSource1,0.194334
AnsiC,7500000,outputParallelSource1,0.274637
AnsiC,10000000,outputParallelSource1,0.357649
AnsiC,13500000,outputParallelSource1,0.476571
AnsiC,17500000,outputParallelSource1,0.607245
AnsiC,23500000,outputParallelSource1,0.815873
AnsiC,30000000,outputParallelSource1,1.060851
AnsiC,42000000,outputParallelSource1,1.474264
AnsiC,55000000,outputParallelSource1,1.927484
AnsiC,75000000,outputParallelSource1,2.608125
AnsiC,100000,outputParallelSource1,0.004160
AnsiC,135000,outputParallelSource1,0.005090
AnsiC,175000,outputParallelSource1,0.007239
AnsiC,235000,outputParallelSource1,0.009465
AnsiC,300000,outputParallelSource1,0.010845
AnsiC,420000,outputParallelSource1,0.016963
AnsiC,550000,outputParallelSource1,0.020509
AnsiC,750000,outputParallelSource1,0.027187
AnsiC,1000000,outputParallelSource1,0.037541
AnsiC,1350000,outputParallelSource1,0.049263
AnsiC,1750000,outputParallelSource1,0.063878
AnsiC,2350000,outputParallelSource1,0.084288
AnsiC,3000000,outputParallelSource1,0.110278
AnsiC,4200000,outputParallelSource1,0.148433
AnsiC,5500000,outputParallelSource1,0.194334
AnsiC,7500000,outputParallelSource1,0.274637
AnsiC,10000000,outputParallelSource1,0.357649
AnsiC,13500000,outputParallelSource1,0.476571
AnsiC,17500000,outputParallelSource1,0.607245
AnsiC,23500000,outputParallelSource1,0.815873
AnsiC,30000000,outputParallelSource1,1.060851
AnsiC,42000000,outputParallelSource1,1.474264
AnsiC,55000000,outputParallelSource1,1.927484
AnsiC,75000000,outputParallelSource1,2.608125
AnsiC,100000,outputParallelSource1,0.004160
AnsiC,135000,outputParallelSource1,0.005090
AnsiC,175000,outputParallelSource1,0.007239
AnsiC,235000,outputParallelSource1,0.009465
AnsiC,300000,outputParallelSource1,0.010845
AnsiC,420000,outputParallelSource1,0.016963
AnsiC,550000,outputParallelSource1,0.020509
AnsiC,750000,outputParallelSource1,0.027187
AnsiC,1000000,outputParallelSource1,0.037541
AnsiC,1350000,outputParallelSource1,0.049263
AnsiC,1750000,outputParallelSource1,0.063878
AnsiC,2350000,outputParallelSource1,0.084288
AnsiC,3000000,outputParallelSource1,0.110278
AnsiC,4200000,outputParallelSource1,0.148433
AnsiC,5500000,outputParallelSource1,0.194334
AnsiC,7500000,outputParallelSource1,0.274637
AnsiC,10000000,outputParallelSource1,0.357649
AnsiC,13500000,outputParallelSource1,0.476571
AnsiC,17500000,outputParallelSource1,0.607245
AnsiC,23500000,outputParallelSource1,0.815873
AnsiC,30000000,outputParallelSource1,1.060851
AnsiC,42000000,outputParallelSource1,1.474264
AnsiC,55000000,outputParallelSource1,1.927484
AnsiC,75000000,outputParallelSource1,2.608125
AnsiC,100000,outputParallelSource1,0.004160
AnsiC,135000,outputParallelSource1,0.005090
AnsiC,175000,outputParallelSource1,0.007239
AnsiC,235000,outputParallelSource1,0.009465
AnsiC,300000,outputParallelSource1,0.010845
AnsiC,420000,outputParallelSource1,0.016963
AnsiC,550000,outputParallelSource1,0.020509
AnsiC,750000,outputParallelSource1,0.027187
AnsiC,1000000,outputParallelSource1,0.037541
AnsiC,1350000,outputParallelSource1,0.049263
AnsiC,1750000,outputParallelSource1,0.063878
AnsiC,2350000,outputParallelSource1,0.084288
AnsiC,3000000,outputParallelSource1,0.110278
AnsiC,4200000,outputParallelSource1,0.148433
AnsiC,5500000,outputParallelSource1,0.194334
AnsiC,7500000,outputParallelSource1,0.274637
AnsiC,10000000,outputParallelSource1,0.357649
AnsiC,13500000,outputParallelSource1,0.476571
AnsiC,17500000,outputParallelSource1,0.607245
AnsiC,23500000,outputParallelSource1,0.815873
AnsiC,30000000,outputParallelSource1,1.060851
AnsiC,42000000,outputParallelSource1,1.474264
AnsiC,55000000,outputParallelSource1,1.927484
AnsiC,75000000,outputParallelSource1,2.608125
AnsiC,100000,outputParallelSource1,0.004160
AnsiC,135000,outputParallelSource1,0.005090
AnsiC,175000,outputParallelSource1,0.007239
AnsiC,235000,outputParallelSource1,0.009465
AnsiC,300000,outputParallelSource1,0.010845
AnsiC,420000,outputParallelSource1,0.016963
AnsiC,550000,outputParallelSource1,0.020509
AnsiC,750000,outputParallelSource1,0.027187
AnsiC,1000000,outputParallelSource1,0.037541
AnsiC,1350000,outputParallelSource1,0.049263
AnsiC,1750000,outputParallelSource1,0.063878
AnsiC,2350000,outputParallelSource1,0.084288
AnsiC,3000000,outputParallelSource1,0.110278
AnsiC,4200000,outputParallelSource1,0.148433
AnsiC,5500000,outputParallelSource1,0.194334
AnsiC,7500000,outputParallelSource1,0.274637
AnsiC,10000000,outputParallelSource1,0.357649
AnsiC,13500000,outputParallelSource1,0.476571
AnsiC,17500000,outputParallelSource1,0.607245
AnsiC,23500000,outputParallelSource1,0.815873
AnsiC,30000000,outputParallelSource1,1.060851
AnsiC,42000000,outputParallelSource1,1.474264
AnsiC,55000000,outputParallelSource1,1.927484
AnsiC,75000000,outputParallelSource1,2.608125
AnsiC,100000,outputParallelSource1,0.004160
AnsiC,135000,outputParallelSource1,0.005090
AnsiC,175000,outputParallelSource1,0.007239
AnsiC,235000,outputParallelSource1,0.009465
AnsiC,300000,outputParallelSource1,0.010845
AnsiC,420000,outputParallelSource1,0.016963
AnsiC,550000,outputParallelSource1,0.020509
AnsiC,750000,outputParallelSource1,0.027187
AnsiC,1000000,outputParallelSource1,0.037541
AnsiC,1350000,outputParallelSource1,0.049263
AnsiC,1750000,outputParallelSource1,0.063878
AnsiC,2350000,outputParallelSource1,0.084288
AnsiC,3000000,outputParallelSource1,0.110278
AnsiC,4200000,outputParallelSource1,0.148433
AnsiC,5500000,outputParallelSource1,0.194334
AnsiC,7500000,outputParallelSource1,0.274637
AnsiC,10000000,outputParallelSource1,0.357649
AnsiC,13500000,outputParallelSource1,0.476571
AnsiC,17500000,outputParallelSource1,0.607245
AnsiC,23500000,outputParallelSource1,0.815873
AnsiC,30000000,outputParallelSource1,1.060851
AnsiC,42000000,outputParallelSource1,1.474264
AnsiC,55000000,outputParallelSource1,1.927484
AnsiC,75000000,outputParallelSource1,2.608125
AnsiC,100000,outputParallelSource1,0.004160
AnsiC,135000,outputParallelSource1,0.005090
AnsiC,175000,outputParallelSource1,0.007239
AnsiC,235000,outputParallelSource1,0.009465
AnsiC,300000,outputParallelSource1,0.010845
AnsiC,420000,outputParallelSource1,0.016963
AnsiC,550000,outputParallelSource1,0.020509
AnsiC,750000,outputParallelSource1,0.027187
AnsiC,1000000,outputParallelSource1,0.037541
AnsiC,1350000,outputParallelSource1,0.049263
AnsiC,1750000,outputParallelSource1,0.063878
AnsiC,2350000,outputParallelSource1,0.084288
AnsiC,3000000,outputParallelSource1,0.110278
AnsiC,4200000,outputParallelSource1,0.148433
AnsiC,5500000,outputParallelSource1,0.194334
AnsiC,7500000,outputParallelSource1,0.274637
AnsiC,10000000,outputParallelSource1,0.357649
AnsiC,13500000,outputParallelSource1,0.476571
AnsiC,17500000,outputParallelSource1,0.607245
AnsiC,23500000,outputParallelSource1,0.815873
AnsiC,30000000,outputParallelSource1,1.060851
AnsiC,42000000,outputParallelSource1,1.474264
AnsiC,55000000,outputParallelSource1,1.927484
AnsiC,75000000,outputParallelSource1,2.608125
AnsiC,100000,outputParallelSource1,0.004160
AnsiC,135000,outputParallelSource1,0.005090
AnsiC,175000,outputParallelSource1,0.007239
AnsiC,235000,outputParallelSource1,0.009465
AnsiC,300000,outputParallelSource1,0.010845
AnsiC,420000,outputParallelSource1,0.016963
AnsiC,550000,outputParallelSource1,0.020509
AnsiC,750000,outputParallelSource1,0.027187
AnsiC,1000000,outputParallelSource1,0.037541
AnsiC,1350000,outputParallelSource1,0.049263
AnsiC,1750000,outputParallelSource1,0.063878
AnsiC,2350000,outputParallelSource1,0.084288
AnsiC,3000000,outputParallelSource1,0.110278
AnsiC,4200000,outputParallelSource1,0.148433
AnsiC,5500000,outputParallelSource1,0.194334
AnsiC,7500000,outputParallelSource1,0.274637
AnsiC,10000000,outputParallelSource1,0.357649
AnsiC,13500000,outputParallelSource1,0.476571
AnsiC,17500000,outputParallelSource1,0.607245
AnsiC,23500000,outputParallelSource1,0.815873
AnsiC,30000000,outputParallelSource1,1.060851
AnsiC,42000000,outputParallelSource1,1.474264
AnsiC,55000000,outputParallelSource1,1.927484
AnsiC,75000000,outputParallelSource1,2.608125
AnsiC,100000,outputParallelSource1,0.004160
AnsiC,135000,outputParallelSource1,0.005090
AnsiC,175000,outputParallelSource1,0.007239
AnsiC,235000,outputParallelSource1,0.009465
AnsiC,300000,outputParallelSource1,0.010845
AnsiC,420000,outputParallelSource1,0.016963
AnsiC,550000,outputParallelSource1,0.020509
AnsiC,750000,outputParallelSource1,0.027187
AnsiC,1000000,outputParallelSource1,0.037541
AnsiC,1350000,outputParallelSource1,0.049263
AnsiC,1750000,outputParallelSource1,0.063878
AnsiC,2350000,outputParallelSource1,0.084288
AnsiC,3000000,outputParallelSource1,0.110278
AnsiC,4200000,outputParallelSource1,0.148433
AnsiC,5500000,outputParallelSource1,0.194334
AnsiC,7500000,outputParallelSource1,0.274637
AnsiC,10000000,outputParallelSource1,0.357649
AnsiC,13500000,outputParallelSource1,0.476571
AnsiC,17500000,outputParallelSource1,0.607245
AnsiC,23500000,outputParallelSource1,0.815873
AnsiC,30000000,outputParallelSource1,1.060851
AnsiC,42000000,outputParallelSource1,1.474264
AnsiC,55000000,outputParallelSource1,1.927484
AnsiC,75000000,outputParallelSource1,2.608125
AnsiC,100000,outputParallelSource1,0.004160
AnsiC,135000,outputParallelSource1,0.005090
AnsiC,175000,outputParallelSource1,0.007239
AnsiC,235000,outputParallelSource1,0.009465
AnsiC,300000,outputParallelSource1,0.010845
AnsiC,420000,outputParallelSource1,0.016963
AnsiC,550000,outputParallelSource1,0.020509
AnsiC,750000,outputParallelSource1,0.027187
AnsiC,1000000,outputParallelSource1,0.037541
AnsiC,1350000,outputParallelSource1,0.049263
AnsiC,1750000,outputParallelSource1,0.063878
AnsiC,2350000,outputParallelSource1,0.084288
AnsiC,3000000,outputParallelSource1,0.110278
AnsiC,4200000,outputParallelSource1,0.148433
AnsiC,5500000,outputParallelSource1,0.194334
AnsiC,7500000,outputParallelSource1,0.274637
AnsiC,10000000,outputParallelSource1,0.357649
AnsiC,13500000,outputParallelSource1,0.476571
AnsiC,17500000,outputParallelSource1,0.607245
AnsiC,23500000,outputParallelSource1,0.815873
AnsiC,30000000,outputParallelSource1,1.060851
AnsiC,42000000,outputParallelSource1,1.474264
AnsiC,55000000,outputParallelSource1,1.927484
AnsiC,75000000,outputParallelSource1,2.608125
AnsiC,100000,outputParallelSource1,0.004160
AnsiC,135000,outputParallelSource1,0.005090
AnsiC,175000,outputParallelSource1,0.007239
AnsiC,235000,outputParallelSource1,0.009465
AnsiC,300000,outputParallelSource1,0.010845
AnsiC,420000,outputParallelSource1,0.016963
AnsiC,550000,outputParallelSource1,0.020509
AnsiC,750000,outputParallelSource1,0.027187
AnsiC,1000000,outputParallelSource1,0.037541
AnsiC,1350000,outputParallelSource1,0.049263
AnsiC,1750000,outputParallelSource1,0.063878
AnsiC,2350000,outputParallelSource1,0.084288
AnsiC,3000000,outputParallelSource1,0.110278
AnsiC,4200000,outputParallelSource1,0.148433
AnsiC,5500000,outputParallelSource1,0.194334
AnsiC,7500000,outputParallelSource1,0.274637
AnsiC,10000000,outputParallelSource1,0.357649
AnsiC,13500000,outputParallelSource1,0.476571
AnsiC,17500000,outputParallelSource1,0.607245
AnsiC,23500000,outputParallelSource1,0.815873
AnsiC,30000000,outputParallelSource1,1.060851
AnsiC,42000000,outputParallelSource1,1.474264
AnsiC,55000000,outputParallelSource1,1.927484
AnsiC,75000000,outputParallelSource1,2.608125
AnsiC,100000,outputParallelSource1,0.004160
AnsiC,135000,outputParallelSource1,0.005090
AnsiC,175000,outputParallelSource1,0.007239
AnsiC,235000,outputParallelSource1,0.009465
AnsiC,300000,outputParallelSource1,0.010845
AnsiC,420000,outputParallelSource1,0.016963
AnsiC,550000,outputParallelSource1,0.020509
AnsiC,750000,outputParallelSource1,0.027187
AnsiC,1000000,outputParallelSource1,0.037541
AnsiC,1350000,outputParallelSource1,0.049263
AnsiC,1750000,outputParallelSource1,0.063878
AnsiC,2350000,outputParallelSource1,0.084288
AnsiC,3000000,outputParallelSource1,0.110278
AnsiC,4200000,outputParallelSource1,0.148433
AnsiC,5500000,outputParallelSource1,0.194334
AnsiC,7500000,outputParallelSource1,0.274637
AnsiC,10000000,outputParallelSource1,0.357649
AnsiC,13500000,outputParallelSource1,0.476571
AnsiC,17500000,outputParallelSource1,0.607245
AnsiC,23500000,outputParallelSource1,0.815873
AnsiC,30000000,outputParallelSource1,1.060851
AnsiC,42000000,outputParallelSource1,1.474264
AnsiC,55000000,outputParallelSource1,1.927484
AnsiC,75000000,outputParallelSource1,2.608125
