Platform,Iterations,ModelName,Time
GPU 1 OpenCL,100000,outputParallelSource3,0.042578
GPU 1 OpenCL,135000,outputParallelSource3,0.044999
GPU 1 OpenCL,175000,outputParallelSource3,0.047964
GPU 1 OpenCL,235000,outputParallelSource3,0.046651
GPU 1 OpenCL,300000,outputParallelSource3,0.050148
GPU 1 OpenCL,420000,outputParallelSource3,0.061193
GPU 1 OpenCL,550000,outputParallelSource3,0.068151
GPU 1 OpenCL,750000,outputParallelSource3,0.075203
GPU 1 OpenCL,1000000,outputParallelSource3,0.093309
GPU 1 OpenCL,1350000,outputParallelSource3,0.104216
GPU 1 OpenCL,1750000,outputParallelSource3,0.127505
GPU 1 OpenCL,2350000,outputParallelSource3,0.153100
GPU 1 OpenCL,3000000,outputParallelSource3,0.182229
GPU 1 OpenCL,4200000,outputParallelSource3,0.239737
GPU 1 OpenCL,5500000,outputParallelSource3,0.307139
GPU 1 OpenCL,7500000,outputParallelSource3,0.399798
GPU 1 OpenCL,10000000,outputParallelSource3,0.520309
GPU 1 OpenCL,13500000,outputParallelSource3,0.687368
GPU 1 OpenCL,17500000,outputParallelSource3,0.900739
GPU 1 OpenCL,23500000,outputParallelSource3,1.167192
GPU 1 OpenCL,30000000,outputParallelSource3,1.501837
GPU 1 OpenCL,42000000,outputParallelSource3,2.061666
GPU 1 OpenCL,55000000,outputParallelSource3,2.634113
GPU 1 OpenCL,75000000,outputParallelSource3,3.570633
