Platform,Iterations,ModelName,Time
GPU 0 OpenCL,100000,outputParallelSource3,0.033369
GPU 0 OpenCL,135000,outputParallelSource3,0.034199
GPU 0 OpenCL,175000,outputParallelSource3,0.036439
GPU 0 OpenCL,235000,outputParallelSource3,0.043264
GPU 0 OpenCL,300000,outputParallelSource3,0.043067
GPU 0 OpenCL,420000,outputParallelSource3,0.053533
GPU 0 OpenCL,550000,outputParallelSource3,0.054998
GPU 0 OpenCL,750000,outputParallelSource3,0.064747
GPU 0 OpenCL,1000000,outputParallelSource3,0.077566
GPU 0 OpenCL,1350000,outputParallelSource3,0.095388
GPU 0 OpenCL,1750000,outputParallelSource3,0.114563
GPU 0 OpenCL,2350000,outputParallelSource3,0.145612
GPU 0 OpenCL,3000000,outputParallelSource3,0.179827
GPU 0 OpenCL,4200000,outputParallelSource3,0.231244
GPU 0 OpenCL,5500000,outputParallelSource3,0.296565
GPU 0 OpenCL,7500000,outputParallelSource3,0.393481
GPU 0 OpenCL,10000000,outputParallelSource3,0.502442
GPU 0 OpenCL,13500000,outputParallelSource3,0.681629
GPU 0 OpenCL,17500000,outputParallelSource3,0.867648
GPU 0 OpenCL,23500000,outputParallelSource3,1.147471
GPU 0 OpenCL,30000000,outputParallelSource3,1.475486
GPU 0 OpenCL,42000000,outputParallelSource3,2.068965
GPU 0 OpenCL,55000000,outputParallelSource3,2.533954
GPU 0 OpenCL,75000000,outputParallelSource3,3.509631
