Platform,Iterations,ModelName,Time
AnsiC,100000,outputParallelLoopSource1,0.028935
AnsiC,135000,outputParallelLoopSource1,0.034100
AnsiC,175000,outputParallelLoopSource1,0.047067
AnsiC,235000,outputParallelLoopSource1,0.061043
AnsiC,300000,outputParallelLoopSource1,0.078177
AnsiC,420000,outputParallelLoopSource1,0.108330
AnsiC,550000,outputParallelLoopSource1,0.139750
AnsiC,750000,outputParallelLoopSource1,0.195909
AnsiC,1000000,outputParallelLoopSource1,0.254841
AnsiC,1350000,outputParallelLoopSource1,0.337508
AnsiC,1750000,outputParallelLoopSource1,0.462285
AnsiC,2350000,outputParallelLoopSource1,0.596515
AnsiC,3000000,outputParallelLoopSource1,0.778889
AnsiC,4200000,outputParallelLoopSource1,1.082982
AnsiC,5500000,outputParallelLoopSource1,1.392748
AnsiC,7500000,outputParallelLoopSource1,1.893973
AnsiC,10000000,outputParallelLoopSource1,2.527313
AnsiC,13500000,outputParallelLoopSource1,3.420440
AnsiC,17500000,outputParallelLoopSource1,4.426989
AnsiC,23500000,outputParallelLoopSource1,5.932848
AnsiC,30000000,outputParallelLoopSource1,7.588565
AnsiC,42000000,outputParallelLoopSource1,10.574909