\relax 
\@writefile{toc}{\contentsline {section}{\numberline {1}Introduction}{1}}
\@writefile{lof}{\contentsline {figure}{\numberline {1}{\ignorespaces The system with 2 processors requires 40\% of the energy of the one with the single processor, but with the same performance}}{2}}
\newlabel{fig:powerOnevsTwoCores}{{1}{2}}
\@writefile{toc}{\contentsline {section}{\numberline {2}Background}{3}}
\@writefile{toc}{\contentsline {subsection}{\numberline {2.1}Causal Block Diagrams}{3}}
\@writefile{lof}{\contentsline {figure}{\numberline {2}{\ignorespaces A CBD Model with a linear algebraic loop}}{4}}
\newlabel{fig:cbdAlgebraicLoop}{{2}{4}}
\@writefile{lof}{\contentsline {figure}{\numberline {3}{\ignorespaces The dependency graph of a CBD with an algebraic loop $O(n+e)$}}{4}}
\newlabel{fig:cbdAlgebraicLoopDepGraph}{{3}{4}}
\@writefile{toc}{\contentsline {subsection}{\numberline {2.2}Parallel Computing}{5}}
\@writefile{toc}{\contentsline {subsection}{\numberline {2.3}Parallel Computing Devices}{5}}
\@writefile{toc}{\contentsline {subsubsection}{\numberline {2.3.1}GPU}{5}}
\@writefile{lof}{\contentsline {figure}{\numberline {4}{\ignorespaces The workgroup abstraction for GPU compute devices by the OpenCL framework}}{6}}
\newlabel{fig:ndRangeGpu}{{4}{6}}
\@writefile{toc}{\contentsline {subsubsection}{\numberline {2.3.2}Multi-core Processors}{6}}
\@writefile{lof}{\contentsline {figure}{\numberline {5}{\ignorespaces The shared memory model. Threads can have private and shared memory space}}{7}}
\newlabel{fig:sharedMemoryModel}{{5}{7}}
\@writefile{toc}{\contentsline {subsubsection}{\numberline {2.3.3}Pipeline}{7}}
\@writefile{toc}{\contentsline {section}{\numberline {3}Data Decomposition for CBDs}{8}}
\@writefile{lof}{\contentsline {figure}{\numberline {6}{\ignorespaces A pipeline that contains both serial and parallel stages}}{9}}
\newlabel{fig:parallelPipeline}{{6}{9}}
\@writefile{lof}{\contentsline {figure}{\numberline {7}{\ignorespaces The iterator pattern can help in processing large amounts of date by splitting the parallelization into manageable data chunks}}{10}}
\newlabel{fig:iteratorPattern}{{7}{10}}
\@writefile{lof}{\contentsline {figure}{\numberline {8}{\ignorespaces Data Decomposition with the "ParallelFor" construct}}{10}}
\newlabel{fig:parallelFor}{{8}{10}}
\@writefile{toc}{\contentsline {section}{\numberline {4}Task Decomposition for CBDs}{11}}
\@writefile{toc}{\contentsline {section}{\numberline {5}Pipeline Decomposition for CBDs}{11}}
\@writefile{lof}{\contentsline {figure}{\numberline {9}{\ignorespaces Even though the task decomposition technique increases the overall utilisation, it isn't 100\% efficient due to irregular patterns and "gaps" between the execution of the tasks.}}{12}}
\newlabel{fig:taskDecompositionSIdleProblem}{{9}{12}}
\@writefile{lof}{\contentsline {figure}{\numberline {10}{\ignorespaces The order that the Depth First Traversal algorithm follows}}{13}}
\newlabel{fig:DFS}{{10}{13}}
\@writefile{lof}{\contentsline {figure}{\numberline {11}{\ignorespaces Sample computational Weight for CBD blocks}}{14}}
\newlabel{fig:computationalCost}{{11}{14}}
\@writefile{lof}{\contentsline {figure}{\numberline {12}{\ignorespaces The procedure to generate a "close to optimal" pipeline stage task distribution for the given CBD model}}{15}}
\newlabel{fig:PipelineStagesGeneration}{{12}{15}}
\@writefile{toc}{\contentsline {section}{\numberline {6}Impementation}{15}}
\@writefile{lof}{\contentsline {figure}{\numberline {13}{\ignorespaces The Reverse Dependency graph of a CBD with an algebraic loop}}{16}}
\newlabel{fig:cbdAlgebraicLoopReverseDepGraph}{{13}{16}}
\@writefile{lof}{\contentsline {figure}{\numberline {14}{\ignorespaces The generated 3D graph output using the OpenGL framework to draw the input and output signals}}{17}}
\newlabel{fig:3dGraphOutput}{{14}{17}}
\@writefile{lof}{\contentsline {figure}{\numberline {15}{\ignorespaces The Complete parallelization workflow}}{18}}
\newlabel{fig:pictureAll}{{15}{18}}
\@writefile{toc}{\contentsline {section}{\numberline {7}Experiments}{18}}
\@writefile{toc}{\contentsline {subsection}{\numberline {7.1}Experimental Setup}{18}}
\@writefile{toc}{\contentsline {subsection}{\numberline {7.2}Results}{19}}
\@writefile{lof}{\contentsline {figure}{\numberline {16}{\ignorespaces Simulation execution times for CBD Model with 5 Blocks and 1 Algebraic Loop. Machine used: Mac Book Pro Mid 2012 (Processor: 2.6 GHz Intel Core i7, Memory 8GB DDR3, IGP: Intel HD Graphics 4000 1024MB, External GPU: Nvidia GTX 650M 1024MB)}}{19}}
\newlabel{fig:tests6Blocks}{{7.2}{19}}
\@writefile{lof}{\contentsline {figure}{\numberline {17}{\ignorespaces Simulation tims for CBD Model with 15 Blocks and no Algebraic Loops. Machine used: Mac Book Pro Mid 2012 (Processor: 2.6 GHz Intel Core i7, Memory 8GB DDR3, IGP: Intel HD Graphics 4000 1024MB, External GPU: Nvidia GTX 650M 1024MB)}}{20}}
\newlabel{fig:tests16Blocks}{{7.2}{20}}
\bibstyle{elsarticle-harv}
\bibcite{key}{{1}{}{{}}{{}}}
\bibcite{key}{{2}{}{{}}{{}}}
\bibcite{key}{{3}{}{{}}{{}}}
\bibcite{key}{{4}{}{{}}{{}}}
\bibcite{key}{{5}{}{{}}{{}}}
\bibcite{key}{{6}{}{{}}{{}}}
\bibcite{key}{{7}{}{{}}{{}}}
\@writefile{toc}{\contentsline {section}{\numberline {8}Conclusions and Future work}{22}}
\@writefile{toc}{\contentsline {section}{\numberline {9}References}{22}}
\bibcite{key}{{8}{}{{}}{{}}}
\providecommand\NAT@force@numbers{}\NAT@force@numbers
