Platform,Iterations,ModelName,Time
GPU 0 OpenCL,100000,outputParallelSource2,0.032689
GPU 0 OpenCL,135000,outputParallelSource2,0.033540
GPU 0 OpenCL,175000,outputParallelSource2,0.039188
GPU 0 OpenCL,235000,outputParallelSource2,0.038300
GPU 0 OpenCL,300000,outputParallelSource2,0.042163
GPU 0 OpenCL,420000,outputParallelSource2,0.047220
GPU 0 OpenCL,550000,outputParallelSource2,0.049272
GPU 0 OpenCL,750000,outputParallelSource2,0.059573
GPU 0 OpenCL,1000000,outputParallelSource2,0.069517
GPU 0 OpenCL,1350000,outputParallelSource2,0.086543
GPU 0 OpenCL,1750000,outputParallelSource2,0.100864
GPU 0 OpenCL,2350000,outputParallelSource2,0.124120
GPU 0 OpenCL,3000000,outputParallelSource2,0.155417
GPU 0 OpenCL,4200000,outputParallelSource2,0.198446
GPU 0 OpenCL,5500000,outputParallelSource2,0.249406
GPU 0 OpenCL,7500000,outputParallelSource2,0.332395
GPU 0 OpenCL,10000000,outputParallelSource2,0.418707
GPU 0 OpenCL,13500000,outputParallelSource2,0.567857
GPU 0 OpenCL,17500000,outputParallelSource2,0.728953
GPU 0 OpenCL,23500000,outputParallelSource2,0.951980
GPU 0 OpenCL,30000000,outputParallelSource2,1.203702
GPU 0 OpenCL,42000000,outputParallelSource2,1.652099
GPU 0 OpenCL,55000000,outputParallelSource2,2.131124
GPU 0 OpenCL,75000000,outputParallelSource2,2.927323
