Platform,Iterations,ModelName,Time
ParallelForOpenMP,100000,outputParallelSource2,0.004885
ParallelForOpenMP,135000,outputParallelSource2,0.005629
ParallelForOpenMP,175000,outputParallelSource2,0.007872
ParallelForOpenMP,235000,outputParallelSource2,0.011175
ParallelForOpenMP,300000,outputParallelSource2,0.012972
ParallelForOpenMP,420000,outputParallelSource2,0.018172
ParallelForOpenMP,550000,outputParallelSource2,0.021812
ParallelForOpenMP,750000,outputParallelSource2,0.028810
ParallelForOpenMP,1000000,outputParallelSource2,0.038454
ParallelForOpenMP,1350000,outputParallelSource2,0.051493
ParallelForOpenMP,1750000,outputParallelSource2,0.065911
ParallelForOpenMP,2350000,outputParallelSource2,0.090683
ParallelForOpenMP,3000000,outputParallelSource2,0.118253
ParallelForOpenMP,4200000,outputParallelSource2,0.160485
ParallelForOpenMP,5500000,outputParallelSource2,0.210535
ParallelForOpenMP,7500000,outputParallelSource2,0.273159
ParallelForOpenMP,10000000,outputParallelSource2,0.376371
ParallelForOpenMP,13500000,outputParallelSource2,0.504544
ParallelForOpenMP,17500000,outputParallelSource2,0.633418
ParallelForOpenMP,23500000,outputParallelSource2,0.861860
ParallelForOpenMP,30000000,outputParallelSource2,1.092153
ParallelForOpenMP,42000000,outputParallelSource2,1.513395
ParallelForOpenMP,55000000,outputParallelSource2,1.984778
ParallelForOpenMP,75000000,outputParallelSource2,2.581923
