Platform,Iterations,ModelName,Time
ParallelForOpenMP,100000,outputParallelLoopSource1,0.011878
ParallelForOpenMP,135000,outputParallelLoopSource1,0.015834
ParallelForOpenMP,175000,outputParallelLoopSource1,0.015580
ParallelForOpenMP,235000,outputParallelLoopSource1,0.024931
ParallelForOpenMP,300000,outputParallelLoopSource1,0.026469
ParallelForOpenMP,420000,outputParallelLoopSource1,0.038449
ParallelForOpenMP,550000,outputParallelLoopSource1,0.048967
ParallelForOpenMP,750000,outputParallelLoopSource1,0.064615
ParallelForOpenMP,1000000,outputParallelLoopSource1,0.088488
ParallelForOpenMP,1350000,outputParallelLoopSource1,0.121796
ParallelForOpenMP,1750000,outputParallelLoopSource1,0.153367
ParallelForOpenMP,2350000,outputParallelLoopSource1,0.206263
ParallelForOpenMP,3000000,outputParallelLoopSource1,0.263784
ParallelForOpenMP,4200000,outputParallelLoopSource1,0.364055
ParallelForOpenMP,5500000,outputParallelLoopSource1,0.472737
ParallelForOpenMP,7500000,outputParallelLoopSource1,0.641780
ParallelForOpenMP,10000000,outputParallelLoopSource1,0.864792
ParallelForOpenMP,13500000,outputParallelLoopSource1,1.176965
ParallelForOpenMP,17500000,outputParallelLoopSource1,1.493976
ParallelForOpenMP,23500000,outputParallelLoopSource1,2.010769
ParallelForOpenMP,30000000,outputParallelLoopSource1,2.596536
ParallelForOpenMP,42000000,outputParallelLoopSource1,3.592248
ParallelForOpenMP,55000000,outputParallelLoopSource1,4.695174
ParallelForOpenMP,75000000,outputParallelLoopSource1,6.393971
