Platform,Iterations,ModelName,Time
PipeLineIntelTBB,100000,outputParallelLoopSource1,0.051454
PipeLineIntelTBB,135000,outputParallelLoopSource1,0.069991
PipeLineIntelTBB,175000,outputParallelLoopSource1,0.090102
PipeLineIntelTBB,235000,outputParallelLoopSource1,0.120032
PipeLineIntelTBB,300000,outputParallelLoopSource1,0.152726
PipeLineIntelTBB,420000,outputParallelLoopSource1,0.215410
PipeLineIntelTBB,550000,outputParallelLoopSource1,0.282270
PipeLineIntelTBB,750000,outputParallelLoopSource1,0.381733
PipeLineIntelTBB,1000000,outputParallelLoopSource1,0.506762
PipeLineIntelTBB,1350000,outputParallelLoopSource1,0.684299
PipeLineIntelTBB,1750000,outputParallelLoopSource1,0.886914
PipeLineIntelTBB,2350000,outputParallelLoopSource1,1.192596
PipeLineIntelTBB,3000000,outputParallelLoopSource1,1.521007
PipeLineIntelTBB,4200000,outputParallelLoopSource1,2.120950
PipeLineIntelTBB,5500000,outputParallelLoopSource1,2.787934
PipeLineIntelTBB,7500000,outputParallelLoopSource1,3.797111
PipeLineIntelTBB,10000000,outputParallelLoopSource1,5.053622
PipeLineIntelTBB,13500000,outputParallelLoopSource1,6.861759
PipeLineIntelTBB,17500000,outputParallelLoopSource1,8.864471
PipeLineIntelTBB,23500000,outputParallelLoopSource1,11.851680
PipeLineIntelTBB,30000000,outputParallelLoopSource1,15.190805
PipeLineIntelTBB,42000000,outputParallelLoopSource1,21.235171
PipeLineIntelTBB,55000000,outputParallelLoopSource1,27.732855
PipeLineIntelTBB,75000000,outputParallelLoopSource1,38.037411
