Platform,Iterations,ModelName,Success,Time
AnsiC,100000,outputParallelLoopSource1,0,0.025354
ParallelForOpenMP,100000,outputParallelLoopSource1,0,0.008980
GPU 0 OpenCL,100000,outputParallelLoopSource1,0,0.046262
GPU 1 OpenCL,100000,outputParallelLoopSource1,0,0.053125
AnsiC,135000,outputParallelLoopSource1,0,0.033637
ParallelForOpenMP,135000,outputParallelLoopSource1,0,0.013526
GPU 0 OpenCL,135000,outputParallelLoopSource1,0,0.033155
GPU 1 OpenCL,135000,outputParallelLoopSource1,0,0.040172
AnsiC,175000,outputParallelLoopSource1,0,0.044563
ParallelForOpenMP,175000,outputParallelLoopSource1,0,0.015874
GPU 0 OpenCL,175000,outputParallelLoopSource1,0,0.036076
GPU 1 OpenCL,175000,outputParallelLoopSource1,0,0.043338
AnsiC,235000,outputParallelLoopSource1,0,0.061248
ParallelForOpenMP,235000,outputParallelLoopSource1,0,0.022331
GPU 0 OpenCL,235000,outputParallelLoopSource1,0,0.037059
GPU 1 OpenCL,235000,outputParallelLoopSource1,0,0.047258
