Platform,Iterations,ModelName,Success,Time
AnsiC,100000,outputParallelLoopSource1,0,0.028935
ParallelForOpenMP,100000,outputParallelLoopSource1,0,0.010068
GPU 0 OpenCL,100000,outputParallelLoopSource1,0,0.031664
GPU 1 OpenCL,100000,outputParallelLoopSource1,0,0.040064
AnsiC,135000,outputParallelLoopSource1,0,0.034100
ParallelForOpenMP,135000,outputParallelLoopSource1,0,0.014345
GPU 0 OpenCL,135000,outputParallelLoopSource1,0,0.033531
GPU 1 OpenCL,135000,outputParallelLoopSource1,0,0.040063
AnsiC,175000,outputParallelLoopSource1,0,0.047067
ParallelForOpenMP,175000,outputParallelLoopSource1,0,0.017367
GPU 0 OpenCL,175000,outputParallelLoopSource1,0,0.032600
GPU 1 OpenCL,175000,outputParallelLoopSource1,0,0.039533
AnsiC,235000,outputParallelLoopSource1,0,0.061043
ParallelForOpenMP,235000,outputParallelLoopSource1,0,0.026161
GPU 0 OpenCL,235000,outputParallelLoopSource1,0,0.034716
GPU 1 OpenCL,235000,outputParallelLoopSource1,0,0.039268
AnsiC,300000,outputParallelLoopSource1,0,0.078177
ParallelForOpenMP,300000,outputParallelLoopSource1,0,0.029179
GPU 0 OpenCL,300000,outputParallelLoopSource1,0,0.036933
GPU 1 OpenCL,300000,outputParallelLoopSource1,0,0.042048
AnsiC,420000,outputParallelLoopSource1,0,0.108330
ParallelForOpenMP,420000,outputParallelLoopSource1,0,0.042651
GPU 0 OpenCL,420000,outputParallelLoopSource1,0,0.043265
GPU 1 OpenCL,420000,outputParallelLoopSource1,0,0.044387
AnsiC,550000,outputParallelLoopSource1,0,0.139750
ParallelForOpenMP,550000,outputParallelLoopSource1,0,0.053363
GPU 0 OpenCL,550000,outputParallelLoopSource1,0,0.049550
GPU 1 OpenCL,550000,outputParallelLoopSource1,0,0.047840
AnsiC,750000,outputParallelLoopSource1,0,0.195909
ParallelForOpenMP,750000,outputParallelLoopSource1,0,0.072676
GPU 0 OpenCL,750000,outputParallelLoopSource1,0,0.051442
GPU 1 OpenCL,750000,outputParallelLoopSource1,0,0.054550
AnsiC,1000000,outputParallelLoopSource1,0,0.254841
ParallelForOpenMP,1000000,outputParallelLoopSource1,0,0.097051
GPU 0 OpenCL,1000000,outputParallelLoopSource1,0,0.058349
GPU 1 OpenCL,1000000,outputParallelLoopSource1,0,0.061023
AnsiC,1350000,outputParallelLoopSource1,0,0.337508
ParallelForOpenMP,1350000,outputParallelLoopSource1,0,0.137141
GPU 0 OpenCL,1350000,outputParallelLoopSource1,0,0.076811
GPU 1 OpenCL,1350000,outputParallelLoopSource1,0,0.069921
AnsiC,1750000,outputParallelLoopSource1,0,0.462285
ParallelForOpenMP,1750000,outputParallelLoopSource1,0,0.176688
GPU 0 OpenCL,1750000,outputParallelLoopSource1,0,0.080985
GPU 1 OpenCL,1750000,outputParallelLoopSource1,0,0.084615
AnsiC,2350000,outputParallelLoopSource1,0,0.596515
ParallelForOpenMP,2350000,outputParallelLoopSource1,0,0.235780
GPU 0 OpenCL,2350000,outputParallelLoopSource1,0,0.103592
GPU 1 OpenCL,2350000,outputParallelLoopSource1,0,0.093824
AnsiC,3000000,outputParallelLoopSource1,0,0.778889
ParallelForOpenMP,3000000,outputParallelLoopSource1,0,0.291325
GPU 0 OpenCL,3000000,outputParallelLoopSource1,0,0.125826
GPU 1 OpenCL,3000000,outputParallelLoopSource1,0,0.117520
AnsiC,4200000,outputParallelLoopSource1,0,1.082982
ParallelForOpenMP,4200000,outputParallelLoopSource1,0,0.404715
GPU 0 OpenCL,4200000,outputParallelLoopSource1,0,0.153453
GPU 1 OpenCL,4200000,outputParallelLoopSource1,0,0.140479
AnsiC,5500000,outputParallelLoopSource1,0,1.392748
ParallelForOpenMP,5500000,outputParallelLoopSource1,0,0.533290
GPU 0 OpenCL,5500000,outputParallelLoopSource1,0,0.199928
GPU 1 OpenCL,5500000,outputParallelLoopSource1,0,0.168770
AnsiC,7500000,outputParallelLoopSource1,0,1.893973
ParallelForOpenMP,7500000,outputParallelLoopSource1,0,0.745489
GPU 0 OpenCL,7500000,outputParallelLoopSource1,0,0.254743
GPU 1 OpenCL,7500000,outputParallelLoopSource1,0,0.223738
AnsiC,10000000,outputParallelLoopSource1,0,2.527313
ParallelForOpenMP,10000000,outputParallelLoopSource1,0,0.976391
GPU 0 OpenCL,10000000,outputParallelLoopSource1,0,0.332700
GPU 1 OpenCL,10000000,outputParallelLoopSource1,0,0.283572
AnsiC,13500000,outputParallelLoopSource1,0,3.420440
ParallelForOpenMP,13500000,outputParallelLoopSource1,0,1.421510
GPU 0 OpenCL,13500000,outputParallelLoopSource1,0,0.441006
GPU 1 OpenCL,13500000,outputParallelLoopSource1,0,0.367799
AnsiC,17500000,outputParallelLoopSource1,0,4.426989
ParallelForOpenMP,17500000,outputParallelLoopSource1,0,1.716908
GPU 0 OpenCL,17500000,outputParallelLoopSource1,0,0.558438
GPU 1 OpenCL,17500000,outputParallelLoopSource1,0,0.467918
AnsiC,23500000,outputParallelLoopSource1,0,5.932848
ParallelForOpenMP,23500000,outputParallelLoopSource1,0,2.288778
GPU 0 OpenCL,23500000,outputParallelLoopSource1,0,0.743223
GPU 1 OpenCL,23500000,outputParallelLoopSource1,0,0.601916
AnsiC,30000000,outputParallelLoopSource1,0,7.588565
ParallelForOpenMP,30000000,outputParallelLoopSource1,0,2.953268
GPU 0 OpenCL,30000000,outputParallelLoopSource1,0,0.935296
GPU 1 OpenCL,30000000,outputParallelLoopSource1,0,0.765710
AnsiC,42000000,outputParallelLoopSource1,0,10.574909
ParallelForOpenMP,42000000,outputParallelLoopSource1,0,4.073362
GPU 0 OpenCL,42000000,outputParallelLoopSource1,0,1.285982
GPU 1 OpenCL,42000000,outputParallelLoopSource1,0,1.055158
AnsiC,55000000,outputParallelLoopSource1,0,13.837150
ParallelForOpenMP,55000000,outputParallelLoopSource1,0,5.331003
GPU 0 OpenCL,55000000,outputParallelLoopSource1,0,1.717890
GPU 1 OpenCL,55000000,outputParallelLoopSource1,0,1.387988
AnsiC,75000000,outputParallelLoopSource1,0,18.898825
ParallelForOpenMP,75000000,outputParallelLoopSource1,0,7.262333
GPU 0 OpenCL,75000000,outputParallelLoopSource1,0,1.834244
GPU 1 OpenCL,75000000,outputParallelLoopSource1,0,1.863524
AnsiC,100000,outputParallelSource1,0,0.004160
ParallelForOpenMP,100000,outputParallelSource1,0,0.003461
GPU 0 OpenCL,100000,outputParallelSource1,0,0.031327
GPU 1 OpenCL,100000,outputParallelSource1,0,0.038238
AnsiC,135000,outputParallelSource1,0,0.005090
ParallelForOpenMP,135000,outputParallelSource1,0,0.005225
GPU 0 OpenCL,135000,outputParallelSource1,0,0.035414
GPU 1 OpenCL,135000,outputParallelSource1,0,0.039242
AnsiC,175000,outputParallelSource1,0,0.007239
ParallelForOpenMP,175000,outputParallelSource1,0,0.005860
GPU 0 OpenCL,175000,outputParallelSource1,0,0.032338
GPU 1 OpenCL,175000,outputParallelSource1,0,0.039815
AnsiC,235000,outputParallelSource1,0,0.009465
ParallelForOpenMP,235000,outputParallelSource1,0,0.007345
GPU 0 OpenCL,235000,outputParallelSource1,0,0.034427
GPU 1 OpenCL,235000,outputParallelSource1,0,0.041696
AnsiC,300000,outputParallelSource1,0,0.010845
ParallelForOpenMP,300000,outputParallelSource1,0,0.009433
GPU 0 OpenCL,300000,outputParallelSource1,0,0.036761
GPU 1 OpenCL,300000,outputParallelSource1,0,0.043804
AnsiC,420000,outputParallelSource1,0,0.016963
ParallelForOpenMP,420000,outputParallelSource1,0,0.012572
GPU 0 OpenCL,420000,outputParallelSource1,0,0.040306
GPU 1 OpenCL,420000,outputParallelSource1,0,0.049713
AnsiC,550000,outputParallelSource1,0,0.020509
ParallelForOpenMP,550000,outputParallelSource1,0,0.018198
GPU 0 OpenCL,550000,outputParallelSource1,0,0.044006
GPU 1 OpenCL,550000,outputParallelSource1,0,0.053468
AnsiC,750000,outputParallelSource1,0,0.027187
ParallelForOpenMP,750000,outputParallelSource1,0,0.024941
GPU 0 OpenCL,750000,outputParallelSource1,0,0.050640
GPU 1 OpenCL,750000,outputParallelSource1,0,0.058865
AnsiC,1000000,outputParallelSource1,0,0.037541
ParallelForOpenMP,1000000,outputParallelSource1,0,0.031051
GPU 0 OpenCL,1000000,outputParallelSource1,0,0.059484
GPU 1 OpenCL,1000000,outputParallelSource1,0,0.068096
AnsiC,1350000,outputParallelSource1,0,0.049263
ParallelForOpenMP,1350000,outputParallelSource1,0,0.041006
GPU 0 OpenCL,1350000,outputParallelSource1,0,0.068957
GPU 1 OpenCL,1350000,outputParallelSource1,0,0.081598
AnsiC,1750000,outputParallelSource1,0,0.063878
ParallelForOpenMP,1750000,outputParallelSource1,0,0.054157
GPU 0 OpenCL,1750000,outputParallelSource1,0,0.085022
GPU 1 OpenCL,1750000,outputParallelSource1,0,0.090095
AnsiC,2350000,outputParallelSource1,0,0.084288
ParallelForOpenMP,2350000,outputParallelSource1,0,0.070246
GPU 0 OpenCL,2350000,outputParallelSource1,0,0.103075
GPU 1 OpenCL,2350000,outputParallelSource1,0,0.115386
AnsiC,3000000,outputParallelSource1,0,0.110278
ParallelForOpenMP,3000000,outputParallelSource1,0,0.088843
GPU 0 OpenCL,3000000,outputParallelSource1,0,0.126077
GPU 1 OpenCL,3000000,outputParallelSource1,0,0.127980
AnsiC,4200000,outputParallelSource1,0,0.148433
ParallelForOpenMP,4200000,outputParallelSource1,0,0.126658
GPU 0 OpenCL,4200000,outputParallelSource1,0,0.154393
GPU 1 OpenCL,4200000,outputParallelSource1,0,0.165661
AnsiC,5500000,outputParallelSource1,0,0.194334
ParallelForOpenMP,5500000,outputParallelSource1,0,0.159610
GPU 0 OpenCL,5500000,outputParallelSource1,0,0.194954
GPU 1 OpenCL,5500000,outputParallelSource1,0,0.202904
AnsiC,7500000,outputParallelSource1,0,0.274637
ParallelForOpenMP,7500000,outputParallelSource1,0,0.220387
GPU 0 OpenCL,7500000,outputParallelSource1,0,0.252435
GPU 1 OpenCL,7500000,outputParallelSource1,0,0.266325
AnsiC,10000000,outputParallelSource1,0,0.357649
ParallelForOpenMP,10000000,outputParallelSource1,0,0.299251
GPU 0 OpenCL,10000000,outputParallelSource1,0,0.332807
GPU 1 OpenCL,10000000,outputParallelSource1,0,0.344987
AnsiC,13500000,outputParallelSource1,0,0.476571
ParallelForOpenMP,13500000,outputParallelSource1,0,0.392074
GPU 0 OpenCL,13500000,outputParallelSource1,0,0.438823
GPU 1 OpenCL,13500000,outputParallelSource1,0,0.444747
AnsiC,17500000,outputParallelSource1,0,0.607245
ParallelForOpenMP,17500000,outputParallelSource1,0,0.517463
GPU 0 OpenCL,17500000,outputParallelSource1,0,0.560415
GPU 1 OpenCL,17500000,outputParallelSource1,0,0.566983
AnsiC,23500000,outputParallelSource1,0,0.815873
ParallelForOpenMP,23500000,outputParallelSource1,0,0.687039
GPU 0 OpenCL,23500000,outputParallelSource1,0,0.744121
GPU 1 OpenCL,23500000,outputParallelSource1,0,0.745289
AnsiC,30000000,outputParallelSource1,0,1.060851
ParallelForOpenMP,30000000,outputParallelSource1,0,0.872590
GPU 0 OpenCL,30000000,outputParallelSource1,0,0.923076
GPU 1 OpenCL,30000000,outputParallelSource1,0,0.944236
AnsiC,42000000,outputParallelSource1,0,1.474264
ParallelForOpenMP,42000000,outputParallelSource1,0,1.197741
GPU 0 OpenCL,42000000,outputParallelSource1,0,1.314007
GPU 1 OpenCL,42000000,outputParallelSource1,0,1.347280
AnsiC,55000000,outputParallelSource1,0,1.927484
ParallelForOpenMP,55000000,outputParallelSource1,0,1.531449
GPU 0 OpenCL,55000000,outputParallelSource1,0,1.694644
GPU 1 OpenCL,55000000,outputParallelSource1,0,1.693650
AnsiC,75000000,outputParallelSource1,0,2.608125
ParallelForOpenMP,75000000,outputParallelSource1,0,2.076801
GPU 0 OpenCL,75000000,outputParallelSource1,1,1.830102
GPU 1 OpenCL,75000000,outputParallelSource1,1,1.837208
AnsiC,100000,outputParallelSource2,0,0.004741
ParallelForOpenMP,100000,outputParallelSource2,0,0.004134
GPU 0 OpenCL,100000,outputParallelSource2,0,0.036417
GPU 1 OpenCL,100000,outputParallelSource2,0,0.041538
AnsiC,135000,outputParallelSource2,0,0.007643
ParallelForOpenMP,135000,outputParallelSource2,0,0.005514
GPU 0 OpenCL,135000,outputParallelSource2,0,0.032496
GPU 1 OpenCL,135000,outputParallelSource2,0,0.044728
AnsiC,175000,outputParallelSource2,0,0.008726
ParallelForOpenMP,175000,outputParallelSource2,0,0.008448
GPU 0 OpenCL,175000,outputParallelSource2,0,0.037393
GPU 1 OpenCL,175000,outputParallelSource2,0,0.041942
AnsiC,235000,outputParallelSource2,0,0.011595
ParallelForOpenMP,235000,outputParallelSource2,0,0.010296
GPU 0 OpenCL,235000,outputParallelSource2,0,0.037661
GPU 1 OpenCL,235000,outputParallelSource2,0,0.043259
AnsiC,300000,outputParallelSource2,0,0.014256
ParallelForOpenMP,300000,outputParallelSource2,0,0.014516
GPU 0 OpenCL,300000,outputParallelSource2,0,0.039381
GPU 1 OpenCL,300000,outputParallelSource2,0,0.048810
AnsiC,420000,outputParallelSource2,0,0.019780
ParallelForOpenMP,420000,outputParallelSource2,0,0.016813
GPU 0 OpenCL,420000,outputParallelSource2,0,0.045037
GPU 1 OpenCL,420000,outputParallelSource2,0,0.053689
AnsiC,550000,outputParallelSource2,0,0.024565
ParallelForOpenMP,550000,outputParallelSource2,0,0.021038
GPU 0 OpenCL,550000,outputParallelSource2,0,0.051294
GPU 1 OpenCL,550000,outputParallelSource2,0,0.059655
AnsiC,750000,outputParallelSource2,0,0.032963
ParallelForOpenMP,750000,outputParallelSource2,0,0.029487
GPU 0 OpenCL,750000,outputParallelSource2,0,0.060141
GPU 1 OpenCL,750000,outputParallelSource2,0,0.066059
AnsiC,1000000,outputParallelSource2,0,0.045042
ParallelForOpenMP,1000000,outputParallelSource2,0,0.038392
GPU 0 OpenCL,1000000,outputParallelSource2,0,0.067333
GPU 1 OpenCL,1000000,outputParallelSource2,0,0.076749
AnsiC,1350000,outputParallelSource2,0,0.058936
ParallelForOpenMP,1350000,outputParallelSource2,0,0.049413
GPU 0 OpenCL,1350000,outputParallelSource2,0,0.084573
GPU 1 OpenCL,1350000,outputParallelSource2,0,0.095422
AnsiC,1750000,outputParallelSource2,0,0.074720
ParallelForOpenMP,1750000,outputParallelSource2,0,0.064649
GPU 0 OpenCL,1750000,outputParallelSource2,0,0.099635
GPU 1 OpenCL,1750000,outputParallelSource2,0,0.109609
AnsiC,2350000,outputParallelSource2,0,0.101415
ParallelForOpenMP,2350000,outputParallelSource2,0,0.087666
GPU 0 OpenCL,2350000,outputParallelSource2,0,0.124925
GPU 1 OpenCL,2350000,outputParallelSource2,0,0.133402
AnsiC,3000000,outputParallelSource2,0,0.129628
ParallelForOpenMP,3000000,outputParallelSource2,0,0.112122
GPU 0 OpenCL,3000000,outputParallelSource2,0,0.149009
GPU 1 OpenCL,3000000,outputParallelSource2,0,0.156723
AnsiC,4200000,outputParallelSource2,0,0.184544
ParallelForOpenMP,4200000,outputParallelSource2,0,0.160960
GPU 0 OpenCL,4200000,outputParallelSource2,0,0.202365
GPU 1 OpenCL,4200000,outputParallelSource2,0,0.209707
AnsiC,5500000,outputParallelSource2,0,0.234809
ParallelForOpenMP,5500000,outputParallelSource2,0,0.202417
GPU 0 OpenCL,5500000,outputParallelSource2,0,0.246407
GPU 1 OpenCL,5500000,outputParallelSource2,0,0.273190
AnsiC,7500000,outputParallelSource2,0,0.317224
ParallelForOpenMP,7500000,outputParallelSource2,0,0.271489
GPU 0 OpenCL,7500000,outputParallelSource2,0,0.328765
GPU 1 OpenCL,7500000,outputParallelSource2,0,0.333783
AnsiC,10000000,outputParallelSource2,0,0.418275
ParallelForOpenMP,10000000,outputParallelSource2,0,0.366508
GPU 0 OpenCL,10000000,outputParallelSource2,0,0.425324
GPU 1 OpenCL,10000000,outputParallelSource2,0,0.432792
AnsiC,13500000,outputParallelSource2,0,0.582440
ParallelForOpenMP,13500000,outputParallelSource2,0,0.493353
GPU 0 OpenCL,13500000,outputParallelSource2,0,0.566875
GPU 1 OpenCL,13500000,outputParallelSource2,0,0.584809
AnsiC,17500000,outputParallelSource2,0,0.758724
ParallelForOpenMP,17500000,outputParallelSource2,0,0.644518
GPU 0 OpenCL,17500000,outputParallelSource2,0,0.732973
GPU 1 OpenCL,17500000,outputParallelSource2,0,0.747531
AnsiC,23500000,outputParallelSource2,0,1.001065
ParallelForOpenMP,23500000,outputParallelSource2,0,0.860438
GPU 0 OpenCL,23500000,outputParallelSource2,0,0.967509
GPU 1 OpenCL,23500000,outputParallelSource2,0,0.963189
AnsiC,30000000,outputParallelSource2,0,1.265980
ParallelForOpenMP,30000000,outputParallelSource2,0,1.091446
GPU 0 OpenCL,30000000,outputParallelSource2,0,1.220103
GPU 1 OpenCL,30000000,outputParallelSource2,0,1.240830
AnsiC,42000000,outputParallelSource2,0,1.818057
ParallelForOpenMP,42000000,outputParallelSource2,0,1.506784
GPU 0 OpenCL,42000000,outputParallelSource2,0,1.700006
GPU 1 OpenCL,42000000,outputParallelSource2,0,1.695495
AnsiC,55000000,outputParallelSource2,0,2.318359
ParallelForOpenMP,55000000,outputParallelSource2,0,1.919500
GPU 0 OpenCL,55000000,outputParallelSource2,0,1.771296
GPU 1 OpenCL,55000000,outputParallelSource2,0,1.772609
AnsiC,75000000,outputParallelSource2,0,3.168862
ParallelForOpenMP,75000000,outputParallelSource2,0,2.581908
GPU 0 OpenCL,75000000,outputParallelSource2,0,2.406681
GPU 1 OpenCL,75000000,outputParallelSource2,0,2.423410
AnsiC,100000,outputParallelSource3,0,0.008453
ParallelForOpenMP,100000,outputParallelSource3,0,0.006697
GPU 0 OpenCL,100000,outputParallelSource3,0,0.032277
GPU 1 OpenCL,100000,outputParallelSource3,0,0.042032
AnsiC,135000,outputParallelSource3,0,0.012568
ParallelForOpenMP,135000,outputParallelSource3,0,0.006404
GPU 0 OpenCL,135000,outputParallelSource3,0,0.034503
GPU 1 OpenCL,135000,outputParallelSource3,0,0.044220
AnsiC,175000,outputParallelSource3,0,0.015024
ParallelForOpenMP,175000,outputParallelSource3,0,0.010826
GPU 0 OpenCL,175000,outputParallelSource3,0,0.037594
GPU 1 OpenCL,175000,outputParallelSource3,0,0.043969
AnsiC,235000,outputParallelSource3,0,0.021354
ParallelForOpenMP,235000,outputParallelSource3,0,0.012420
GPU 0 OpenCL,235000,outputParallelSource3,0,0.040349
GPU 1 OpenCL,235000,outputParallelSource3,0,0.048431
AnsiC,300000,outputParallelSource3,0,0.027101
ParallelForOpenMP,300000,outputParallelSource3,0,0.015063
GPU 0 OpenCL,300000,outputParallelSource3,0,0.045176
GPU 1 OpenCL,300000,outputParallelSource3,0,0.051953
AnsiC,420000,outputParallelSource3,0,0.037034
ParallelForOpenMP,420000,outputParallelSource3,0,0.022087
GPU 0 OpenCL,420000,outputParallelSource3,0,0.052385
GPU 1 OpenCL,420000,outputParallelSource3,0,0.057744
AnsiC,550000,outputParallelSource3,0,0.049673
ParallelForOpenMP,550000,outputParallelSource3,0,0.025370
GPU 0 OpenCL,550000,outputParallelSource3,0,0.060310
GPU 1 OpenCL,550000,outputParallelSource3,0,0.063909
AnsiC,750000,outputParallelSource3,0,0.063914
ParallelForOpenMP,750000,outputParallelSource3,0,0.034144
GPU 0 OpenCL,750000,outputParallelSource3,0,0.065887
GPU 1 OpenCL,750000,outputParallelSource3,0,0.079556
AnsiC,1000000,outputParallelSource3,0,0.087605
ParallelForOpenMP,1000000,outputParallelSource3,0,0.046259
GPU 0 OpenCL,1000000,outputParallelSource3,0,0.080170
GPU 1 OpenCL,1000000,outputParallelSource3,0,0.086986
AnsiC,1350000,outputParallelSource3,0,0.117467
ParallelForOpenMP,1350000,outputParallelSource3,0,0.061490
GPU 0 OpenCL,1350000,outputParallelSource3,0,0.097936
GPU 1 OpenCL,1350000,outputParallelSource3,0,0.104667
AnsiC,1750000,outputParallelSource3,0,0.153614
ParallelForOpenMP,1750000,outputParallelSource3,0,0.079711
GPU 0 OpenCL,1750000,outputParallelSource3,0,0.117476
GPU 1 OpenCL,1750000,outputParallelSource3,0,0.125456
AnsiC,2350000,outputParallelSource3,0,0.196289
ParallelForOpenMP,2350000,outputParallelSource3,0,0.105977
GPU 0 OpenCL,2350000,outputParallelSource3,0,0.149906
GPU 1 OpenCL,2350000,outputParallelSource3,0,0.157805
AnsiC,3000000,outputParallelSource3,0,0.252996
ParallelForOpenMP,3000000,outputParallelSource3,0,0.137922
GPU 0 OpenCL,3000000,outputParallelSource3,0,0.182329
GPU 1 OpenCL,3000000,outputParallelSource3,0,0.188589
AnsiC,4200000,outputParallelSource3,0,0.353474
ParallelForOpenMP,4200000,outputParallelSource3,0,0.195406
GPU 0 OpenCL,4200000,outputParallelSource3,0,0.239251
GPU 1 OpenCL,4200000,outputParallelSource3,0,0.247506
AnsiC,5500000,outputParallelSource3,0,0.461861
ParallelForOpenMP,5500000,outputParallelSource3,0,0.253695
GPU 0 OpenCL,5500000,outputParallelSource3,0,0.299412
GPU 1 OpenCL,5500000,outputParallelSource3,0,0.312059
AnsiC,7500000,outputParallelSource3,0,0.632753
ParallelForOpenMP,7500000,outputParallelSource3,0,0.336798
GPU 0 OpenCL,7500000,outputParallelSource3,0,0.401985
GPU 1 OpenCL,7500000,outputParallelSource3,0,0.419315
AnsiC,10000000,outputParallelSource3,0,0.838559
ParallelForOpenMP,10000000,outputParallelSource3,0,0.446345
GPU 0 OpenCL,10000000,outputParallelSource3,0,0.524546
GPU 1 OpenCL,10000000,outputParallelSource3,0,0.528630
AnsiC,13500000,outputParallelSource3,0,1.183562
ParallelForOpenMP,13500000,outputParallelSource3,0,0.601642
GPU 0 OpenCL,13500000,outputParallelSource3,0,0.689749
GPU 1 OpenCL,13500000,outputParallelSource3,0,0.714460
AnsiC,17500000,outputParallelSource3,0,1.485576
ParallelForOpenMP,17500000,outputParallelSource3,0,0.776762
GPU 0 OpenCL,17500000,outputParallelSource3,0,0.882166
GPU 1 OpenCL,17500000,outputParallelSource3,0,0.912184
AnsiC,23500000,outputParallelSource3,0,1.976831
ParallelForOpenMP,23500000,outputParallelSource3,0,1.060563
GPU 0 OpenCL,23500000,outputParallelSource3,0,1.192988
GPU 1 OpenCL,23500000,outputParallelSource3,0,1.206675
AnsiC,30000000,outputParallelSource3,0,2.523483
ParallelForOpenMP,30000000,outputParallelSource3,0,1.342870
GPU 0 OpenCL,30000000,outputParallelSource3,0,1.517990
GPU 1 OpenCL,30000000,outputParallelSource3,0,1.542090
AnsiC,42000000,outputParallelSource3,0,3.526078
ParallelForOpenMP,42000000,outputParallelSource3,0,1.837827
GPU 0 OpenCL,42000000,outputParallelSource3,0,2.158372
GPU 1 OpenCL,42000000,outputParallelSource3,0,2.366380
AnsiC,55000000,outputParallelSource3,0,4.598994
ParallelForOpenMP,55000000,outputParallelSource3,0,2.367370
GPU 0 OpenCL,55000000,outputParallelSource3,0,2.232733
GPU 1 OpenCL,55000000,outputParallelSource3,0,2.233122
AnsiC,75000000,outputParallelSource3,0,6.285773
ParallelForOpenMP,75000000,outputParallelSource3,0,3.208012
GPU 0 OpenCL,75000000,outputParallelSource3,0,2.993091
GPU 1 OpenCL,75000000,outputParallelSource3,0,3.004882
AnsiC,100000,outputParallelSource4,0,0.012246
ParallelForOpenMP,100000,outputParallelSource4,0,0.007572
GPU 0 OpenCL,100000,outputParallelSource4,0,0.038507
GPU 1 OpenCL,100000,outputParallelSource4,0,0.042308
AnsiC,135000,outputParallelSource4,0,0.016364
ParallelForOpenMP,135000,outputParallelSource4,0,0.010811
GPU 0 OpenCL,135000,outputParallelSource4,0,0.038968
GPU 1 OpenCL,135000,outputParallelSource4,0,0.046971
AnsiC,175000,outputParallelSource4,0,0.021292
ParallelForOpenMP,175000,outputParallelSource4,0,0.013690
GPU 0 OpenCL,175000,outputParallelSource4,0,0.041030
GPU 1 OpenCL,175000,outputParallelSource4,0,0.048755
AnsiC,235000,outputParallelSource4,0,0.030075
ParallelForOpenMP,235000,outputParallelSource4,0,0.016902
GPU 0 OpenCL,235000,outputParallelSource4,0,0.046291
GPU 1 OpenCL,235000,outputParallelSource4,0,0.058531
AnsiC,300000,outputParallelSource4,0,0.036335
ParallelForOpenMP,300000,outputParallelSource4,0,0.022169
GPU 0 OpenCL,300000,outputParallelSource4,0,0.053784
GPU 1 OpenCL,300000,outputParallelSource4,0,0.063139
AnsiC,420000,outputParallelSource4,0,0.051496
ParallelForOpenMP,420000,outputParallelSource4,0,0.030107
GPU 0 OpenCL,420000,outputParallelSource4,0,0.068447
GPU 1 OpenCL,420000,outputParallelSource4,0,0.069763
AnsiC,550000,outputParallelSource4,0,0.069521
ParallelForOpenMP,550000,outputParallelSource4,0,0.038819
GPU 0 OpenCL,550000,outputParallelSource4,0,0.078490
GPU 1 OpenCL,550000,outputParallelSource4,0,0.084114
AnsiC,750000,outputParallelSource4,0,0.090622
ParallelForOpenMP,750000,outputParallelSource4,0,0.056534
GPU 0 OpenCL,750000,outputParallelSource4,0,0.090159
GPU 1 OpenCL,750000,outputParallelSource4,0,0.100184
AnsiC,1000000,outputParallelSource4,0,0.121281
ParallelForOpenMP,1000000,outputParallelSource4,0,0.070344
GPU 0 OpenCL,1000000,outputParallelSource4,0,0.111402
GPU 1 OpenCL,1000000,outputParallelSource4,0,0.117436
AnsiC,1350000,outputParallelSource4,0,0.167553
ParallelForOpenMP,1350000,outputParallelSource4,0,0.096327
GPU 0 OpenCL,1350000,outputParallelSource4,0,0.138893
GPU 1 OpenCL,1350000,outputParallelSource4,0,0.147195
AnsiC,1750000,outputParallelSource4,0,0.215277
ParallelForOpenMP,1750000,outputParallelSource4,0,0.126083
GPU 0 OpenCL,1750000,outputParallelSource4,0,0.169896
GPU 1 OpenCL,1750000,outputParallelSource4,0,0.178802
AnsiC,2350000,outputParallelSource4,0,0.294342
ParallelForOpenMP,2350000,outputParallelSource4,0,0.165835
GPU 0 OpenCL,2350000,outputParallelSource4,0,0.218406
GPU 1 OpenCL,2350000,outputParallelSource4,0,0.229725
AnsiC,3000000,outputParallelSource4,0,0.362983
ParallelForOpenMP,3000000,outputParallelSource4,0,0.210616
GPU 0 OpenCL,3000000,outputParallelSource4,0,0.275123
GPU 1 OpenCL,3000000,outputParallelSource4,0,0.279576
AnsiC,4200000,outputParallelSource4,0,0.512322
ParallelForOpenMP,4200000,outputParallelSource4,0,0.293623
GPU 0 OpenCL,4200000,outputParallelSource4,0,0.365621
GPU 1 OpenCL,4200000,outputParallelSource4,0,0.382951
AnsiC,5500000,outputParallelSource4,0,0.669509
ParallelForOpenMP,5500000,outputParallelSource4,0,0.389232
GPU 0 OpenCL,5500000,outputParallelSource4,0,0.463259
GPU 1 OpenCL,5500000,outputParallelSource4,0,0.478229
AnsiC,7500000,outputParallelSource4,0,0.903179
ParallelForOpenMP,7500000,outputParallelSource4,0,0.521456
GPU 0 OpenCL,7500000,outputParallelSource4,0,0.617871
GPU 1 OpenCL,7500000,outputParallelSource4,0,0.644739
AnsiC,10000000,outputParallelSource4,0,1.238062
ParallelForOpenMP,10000000,outputParallelSource4,0,0.708249
GPU 0 OpenCL,10000000,outputParallelSource4,0,0.829701
GPU 1 OpenCL,10000000,outputParallelSource4,0,0.854527
AnsiC,13500000,outputParallelSource4,0,1.804169
ParallelForOpenMP,13500000,outputParallelSource4,0,0.952777
GPU 0 OpenCL,13500000,outputParallelSource4,0,1.125594
GPU 1 OpenCL,13500000,outputParallelSource4,0,1.129726
AnsiC,17500000,outputParallelSource4,0,2.116251
ParallelForOpenMP,17500000,outputParallelSource4,0,1.236021
GPU 0 OpenCL,17500000,outputParallelSource4,0,1.434068
GPU 1 OpenCL,17500000,outputParallelSource4,0,1.426066
AnsiC,23500000,outputParallelSource4,0,2.850021
ParallelForOpenMP,23500000,outputParallelSource4,0,1.634487
GPU 0 OpenCL,23500000,outputParallelSource4,0,1.885344
GPU 1 OpenCL,23500000,outputParallelSource4,0,1.873149
AnsiC,30000000,outputParallelSource4,0,3.614888
ParallelForOpenMP,30000000,outputParallelSource4,0,2.091166
GPU 0 OpenCL,30000000,outputParallelSource4,0,1.915568
GPU 1 OpenCL,30000000,outputParallelSource4,0,1.947944
AnsiC,42000000,outputParallelSource4,0,5.101613
ParallelForOpenMP,42000000,outputParallelSource4,0,2.891502
GPU 0 OpenCL,42000000,outputParallelSource4,0,2.672830
GPU 1 OpenCL,42000000,outputParallelSource4,0,2.670151
AnsiC,55000000,outputParallelSource4,0,6.671911
ParallelForOpenMP,55000000,outputParallelSource4,0,3.782535
GPU 0 OpenCL,55000000,outputParallelSource4,0,3.506263
GPU 1 OpenCL,55000000,outputParallelSource4,0,3.513764
AnsiC,75000000,outputParallelSource4,0,11.033329
ParallelForOpenMP,75000000,outputParallelSource4,0,5.327673
GPU 0 OpenCL,75000000,outputParallelSource4,0,4.732778
GPU 1 OpenCL,75000000,outputParallelSource4,0,4.742961
